		{
			"id": "00000000-0000-0000-0000-000000000001",
			"headers": "Content-Type: text/xml\nSOAPAction: http://gimpy.i3domain.inin.com/TCDBWebService/CreateInactiveTestCase\n",
			"url": "http://gimpy.i3domain.inin.com/TCDBWebService/TCDBWebService.asmx",
			"pathVariables": {},
			"preRequestScript": "",
			"method": "POST",
			"collectionId": "00000000-0000-0000-0000-000000000007",
			"data": [],
			"dataMode": "raw",
			"name": "1",
			"description": "",
			"descriptionFormat": "html",
			"time": 1428691633073,
			"version": 2,
			"responses": [],
			"tests": "var jsonObject = xmlToJson(responseBody);\nvar importResult = JSON.stringify(jsonObject);\nvar match = importResult.match(/testcaseid.+\\:\\\\\\\"(\\d+).+imported/);\npostman.setGlobalVariable( \"testCaseId\", match[1]);\nconsole.log(\"Test Case Number Imported \" + match[1]);",
			"currentHelper": "normal",
			"helperAttributes": {},
			"collectionOwner": 0,
			"write": true,
			"synced": false,
			"owner": "39537",
			"collection": "00000000-0000-0000-0000-000000000007",
			"rawModeData": "<soapenv:Envelope xmlns:soapenv=\"http://schemas.xmlsoap.org/soap/envelope/\" xmlns:gim=\"http://gimpy.i3domain.inin.com\">\r\n  <soapenv:Header/>\r\n  <soapenv:Body>\r\n    <gim:CreateInactiveTestCase>\r\n      <!--Optional:-->\r\n      <gim:testCaseXml>       \r\n                <![CDATA[         \r\n    <testcases username=\"{{gimpyUsername}}\">\r\n    <testcase codebase=\"PureCloud\" id=\"{{testCaseId}}\" name=\"\" priority=\"\" state=\"Inactive\">\r\n        <description></description>\r\n        <estimatedruntime>0.20</estimatedruntime>\r\n        <assumptions></assumptions>\r\n        <limitations> </limitations>\r\n        <notes> </notes>\r\n        <data> </data>\r\n        <type>Public API Endpoint Only</type>\r\n        <howfound>Tester Input</howfound>\r\n        <targetrelease>PureCloud 1.0GA</targetrelease>\r\n        <pscim>\r\n            <product>PureCloud</product>\r\n        </pscim>\r\n        <teststeps>\r\n            <teststep action=\"\" expectedresult=\"\"/>\r\n        </teststeps>\r\n    </testcase>\r\n    </testcases>\r\n\t\t]]>\r\n      </gim:testCaseXml>\r\n    </gim:CreateInactiveTestCase>\r\n  </soapenv:Body>\r\n</soapenv:Envelope>\r\n"
		},


		{
			"id": "00000000-0000-0000-0000-000000000002",
			"headers": "Content-Type: text/xml\nSOAPAction: http://gimpy.i3domain.inin.com/TCDBWebService/CreateInactiveTestCase\n",
			"url": "http://gimpy.i3domain.inin.com/TCDBWebService/TCDBWebService.asmx",
			"pathVariables": {},
			"preRequestScript": "",
			"method": "POST",
			"collectionId": "00000000-0000-0000-0000-000000000007",
			"data": [],
			"dataMode": "raw",
			"name": "2",
			"description": "",
			"descriptionFormat": "html",
			"time": 1428691633073,
			"version": 2,
			"responses": [],
			"tests": "var jsonObject = xmlToJson(responseBody);\nvar importResult = JSON.stringify(jsonObject);\nvar match = importResult.match(/testcaseid.+\\:\\\\\\\"(\\d+).+imported/);\npostman.setGlobalVariable( \"testCaseId\", match[1]);\nconsole.log(\"Test Case Number Imported \" + match[1]);",
			"currentHelper": "normal",
			"helperAttributes": {},
			"collectionOwner": 0,
			"write": true,
			"synced": false,
			"owner": "39537",
			"collection": "00000000-0000-0000-0000-000000000007",
			"rawModeData": "<soapenv:Envelope xmlns:soapenv=\"http://schemas.xmlsoap.org/soap/envelope/\" xmlns:gim=\"http://gimpy.i3domain.inin.com\">\r\n  <soapenv:Header/>\r\n  <soapenv:Body>\r\n    <gim:CreateInactiveTestCase>\r\n      <!--Optional:-->\r\n      <gim:testCaseXml>       \r\n                <![CDATA[         \r\n    <testcases username=\"{{gimpyUsername}}\">\r\n    <testcase codebase=\"PureCloud\" id=\"{{testCaseId}}\" name=\"API - Work Item Submit Data - Radio Button - Required NOT Answered\" priority=\"P1\" state=\"Inactive\">\r\n        <description>Verify the correct behavior upon submitting a Work Item with a required checkbox that has NOT been answered</description>\r\n        <estimatedruntime>0.20</estimatedruntime>\r\n        <assumptions>A Work Item exists that contains a radio button control that is marked as required.\r\n The control has NOT had a value set to fulfill the requirement.</assumptions>\r\n        <limitations> </limitations>\r\n        <notes> </notes>\r\n        <data> </data>\r\n        <type>Public API Endpoint Only</type>\r\n        <howfound>Tester Input</howfound>\r\n        <targetrelease>PureCloud 1.0GA</targetrelease>\r\n        <pscim>\r\n            <product>PureCloud</product>\r\n        </pscim>\r\n        <teststeps>\r\n            <teststep action=\"Call an endpoint to submit a Work Item that contains a required radio button that has NOT been answered\" expectedresult=\"A HTTP response is returned indicating the submit failed\"/>\r\n        </teststeps>\r\n    </testcase>\r\n    </testcases>\r\n\t\t]]>\r\n      </gim:testCaseXml>\r\n    </gim:CreateInactiveTestCase>\r\n  </soapenv:Body>\r\n</soapenv:Envelope>\r\n"
		},


		{
			"id": "00000000-0000-0000-0000-000000000003",
			"headers": "Content-Type: text/xml\nSOAPAction: http://gimpy.i3domain.inin.com/TCDBWebService/CreateInactiveTestCase\n",
			"url": "http://gimpy.i3domain.inin.com/TCDBWebService/TCDBWebService.asmx",
			"pathVariables": {},
			"preRequestScript": "",
			"method": "POST",
			"collectionId": "00000000-0000-0000-0000-000000000007",
			"data": [],
			"dataMode": "raw",
			"name": "3",
			"description": "",
			"descriptionFormat": "html",
			"time": 1428691633073,
			"version": 2,
			"responses": [],
			"tests": "var jsonObject = xmlToJson(responseBody);\nvar importResult = JSON.stringify(jsonObject);\nvar match = importResult.match(/testcaseid.+\\:\\\\\\\"(\\d+).+imported/);\npostman.setGlobalVariable( \"testCaseId\", match[1]);\nconsole.log(\"Test Case Number Imported \" + match[1]);",
			"currentHelper": "normal",
			"helperAttributes": {},
			"collectionOwner": 0,
			"write": true,
			"synced": false,
			"owner": "39537",
			"collection": "00000000-0000-0000-0000-000000000007",
			"rawModeData": "<soapenv:Envelope xmlns:soapenv=\"http://schemas.xmlsoap.org/soap/envelope/\" xmlns:gim=\"http://gimpy.i3domain.inin.com\">\r\n  <soapenv:Header/>\r\n  <soapenv:Body>\r\n    <gim:CreateInactiveTestCase>\r\n      <!--Optional:-->\r\n      <gim:testCaseXml>       \r\n                <![CDATA[         \r\n    <testcases username=\"{{gimpyUsername}}\">\r\n    <testcase codebase=\"PureCloud\" id=\"{{testCaseId}}\" name=\"API - Work Item Submit Data - Drop List - Required NOT Answered\" priority=\"P1\" state=\"Inactive\">\r\n        <description>Verify the correct behavior upon submitting a Work Item with a required drop list that has NOT been answered</description>\r\n        <estimatedruntime>0.20</estimatedruntime>\r\n        <assumptions>A Work Item exists that contains a drop list control that is marked as required.\r\n The control has NOT had a value set to fulfill the requirement.</assumptions>\r\n        <limitations> </limitations>\r\n        <notes> </notes>\r\n        <data> </data>\r\n        <type>Public API Endpoint Only</type>\r\n        <howfound>Tester Input</howfound>\r\n        <targetrelease>PureCloud 1.0GA</targetrelease>\r\n        <pscim>\r\n            <product>PureCloud</product>\r\n        </pscim>\r\n        <teststeps>\r\n            <teststep action=\"Call an endpoint to submit a Work Item that contains a required drop list that has NOTbeen answered\" expectedresult=\"A HTTP response is returned indicating the submit failed\"/>\r\n        </teststeps>\r\n    </testcase>\r\n    </testcases>\r\n\t\t]]>\r\n      </gim:testCaseXml>\r\n    </gim:CreateInactiveTestCase>\r\n  </soapenv:Body>\r\n</soapenv:Envelope>\r\n"
		},


		{
			"id": "00000000-0000-0000-0000-000000000004",
			"headers": "Content-Type: text/xml\nSOAPAction: http://gimpy.i3domain.inin.com/TCDBWebService/CreateInactiveTestCase\n",
			"url": "http://gimpy.i3domain.inin.com/TCDBWebService/TCDBWebService.asmx",
			"pathVariables": {},
			"preRequestScript": "",
			"method": "POST",
			"collectionId": "00000000-0000-0000-0000-000000000007",
			"data": [],
			"dataMode": "raw",
			"name": "4",
			"description": "",
			"descriptionFormat": "html",
			"time": 1428691633073,
			"version": 2,
			"responses": [],
			"tests": "var jsonObject = xmlToJson(responseBody);\nvar importResult = JSON.stringify(jsonObject);\nvar match = importResult.match(/testcaseid.+\\:\\\\\\\"(\\d+).+imported/);\npostman.setGlobalVariable( \"testCaseId\", match[1]);\nconsole.log(\"Test Case Number Imported \" + match[1]);",
			"currentHelper": "normal",
			"helperAttributes": {},
			"collectionOwner": 0,
			"write": true,
			"synced": false,
			"owner": "39537",
			"collection": "00000000-0000-0000-0000-000000000007",
			"rawModeData": "<soapenv:Envelope xmlns:soapenv=\"http://schemas.xmlsoap.org/soap/envelope/\" xmlns:gim=\"http://gimpy.i3domain.inin.com\">\r\n  <soapenv:Header/>\r\n  <soapenv:Body>\r\n    <gim:CreateInactiveTestCase>\r\n      <!--Optional:-->\r\n      <gim:testCaseXml>       \r\n                <![CDATA[         \r\n    <testcases username=\"{{gimpyUsername}}\">\r\n    <testcase codebase=\"PureCloud\" id=\"{{testCaseId}}\" name=\"API - Work Item Data - Checkbox - Verify Proper Value Update\" priority=\"P1\" state=\"Inactive\">\r\n        <description>Verify the correct behavior upon updating a checkbox selected value</description>\r\n        <estimatedruntime>0.20</estimatedruntime>\r\n        <assumptions>A Work Item exists that contains a checkbox control that is marked as read only.</assumptions>\r\n        <limitations> </limitations>\r\n        <notes> </notes>\r\n        <data> </data>\r\n        <type>Public API Endpoint Only</type>\r\n        <howfound>Tester Input</howfound>\r\n        <targetrelease>PureCloud 1.0GA</targetrelease>\r\n        <pscim>\r\n            <product>PureCloud</product>\r\n        </pscim>\r\n        <teststeps>\r\n            <teststep action=\"Call an endpoint to update a checkbox selected value that is readOnly \" expectedresult=\"A HTTP response is returned indicating the dataItem is read only\"/>\r\n        </teststeps>\r\n    </testcase>\r\n    </testcases>\r\n\t\t]]>\r\n      </gim:testCaseXml>\r\n    </gim:CreateInactiveTestCase>\r\n  </soapenv:Body>\r\n</soapenv:Envelope>\r\n"
		},


		{
			"id": "00000000-0000-0000-0000-000000000005",
			"headers": "Content-Type: text/xml\nSOAPAction: http://gimpy.i3domain.inin.com/TCDBWebService/CreateInactiveTestCase\n",
			"url": "http://gimpy.i3domain.inin.com/TCDBWebService/TCDBWebService.asmx",
			"pathVariables": {},
			"preRequestScript": "",
			"method": "POST",
			"collectionId": "00000000-0000-0000-0000-000000000007",
			"data": [],
			"dataMode": "raw",
			"name": "5",
			"description": "",
			"descriptionFormat": "html",
			"time": 1428691633073,
			"version": 2,
			"responses": [],
			"tests": "var jsonObject = xmlToJson(responseBody);\nvar importResult = JSON.stringify(jsonObject);\nvar match = importResult.match(/testcaseid.+\\:\\\\\\\"(\\d+).+imported/);\npostman.setGlobalVariable( \"testCaseId\", match[1]);\nconsole.log(\"Test Case Number Imported \" + match[1]);",
			"currentHelper": "normal",
			"helperAttributes": {},
			"collectionOwner": 0,
			"write": true,
			"synced": false,
			"owner": "39537",
			"collection": "00000000-0000-0000-0000-000000000007",
			"rawModeData": "<soapenv:Envelope xmlns:soapenv=\"http://schemas.xmlsoap.org/soap/envelope/\" xmlns:gim=\"http://gimpy.i3domain.inin.com\">\r\n  <soapenv:Header/>\r\n  <soapenv:Body>\r\n    <gim:CreateInactiveTestCase>\r\n      <!--Optional:-->\r\n      <gim:testCaseXml>       \r\n                <![CDATA[         \r\n    <testcases username=\"{{gimpyUsername}}\">\r\n    <testcase codebase=\"PureCloud\" id=\"{{testCaseId}}\" name=\"API - Work Item Submit Data - Checkbox - Required NOT Answered\" priority=\"P1\" state=\"Inactive\">\r\n        <description>Verify the correct behavior upon submitting a Work Item with a required checkbox that has NOT been answered</description>\r\n        <estimatedruntime>0.20</estimatedruntime>\r\n        <assumptions>A Work Item exists that contains a checkbox control that is marked as required.\r\n The control has NOT had a value set to fulfill the requirement.</assumptions>\r\n        <limitations> </limitations>\r\n        <notes> </notes>\r\n        <data> </data>\r\n        <type>Public API Endpoint Only</type>\r\n        <howfound>Tester Input</howfound>\r\n        <targetrelease>PureCloud 1.0GA</targetrelease>\r\n        <pscim>\r\n            <product>PureCloud</product>\r\n        </pscim>\r\n        <teststeps>\r\n            <teststep action=\"Call an endpoint to submit a Work Item that contains a required checkbox that has NOT been answered\" expectedresult=\"A HTTP response is returned indicating the submit failed\"/>\r\n        </teststeps>\r\n    </testcase>\r\n    </testcases>\r\n\t\t]]>\r\n      </gim:testCaseXml>\r\n    </gim:CreateInactiveTestCase>\r\n  </soapenv:Body>\r\n</soapenv:Envelope>\r\n"
		},


		{
			"id": "00000000-0000-0000-0000-000000000006",
			"headers": "Content-Type: text/xml\nSOAPAction: http://gimpy.i3domain.inin.com/TCDBWebService/CreateInactiveTestCase\n",
			"url": "http://gimpy.i3domain.inin.com/TCDBWebService/TCDBWebService.asmx",
			"pathVariables": {},
			"preRequestScript": "",
			"method": "POST",
			"collectionId": "00000000-0000-0000-0000-000000000007",
			"data": [],
			"dataMode": "raw",
			"name": "6",
			"description": "",
			"descriptionFormat": "html",
			"time": 1428691633073,
			"version": 2,
			"responses": [],
			"tests": "var jsonObject = xmlToJson(responseBody);\nvar importResult = JSON.stringify(jsonObject);\nvar match = importResult.match(/testcaseid.+\\:\\\\\\\"(\\d+).+imported/);\npostman.setGlobalVariable( \"testCaseId\", match[1]);\nconsole.log(\"Test Case Number Imported \" + match[1]);",
			"currentHelper": "normal",
			"helperAttributes": {},
			"collectionOwner": 0,
			"write": true,
			"synced": false,
			"owner": "39537",
			"collection": "00000000-0000-0000-0000-000000000007",
			"rawModeData": "<soapenv:Envelope xmlns:soapenv=\"http://schemas.xmlsoap.org/soap/envelope/\" xmlns:gim=\"http://gimpy.i3domain.inin.com\">\r\n  <soapenv:Header/>\r\n  <soapenv:Body>\r\n    <gim:CreateInactiveTestCase>\r\n      <!--Optional:-->\r\n      <gim:testCaseXml>       \r\n                <![CDATA[         \r\n    <testcases username=\"{{gimpyUsername}}\">\r\n    <testcase codebase=\"PureCloud\" id=\"{{testCaseId}}\" name=\"API - Work Item Data - Drop List - Verify Proper Value Update\" priority=\"P2\" state=\"Inactive\">\r\n        <description>Verify the correct behavior upon updating a drop list selected value</description>\r\n        <estimatedruntime>0.20</estimatedruntime>\r\n        <assumptions>A Work Item exists that contains a drop list control that is marked as read only.</assumptions>\r\n        <limitations> </limitations>\r\n        <notes> </notes>\r\n        <data> </data>\r\n        <type>Public API Endpoint Only</type>\r\n        <howfound>Tester Input</howfound>\r\n        <targetrelease>PureCloud 1.0GA</targetrelease>\r\n        <pscim>\r\n            <product>PureCloud</product>\r\n        </pscim>\r\n        <teststeps>\r\n            <teststep action=\"Call an endpoint to update a drop list selected value that is readOnly\" expectedresult=\"A HTTP response is returned indicating the dataItem is read only\"/>\r\n        </teststeps>\r\n    </testcase>\r\n    </testcases>\r\n\t\t]]>\r\n      </gim:testCaseXml>\r\n    </gim:CreateInactiveTestCase>\r\n  </soapenv:Body>\r\n</soapenv:Envelope>\r\n"
		},


		{
			"id": "00000000-0000-0000-0000-000000000007",
			"headers": "Content-Type: text/xml\nSOAPAction: http://gimpy.i3domain.inin.com/TCDBWebService/CreateInactiveTestCase\n",
			"url": "http://gimpy.i3domain.inin.com/TCDBWebService/TCDBWebService.asmx",
			"pathVariables": {},
			"preRequestScript": "",
			"method": "POST",
			"collectionId": "00000000-0000-0000-0000-000000000007",
			"data": [],
			"dataMode": "raw",
			"name": "7",
			"description": "",
			"descriptionFormat": "html",
			"time": 1428691633073,
			"version": 2,
			"responses": [],
			"tests": "var jsonObject = xmlToJson(responseBody);\nvar importResult = JSON.stringify(jsonObject);\nvar match = importResult.match(/testcaseid.+\\:\\\\\\\"(\\d+).+imported/);\npostman.setGlobalVariable( \"testCaseId\", match[1]);\nconsole.log(\"Test Case Number Imported \" + match[1]);",
			"currentHelper": "normal",
			"helperAttributes": {},
			"collectionOwner": 0,
			"write": true,
			"synced": false,
			"owner": "39537",
			"collection": "00000000-0000-0000-0000-000000000007",
			"rawModeData": "<soapenv:Envelope xmlns:soapenv=\"http://schemas.xmlsoap.org/soap/envelope/\" xmlns:gim=\"http://gimpy.i3domain.inin.com\">\r\n  <soapenv:Header/>\r\n  <soapenv:Body>\r\n    <gim:CreateInactiveTestCase>\r\n      <!--Optional:-->\r\n      <gim:testCaseXml>       \r\n                <![CDATA[         \r\n    <testcases username=\"{{gimpyUsername}}\">\r\n    <testcase codebase=\"PureCloud\" id=\"{{testCaseId}}\" name=\"API - Work Item Data - Radio Button - Verify Proper Value Update\" priority=\"P3\" state=\"Inactive\">\r\n        <description>Verify the correct behavior upon updating a radio button selected value</description>\r\n        <estimatedruntime>0.20</estimatedruntime>\r\n        <assumptions>A Work Item exists that contains a radio button control that is marked as read only.</assumptions>\r\n        <limitations> </limitations>\r\n        <notes> </notes>\r\n        <data> </data>\r\n        <type>Public API Endpoint Only</type>\r\n        <howfound>Tester Input</howfound>\r\n        <targetrelease>PureCloud 1.0GA</targetrelease>\r\n        <pscim>\r\n            <product>PureCloud</product>\r\n        </pscim>\r\n        <teststeps>\r\n            <teststep action=\"Call an endpoint to update a radio button selected value that is readOnly\" expectedresult=\"A HTTP response is returned indicating the dataItem is read only\"/>\r\n        </teststeps>\r\n    </testcase>\r\n    </testcases>\r\n\t\t]]>\r\n      </gim:testCaseXml>\r\n    </gim:CreateInactiveTestCase>\r\n  </soapenv:Body>\r\n</soapenv:Envelope>\r\n"
		},


		{
			"id": "00000000-0000-0000-0000-000000000008",
			"headers": "Content-Type: text/xml\nSOAPAction: http://gimpy.i3domain.inin.com/TCDBWebService/CreateInactiveTestCase\n",
			"url": "http://gimpy.i3domain.inin.com/TCDBWebService/TCDBWebService.asmx",
			"pathVariables": {},
			"preRequestScript": "",
			"method": "POST",
			"collectionId": "00000000-0000-0000-0000-000000000007",
			"data": [],
			"dataMode": "raw",
			"name": "8",
			"description": "",
			"descriptionFormat": "html",
			"time": 1428691633073,
			"version": 2,
			"responses": [],
			"tests": "var jsonObject = xmlToJson(responseBody);\nvar importResult = JSON.stringify(jsonObject);\nvar match = importResult.match(/testcaseid.+\\:\\\\\\\"(\\d+).+imported/);\npostman.setGlobalVariable( \"testCaseId\", match[1]);\nconsole.log(\"Test Case Number Imported \" + match[1]);",
			"currentHelper": "normal",
			"helperAttributes": {},
			"collectionOwner": 0,
			"write": true,
			"synced": false,
			"owner": "39537",
			"collection": "00000000-0000-0000-0000-000000000007",
			"rawModeData": "<soapenv:Envelope xmlns:soapenv=\"http://schemas.xmlsoap.org/soap/envelope/\" xmlns:gim=\"http://gimpy.i3domain.inin.com\">\r\n  <soapenv:Header/>\r\n  <soapenv:Body>\r\n    <gim:CreateInactiveTestCase>\r\n      <!--Optional:-->\r\n      <gim:testCaseXml>       \r\n                <![CDATA[         \r\n    <testcases username=\"{{gimpyUsername}}\">\r\n    <testcase codebase=\"PureCloud\" id=\"{{testCaseId}}\" name=\"API - Work Item Submit Data - Radio Button - Read Only\" priority=\"P1\" state=\"Inactive\">\r\n        <description>Verify the correct behavior upon submitting a Work Item with a read only radio button</description>\r\n        <estimatedruntime>0.20</estimatedruntime>\r\n        <assumptions>A Work Item exists that contains a radio button control that is marked as read only.</assumptions>\r\n        <limitations> </limitations>\r\n        <notes> </notes>\r\n        <data> </data>\r\n        <type>Public API Endpoint Only</type>\r\n        <howfound>Tester Input</howfound>\r\n        <targetrelease>PureCloud 1.0GA</targetrelease>\r\n        <pscim>\r\n            <product>PureCloud</product>\r\n        </pscim>\r\n        <teststeps>\r\n            <teststep action=\"Call an endpoint to submit a Work item that contains a readOnly radio button\" expectedresult=\"A HTTP response is returned indicating the submit was successful\"/>\r\n        </teststeps>\r\n    </testcase>\r\n    </testcases>\r\n\t\t]]>\r\n      </gim:testCaseXml>\r\n    </gim:CreateInactiveTestCase>\r\n  </soapenv:Body>\r\n</soapenv:Envelope>\r\n"
		},


		{
			"id": "00000000-0000-0000-0000-000000000009",
			"headers": "Content-Type: text/xml\nSOAPAction: http://gimpy.i3domain.inin.com/TCDBWebService/CreateInactiveTestCase\n",
			"url": "http://gimpy.i3domain.inin.com/TCDBWebService/TCDBWebService.asmx",
			"pathVariables": {},
			"preRequestScript": "",
			"method": "POST",
			"collectionId": "00000000-0000-0000-0000-000000000007",
			"data": [],
			"dataMode": "raw",
			"name": "9",
			"description": "",
			"descriptionFormat": "html",
			"time": 1428691633073,
			"version": 2,
			"responses": [],
			"tests": "var jsonObject = xmlToJson(responseBody);\nvar importResult = JSON.stringify(jsonObject);\nvar match = importResult.match(/testcaseid.+\\:\\\\\\\"(\\d+).+imported/);\npostman.setGlobalVariable( \"testCaseId\", match[1]);\nconsole.log(\"Test Case Number Imported \" + match[1]);",
			"currentHelper": "normal",
			"helperAttributes": {},
			"collectionOwner": 0,
			"write": true,
			"synced": false,
			"owner": "39537",
			"collection": "00000000-0000-0000-0000-000000000007",
			"rawModeData": "<soapenv:Envelope xmlns:soapenv=\"http://schemas.xmlsoap.org/soap/envelope/\" xmlns:gim=\"http://gimpy.i3domain.inin.com\">\r\n  <soapenv:Header/>\r\n  <soapenv:Body>\r\n    <gim:CreateInactiveTestCase>\r\n      <!--Optional:-->\r\n      <gim:testCaseXml>       \r\n                <![CDATA[         \r\n    <testcases username=\"{{gimpyUsername}}\">\r\n    <testcase codebase=\"PureCloud\" id=\"{{testCaseId}}\" name=\"API - Work Item Submit Data - Drop List - Read Only\" priority=\"P1\" state=\"Inactive\">\r\n        <description>Verify the correct behavior upon submitting a Work Item with a read only drop list</description>\r\n        <estimatedruntime>0.20</estimatedruntime>\r\n        <assumptions>A Work Item exists that contains a drop list control that is marked as read only.</assumptions>\r\n        <limitations> </limitations>\r\n        <notes> </notes>\r\n        <data> </data>\r\n        <type>Public API Endpoint Only</type>\r\n        <howfound>Tester Input</howfound>\r\n        <targetrelease>PureCloud 1.0GA</targetrelease>\r\n        <pscim>\r\n            <product>PureCloud</product>\r\n        </pscim>\r\n        <teststeps>\r\n            <teststep action=\"Call an endpoint to submit a Work item that contains a readOnly drop list\" expectedresult=\"A HTTP response is returned indicating the submit was successful\"/>\r\n        </teststeps>\r\n    </testcase>\r\n    </testcases>\r\n\t\t]]>\r\n      </gim:testCaseXml>\r\n    </gim:CreateInactiveTestCase>\r\n  </soapenv:Body>\r\n</soapenv:Envelope>\r\n"
		},


		{
			"id": "00000000-0000-0000-0000-000000000010",
			"headers": "Content-Type: text/xml\nSOAPAction: http://gimpy.i3domain.inin.com/TCDBWebService/CreateInactiveTestCase\n",
			"url": "http://gimpy.i3domain.inin.com/TCDBWebService/TCDBWebService.asmx",
			"pathVariables": {},
			"preRequestScript": "",
			"method": "POST",
			"collectionId": "00000000-0000-0000-0000-000000000007",
			"data": [],
			"dataMode": "raw",
			"name": "10",
			"description": "",
			"descriptionFormat": "html",
			"time": 1428691633073,
			"version": 2,
			"responses": [],
			"tests": "var jsonObject = xmlToJson(responseBody);\nvar importResult = JSON.stringify(jsonObject);\nvar match = importResult.match(/testcaseid.+\\:\\\\\\\"(\\d+).+imported/);\npostman.setGlobalVariable( \"testCaseId\", match[1]);\nconsole.log(\"Test Case Number Imported \" + match[1]);",
			"currentHelper": "normal",
			"helperAttributes": {},
			"collectionOwner": 0,
			"write": true,
			"synced": false,
			"owner": "39537",
			"collection": "00000000-0000-0000-0000-000000000007",
			"rawModeData": "<soapenv:Envelope xmlns:soapenv=\"http://schemas.xmlsoap.org/soap/envelope/\" xmlns:gim=\"http://gimpy.i3domain.inin.com\">\r\n  <soapenv:Header/>\r\n  <soapenv:Body>\r\n    <gim:CreateInactiveTestCase>\r\n      <!--Optional:-->\r\n      <gim:testCaseXml>       \r\n                <![CDATA[         \r\n    <testcases username=\"{{gimpyUsername}}\">\r\n    <testcase codebase=\"PureCloud\" id=\"{{testCaseId}}\" name=\"API - Work Item Submit Data - Checkbox - Read Only\" priority=\"P1\" state=\"Inactive\">\r\n        <description>Verify the correct behavior upon submitting a Work Item with a read only checkbox</description>\r\n        <estimatedruntime>0.20</estimatedruntime>\r\n        <assumptions>A Work Item exists that contains a checkbox control that is marked as read only.</assumptions>\r\n        <limitations> </limitations>\r\n        <notes> </notes>\r\n        <data> </data>\r\n        <type>Public API Endpoint Only</type>\r\n        <howfound>Tester Input</howfound>\r\n        <targetrelease>PureCloud 1.0GA</targetrelease>\r\n        <pscim>\r\n            <product>PureCloud</product>\r\n        </pscim>\r\n        <teststeps>\r\n            <teststep action=\"Call an endpoint to submit a Work item that contains a readOnly checkbox\" expectedresult=\"A HTTP response is returned indicating the submit was successful\"/>\r\n        </teststeps>\r\n    </testcase>\r\n    </testcases>\r\n\t\t]]>\r\n      </gim:testCaseXml>\r\n    </gim:CreateInactiveTestCase>\r\n  </soapenv:Body>\r\n</soapenv:Envelope>\r\n"
		},


		{
			"id": "00000000-0000-0000-0000-000000000011",
			"headers": "Content-Type: text/xml\nSOAPAction: http://gimpy.i3domain.inin.com/TCDBWebService/CreateInactiveTestCase\n",
			"url": "http://gimpy.i3domain.inin.com/TCDBWebService/TCDBWebService.asmx",
			"pathVariables": {},
			"preRequestScript": "",
			"method": "POST",
			"collectionId": "00000000-0000-0000-0000-000000000007",
			"data": [],
			"dataMode": "raw",
			"name": "11",
			"description": "",
			"descriptionFormat": "html",
			"time": 1428691633073,
			"version": 2,
			"responses": [],
			"tests": "var jsonObject = xmlToJson(responseBody);\nvar importResult = JSON.stringify(jsonObject);\nvar match = importResult.match(/testcaseid.+\\:\\\\\\\"(\\d+).+imported/);\npostman.setGlobalVariable( \"testCaseId\", match[1]);\nconsole.log(\"Test Case Number Imported \" + match[1]);",
			"currentHelper": "normal",
			"helperAttributes": {},
			"collectionOwner": 0,
			"write": true,
			"synced": false,
			"owner": "39537",
			"collection": "00000000-0000-0000-0000-000000000007",
			"rawModeData": "<soapenv:Envelope xmlns:soapenv=\"http://schemas.xmlsoap.org/soap/envelope/\" xmlns:gim=\"http://gimpy.i3domain.inin.com\">\r\n  <soapenv:Header/>\r\n  <soapenv:Body>\r\n    <gim:CreateInactiveTestCase>\r\n      <!--Optional:-->\r\n      <gim:testCaseXml>       \r\n                <![CDATA[         \r\n    <testcases username=\"{{gimpyUsername}}\">\r\n    <testcase codebase=\"PureCloud\" id=\"{{testCaseId}}\" name=\"API - Work Item Submit Data - Radio Button - Required Answered\" priority=\"P1\" state=\"Inactive\">\r\n        <description>Verify the correct behavior upon submitting a Work Item with a required checkbox that has been answered</description>\r\n        <estimatedruntime>0.20</estimatedruntime>\r\n        <assumptions>A Work Item exists that contains a radio button control that is marked as required.\r\n The control has had a value set to fulfill the requirement.</assumptions>\r\n        <limitations> </limitations>\r\n        <notes> </notes>\r\n        <data> </data>\r\n        <type>Public API Endpoint Only</type>\r\n        <howfound>Tester Input</howfound>\r\n        <targetrelease>PureCloud 1.0GA</targetrelease>\r\n        <pscim>\r\n            <product>PureCloud</product>\r\n        </pscim>\r\n        <teststeps>\r\n            <teststep action=\"Call an endpoint to submit a Work Item that contains a required radio button that has been answered\" expectedresult=\"A HTTP response is returned indicating the submit was successful\"/>\r\n        </teststeps>\r\n    </testcase>\r\n    </testcases>\r\n\t\t]]>\r\n      </gim:testCaseXml>\r\n    </gim:CreateInactiveTestCase>\r\n  </soapenv:Body>\r\n</soapenv:Envelope>\r\n"
		},


		{
			"id": "00000000-0000-0000-0000-000000000012",
			"headers": "Content-Type: text/xml\nSOAPAction: http://gimpy.i3domain.inin.com/TCDBWebService/CreateInactiveTestCase\n",
			"url": "http://gimpy.i3domain.inin.com/TCDBWebService/TCDBWebService.asmx",
			"pathVariables": {},
			"preRequestScript": "",
			"method": "POST",
			"collectionId": "00000000-0000-0000-0000-000000000007",
			"data": [],
			"dataMode": "raw",
			"name": "12",
			"description": "",
			"descriptionFormat": "html",
			"time": 1428691633073,
			"version": 2,
			"responses": [],
			"tests": "var jsonObject = xmlToJson(responseBody);\nvar importResult = JSON.stringify(jsonObject);\nvar match = importResult.match(/testcaseid.+\\:\\\\\\\"(\\d+).+imported/);\npostman.setGlobalVariable( \"testCaseId\", match[1]);\nconsole.log(\"Test Case Number Imported \" + match[1]);",
			"currentHelper": "normal",
			"helperAttributes": {},
			"collectionOwner": 0,
			"write": true,
			"synced": false,
			"owner": "39537",
			"collection": "00000000-0000-0000-0000-000000000007",
			"rawModeData": "<soapenv:Envelope xmlns:soapenv=\"http://schemas.xmlsoap.org/soap/envelope/\" xmlns:gim=\"http://gimpy.i3domain.inin.com\">\r\n  <soapenv:Header/>\r\n  <soapenv:Body>\r\n    <gim:CreateInactiveTestCase>\r\n      <!--Optional:-->\r\n      <gim:testCaseXml>       \r\n                <![CDATA[         \r\n    <testcases username=\"{{gimpyUsername}}\">\r\n    <testcase codebase=\"PureCloud\" id=\"{{testCaseId}}\" name=\"API - Work Item Submit Data - Drop List - Required Answered\" priority=\"P1\" state=\"Inactive\">\r\n        <description>Verify the correct behavior upon submitting a Work Item with a required drop list that has been answered</description>\r\n        <estimatedruntime>0.20</estimatedruntime>\r\n        <assumptions>A Work Item exists that contains a drop list control that is marked as required.\r\n The control has had a value set to fulfill the requirement.</assumptions>\r\n        <limitations> </limitations>\r\n        <notes> </notes>\r\n        <data> </data>\r\n        <type>Public API Endpoint Only</type>\r\n        <howfound>Tester Input</howfound>\r\n        <targetrelease>PureCloud 1.0GA</targetrelease>\r\n        <pscim>\r\n            <product>PureCloud</product>\r\n        </pscim>\r\n        <teststeps>\r\n            <teststep action=\"Call an endpoint to submit a Work Item that contains a required drop list that has been answered\" expectedresult=\"A HTTP response is returned indicating the submit was successful\"/>\r\n        </teststeps>\r\n    </testcase>\r\n    </testcases>\r\n\t\t]]>\r\n      </gim:testCaseXml>\r\n    </gim:CreateInactiveTestCase>\r\n  </soapenv:Body>\r\n</soapenv:Envelope>\r\n"
		},


		{
			"id": "00000000-0000-0000-0000-000000000013",
			"headers": "Content-Type: text/xml\nSOAPAction: http://gimpy.i3domain.inin.com/TCDBWebService/CreateInactiveTestCase\n",
			"url": "http://gimpy.i3domain.inin.com/TCDBWebService/TCDBWebService.asmx",
			"pathVariables": {},
			"preRequestScript": "",
			"method": "POST",
			"collectionId": "00000000-0000-0000-0000-000000000007",
			"data": [],
			"dataMode": "raw",
			"name": "13",
			"description": "",
			"descriptionFormat": "html",
			"time": 1428691633073,
			"version": 2,
			"responses": [],
			"tests": "var jsonObject = xmlToJson(responseBody);\nvar importResult = JSON.stringify(jsonObject);\nvar match = importResult.match(/testcaseid.+\\:\\\\\\\"(\\d+).+imported/);\npostman.setGlobalVariable( \"testCaseId\", match[1]);\nconsole.log(\"Test Case Number Imported \" + match[1]);",
			"currentHelper": "normal",
			"helperAttributes": {},
			"collectionOwner": 0,
			"write": true,
			"synced": false,
			"owner": "39537",
			"collection": "00000000-0000-0000-0000-000000000007",
			"rawModeData": "<soapenv:Envelope xmlns:soapenv=\"http://schemas.xmlsoap.org/soap/envelope/\" xmlns:gim=\"http://gimpy.i3domain.inin.com\">\r\n  <soapenv:Header/>\r\n  <soapenv:Body>\r\n    <gim:CreateInactiveTestCase>\r\n      <!--Optional:-->\r\n      <gim:testCaseXml>       \r\n                <![CDATA[         \r\n    <testcases username=\"{{gimpyUsername}}\">\r\n    <testcase codebase=\"PureCloud\" id=\"{{testCaseId}}\" name=\"API - Work Item Submit Data - Checkbox - Required Answered\" priority=\"P1\" state=\"Inactive\">\r\n        <description>Verify the correct behavior upon submitting a Work Item with a required checkbox that has been answered</description>\r\n        <estimatedruntime>0.20</estimatedruntime>\r\n        <assumptions>A Work Item exists that contains a checkbox control that is marked as required.\r\n The control has had a value set to fulfill the requirement.</assumptions>\r\n        <limitations> </limitations>\r\n        <notes> </notes>\r\n        <data> </data>\r\n        <type>Public API Endpoint Only</type>\r\n        <howfound>Tester Input</howfound>\r\n        <targetrelease>PureCloud 1.0GA</targetrelease>\r\n        <pscim>\r\n            <product>PureCloud</product>\r\n        </pscim>\r\n        <teststeps>\r\n            <teststep action=\"Call an endpoint to submit a Work Item that contains a required checkbox that has been answered\" expectedresult=\"A HTTP response is returned indicating the submit was successful\"/>\r\n        </teststeps>\r\n    </testcase>\r\n    </testcases>\r\n\t\t]]>\r\n      </gim:testCaseXml>\r\n    </gim:CreateInactiveTestCase>\r\n  </soapenv:Body>\r\n</soapenv:Envelope>\r\n"
		},


