		{
			"id": "00000000-0000-0000-0000-000000000001",
			"headers": "Content-Type: text/xml\nSOAPAction: http://gimpy.i3domain.inin.com/TCDBWebService/UpdateTestCase\n",
			"url": "http://gimpy.i3domain.inin.com/TCDBWebService/TCDBWebService.asmx",
			"pathVariables": {},
			"preRequestScript": "",
			"method": "POST",
			"collectionId": "00000000-0000-0000-0000-000000000008",
			"data": [],
			"dataMode": "raw",
			"name": "1",
			"description": "",
			"descriptionFormat": "html",
			"time": 1428692568969,
			"version": 2,
			"responses": [],
			"tests": "postman.setGlobalVariable(\"testCaseId\", \"0\");",
			"currentHelper": "normal",
			"helperAttributes": {},
			"collectionOwner": 0,
			"write": true,
			"synced": false,
			"owner": "39537",
			"collection": "00000000-0000-0000-0000-000000000008",
			"rawModeData": "<soapenv:Envelope xmlns:soapenv=\"http://schemas.xmlsoap.org/soap/envelope/\" xmlns:gim=\"http://gimpy.i3domain.inin.com\">\r\n  <soapenv:Header/>\r\n  <soapenv:Body>\r\n    <gim:UpdateTestCase>\r\n      <!--Optional:-->\r\n      <gim:testCaseXml>       \r\n                <![CDATA[         \r\n    <testcases username=\"{{gimpyUsername}}\">\r\n    <testcase codebase=\"PureCloud\" id=\"41240\" name=\"API - Verify Doc historyEventType for Work Item Suspend\" priority=\"P3\" state=\"Active\">\r\n        <description>Verify the document workflow history historyEventType is correct for suspending a Work Item</description>\r\n        <estimatedruntime>0.20</estimatedruntime>\r\n        <assumptions>A user has suspended a work item.</assumptions>\r\n        <limitations> </limitations>\r\n        <notes> </notes>\r\n        <data> </data>\r\n        <type>Public API Endpoint Only</type>\r\n        <howfound>Tester Input</howfound>\r\n        <targetrelease>PureCloud 1.0GA</targetrelease>\r\n        <pscim>\r\n            <product>PureCloud</product>\r\n        </pscim>\r\n        <teststeps>\r\n            <teststep action=\"Call an endpoint to retrieve document workflow history that contains a suspend Work Item action and verify the historyEventType is correct    \" expectedresult=\"A HTTP response is returned that indicates the historyEventType is WORK_ITEM_INSTANCE_SUSPEND\"/>\r\n        </teststeps>\r\n    </testcase>\r\n    </testcases>\r\n\t\t]]>\r\n      </gim:testCaseXml>\r\n    </gim:UpdateTestCase>\r\n  </soapenv:Body>\r\n</soapenv:Envelope>\r\n"
                },


		{
			"id": "00000000-0000-0000-0000-000000000002",
			"headers": "Content-Type: text/xml\nSOAPAction: http://gimpy.i3domain.inin.com/TCDBWebService/UpdateTestCase\n",
			"url": "http://gimpy.i3domain.inin.com/TCDBWebService/TCDBWebService.asmx",
			"pathVariables": {},
			"preRequestScript": "",
			"method": "POST",
			"collectionId": "00000000-0000-0000-0000-000000000008",
			"data": [],
			"dataMode": "raw",
			"name": "2",
			"description": "",
			"descriptionFormat": "html",
			"time": 1428692568969,
			"version": 2,
			"responses": [],
			"tests": "postman.setGlobalVariable(\"testCaseId\", \"0\");",
			"currentHelper": "normal",
			"helperAttributes": {},
			"collectionOwner": 0,
			"write": true,
			"synced": false,
			"owner": "39537",
			"collection": "00000000-0000-0000-0000-000000000008",
			"rawModeData": "<soapenv:Envelope xmlns:soapenv=\"http://schemas.xmlsoap.org/soap/envelope/\" xmlns:gim=\"http://gimpy.i3domain.inin.com\">\r\n  <soapenv:Header/>\r\n  <soapenv:Body>\r\n    <gim:UpdateTestCase>\r\n      <!--Optional:-->\r\n      <gim:testCaseXml>       \r\n                <![CDATA[         \r\n    <testcases username=\"{{gimpyUsername}}\">\r\n    <testcase codebase=\"PureCloud\" id=\"41241\" name=\"API - Verify Doc historyEventType for Work Item Unsuspend\" priority=\"P3\" state=\"Active\">\r\n        <description>Verify the document workflow history historyEventType is correct for unsuspending a Work Item</description>\r\n        <estimatedruntime>0.20</estimatedruntime>\r\n        <assumptions>A user has unsuspended a work item.</assumptions>\r\n        <limitations> </limitations>\r\n        <notes> </notes>\r\n        <data> </data>\r\n        <type>Public API Endpoint Only</type>\r\n        <howfound>Tester Input</howfound>\r\n        <targetrelease>PureCloud 1.0GA</targetrelease>\r\n        <pscim>\r\n            <product>PureCloud</product>\r\n        </pscim>\r\n        <teststeps>\r\n            <teststep action=\"Call an endpoint to retrieve document workflow history that contains an unsuspend Work Item action and verify the historyEventType is correct   \" expectedresult=\"A HTTP response is returned that indicates the historyEventType is WORK_ITEM_INSTANCE_UNSUSPEND\"/>\r\n        </teststeps>\r\n    </testcase>\r\n    </testcases>\r\n\t\t]]>\r\n      </gim:testCaseXml>\r\n    </gim:UpdateTestCase>\r\n  </soapenv:Body>\r\n</soapenv:Envelope>\r\n"
                },


		{
			"id": "00000000-0000-0000-0000-000000000003",
			"headers": "Content-Type: text/xml\nSOAPAction: http://gimpy.i3domain.inin.com/TCDBWebService/UpdateTestCase\n",
			"url": "http://gimpy.i3domain.inin.com/TCDBWebService/TCDBWebService.asmx",
			"pathVariables": {},
			"preRequestScript": "",
			"method": "POST",
			"collectionId": "00000000-0000-0000-0000-000000000008",
			"data": [],
			"dataMode": "raw",
			"name": "3",
			"description": "",
			"descriptionFormat": "html",
			"time": 1428692568969,
			"version": 2,
			"responses": [],
			"tests": "postman.setGlobalVariable(\"testCaseId\", \"0\");",
			"currentHelper": "normal",
			"helperAttributes": {},
			"collectionOwner": 0,
			"write": true,
			"synced": false,
			"owner": "39537",
			"collection": "00000000-0000-0000-0000-000000000008",
			"rawModeData": "<soapenv:Envelope xmlns:soapenv=\"http://schemas.xmlsoap.org/soap/envelope/\" xmlns:gim=\"http://gimpy.i3domain.inin.com\">\r\n  <soapenv:Header/>\r\n  <soapenv:Body>\r\n    <gim:UpdateTestCase>\r\n      <!--Optional:-->\r\n      <gim:testCaseXml>       \r\n                <![CDATA[         \r\n    <testcases username=\"{{gimpyUsername}}\">\r\n    <testcase codebase=\"PureCloud\" id=\"41242\" name=\"API - Verify Doc History Item Count\" priority=\"P1\" state=\"Active\">\r\n        <description>Verify the correct number of document workflow history items are present for a given flow</description>\r\n        <estimatedruntime>0.20</estimatedruntime>\r\n        <assumptions>A flow exists that has been launched.</assumptions>\r\n        <limitations> </limitations>\r\n        <notes> </notes>\r\n        <data> </data>\r\n        <type>Public API Endpoint Only</type>\r\n        <howfound>Tester Input</howfound>\r\n        <targetrelease>PureCloud 1.0GA</targetrelease>\r\n        <pscim>\r\n            <product>PureCloud</product>\r\n        </pscim>\r\n        <teststeps>\r\n            <teststep action=\"Call an endpoint to retrieve all document workflow history for a given flow and verify the correct number of history items are present \" expectedresult=\"A HTTP response is returned that contains all history items belonging to the given flow\"/>\r\n        </teststeps>\r\n    </testcase>\r\n    </testcases>\r\n\t\t]]>\r\n      </gim:testCaseXml>\r\n    </gim:UpdateTestCase>\r\n  </soapenv:Body>\r\n</soapenv:Envelope>\r\n"
                },


		{
			"id": "00000000-0000-0000-0000-000000000004",
			"headers": "Content-Type: text/xml\nSOAPAction: http://gimpy.i3domain.inin.com/TCDBWebService/UpdateTestCase\n",
			"url": "http://gimpy.i3domain.inin.com/TCDBWebService/TCDBWebService.asmx",
			"pathVariables": {},
			"preRequestScript": "",
			"method": "POST",
			"collectionId": "00000000-0000-0000-0000-000000000008",
			"data": [],
			"dataMode": "raw",
			"name": "4",
			"description": "",
			"descriptionFormat": "html",
			"time": 1428692568969,
			"version": 2,
			"responses": [],
			"tests": "postman.setGlobalVariable(\"testCaseId\", \"0\");",
			"currentHelper": "normal",
			"helperAttributes": {},
			"collectionOwner": 0,
			"write": true,
			"synced": false,
			"owner": "39537",
			"collection": "00000000-0000-0000-0000-000000000008",
			"rawModeData": "<soapenv:Envelope xmlns:soapenv=\"http://schemas.xmlsoap.org/soap/envelope/\" xmlns:gim=\"http://gimpy.i3domain.inin.com\">\r\n  <soapenv:Header/>\r\n  <soapenv:Body>\r\n    <gim:UpdateTestCase>\r\n      <!--Optional:-->\r\n      <gim:testCaseXml>       \r\n                <![CDATA[         \r\n    <testcases username=\"{{gimpyUsername}}\">\r\n    <testcase codebase=\"PureCloud\" id=\"41243\" name=\"API - Verify Doc historyEventType for Flow Change State\" priority=\"P3\" state=\"Active\">\r\n        <description>Verify the document workflow history historyEventType is correct for changing the state of a flow</description>\r\n        <estimatedruntime>0.20</estimatedruntime>\r\n        <assumptions>A flow exists that has changed state.</assumptions>\r\n        <limitations> </limitations>\r\n        <notes> </notes>\r\n        <data> </data>\r\n        <type>Public API Endpoint Only</type>\r\n        <howfound>Tester Input</howfound>\r\n        <targetrelease>PureCloud 1.0GA</targetrelease>\r\n        <pscim>\r\n            <product>PureCloud</product>\r\n        </pscim>\r\n        <teststeps>\r\n            <teststep action=\"Call an endpoint to retrieve document workflow history that contains a change state flow action and verify the historyEventType is correct\" expectedresult=\"A HTTP response is returned that indicates the historyEventType is FLOW_INSTANCE_GOTO\"/>\r\n        </teststeps>\r\n    </testcase>\r\n    </testcases>\r\n\t\t]]>\r\n      </gim:testCaseXml>\r\n    </gim:UpdateTestCase>\r\n  </soapenv:Body>\r\n</soapenv:Envelope>\r\n"
                },


		{
			"id": "00000000-0000-0000-0000-000000000005",
			"headers": "Content-Type: text/xml\nSOAPAction: http://gimpy.i3domain.inin.com/TCDBWebService/UpdateTestCase\n",
			"url": "http://gimpy.i3domain.inin.com/TCDBWebService/TCDBWebService.asmx",
			"pathVariables": {},
			"preRequestScript": "",
			"method": "POST",
			"collectionId": "00000000-0000-0000-0000-000000000008",
			"data": [],
			"dataMode": "raw",
			"name": "5",
			"description": "",
			"descriptionFormat": "html",
			"time": 1428692568969,
			"version": 2,
			"responses": [],
			"tests": "postman.setGlobalVariable(\"testCaseId\", \"0\");",
			"currentHelper": "normal",
			"helperAttributes": {},
			"collectionOwner": 0,
			"write": true,
			"synced": false,
			"owner": "39537",
			"collection": "00000000-0000-0000-0000-000000000008",
			"rawModeData": "<soapenv:Envelope xmlns:soapenv=\"http://schemas.xmlsoap.org/soap/envelope/\" xmlns:gim=\"http://gimpy.i3domain.inin.com\">\r\n  <soapenv:Header/>\r\n  <soapenv:Body>\r\n    <gim:UpdateTestCase>\r\n      <!--Optional:-->\r\n      <gim:testCaseXml>       \r\n                <![CDATA[         \r\n    <testcases username=\"{{gimpyUsername}}\">\r\n    <testcase codebase=\"PureCloud\" id=\"41244\" name=\"API - Verify Doc historyEventType for Flow Terminate\" priority=\"P2\" state=\"Active\">\r\n        <description>Verify the document workflow history historyEventType is correct for terminating of a flow</description>\r\n        <estimatedruntime>0.20</estimatedruntime>\r\n        <assumptions>A flow exists that has been terminated.</assumptions>\r\n        <limitations> </limitations>\r\n        <notes> </notes>\r\n        <data> </data>\r\n        <type>Public API Endpoint Only</type>\r\n        <howfound>Tester Input</howfound>\r\n        <targetrelease>PureCloud 1.0GA</targetrelease>\r\n        <pscim>\r\n            <product>PureCloud</product>\r\n        </pscim>\r\n        <teststeps>\r\n            <teststep action=\"Call an endpoint to retrieve document workflow history for a terminated flow and verify the historyEventType is correct \" expectedresult=\"A HTTP response is returned that indicates the historyEventType is FLOW_INSTANCE_TERMINATE\"/>\r\n        </teststeps>\r\n    </testcase>\r\n    </testcases>\r\n\t\t]]>\r\n      </gim:testCaseXml>\r\n    </gim:UpdateTestCase>\r\n  </soapenv:Body>\r\n</soapenv:Envelope>\r\n"
                },


		{
			"id": "00000000-0000-0000-0000-000000000006",
			"headers": "Content-Type: text/xml\nSOAPAction: http://gimpy.i3domain.inin.com/TCDBWebService/UpdateTestCase\n",
			"url": "http://gimpy.i3domain.inin.com/TCDBWebService/TCDBWebService.asmx",
			"pathVariables": {},
			"preRequestScript": "",
			"method": "POST",
			"collectionId": "00000000-0000-0000-0000-000000000008",
			"data": [],
			"dataMode": "raw",
			"name": "6",
			"description": "",
			"descriptionFormat": "html",
			"time": 1428692568969,
			"version": 2,
			"responses": [],
			"tests": "postman.setGlobalVariable(\"testCaseId\", \"0\");",
			"currentHelper": "normal",
			"helperAttributes": {},
			"collectionOwner": 0,
			"write": true,
			"synced": false,
			"owner": "39537",
			"collection": "00000000-0000-0000-0000-000000000008",
			"rawModeData": "<soapenv:Envelope xmlns:soapenv=\"http://schemas.xmlsoap.org/soap/envelope/\" xmlns:gim=\"http://gimpy.i3domain.inin.com\">\r\n  <soapenv:Header/>\r\n  <soapenv:Body>\r\n    <gim:UpdateTestCase>\r\n      <!--Optional:-->\r\n      <gim:testCaseXml>       \r\n                <![CDATA[         \r\n    <testcases username=\"{{gimpyUsername}}\">\r\n    <testcase codebase=\"PureCloud\" id=\"41245\" name=\"API - Verify Doc historyEventType for Flow In Error\" priority=\"P2\" state=\"Active\">\r\n        <description>Verify the document workflow history historyEventType is correct for a flow in error</description>\r\n        <estimatedruntime>0.20</estimatedruntime>\r\n        <assumptions>A flow exists that has gone to error.</assumptions>\r\n        <limitations> </limitations>\r\n        <notes> </notes>\r\n        <data> </data>\r\n        <type>Public API Endpoint Only</type>\r\n        <howfound>Tester Input</howfound>\r\n        <targetrelease>PureCloud 1.0GA</targetrelease>\r\n        <pscim>\r\n            <product>PureCloud</product>\r\n        </pscim>\r\n        <teststeps>\r\n            <teststep action=\"Call an endpoint to retrieve document workflow history for a flow in error and verify the historyEventType is correct\" expectedresult=\"A HTTP response is returned that indicates the historyEventType is FLOW_INSTANCE_ERROR\"/>\r\n        </teststeps>\r\n    </testcase>\r\n    </testcases>\r\n\t\t]]>\r\n      </gim:testCaseXml>\r\n    </gim:UpdateTestCase>\r\n  </soapenv:Body>\r\n</soapenv:Envelope>\r\n"
                },


		{
			"id": "00000000-0000-0000-0000-000000000007",
			"headers": "Content-Type: text/xml\nSOAPAction: http://gimpy.i3domain.inin.com/TCDBWebService/UpdateTestCase\n",
			"url": "http://gimpy.i3domain.inin.com/TCDBWebService/TCDBWebService.asmx",
			"pathVariables": {},
			"preRequestScript": "",
			"method": "POST",
			"collectionId": "00000000-0000-0000-0000-000000000008",
			"data": [],
			"dataMode": "raw",
			"name": "7",
			"description": "",
			"descriptionFormat": "html",
			"time": 1428692568969,
			"version": 2,
			"responses": [],
			"tests": "postman.setGlobalVariable(\"testCaseId\", \"0\");",
			"currentHelper": "normal",
			"helperAttributes": {},
			"collectionOwner": 0,
			"write": true,
			"synced": false,
			"owner": "39537",
			"collection": "00000000-0000-0000-0000-000000000008",
			"rawModeData": "<soapenv:Envelope xmlns:soapenv=\"http://schemas.xmlsoap.org/soap/envelope/\" xmlns:gim=\"http://gimpy.i3domain.inin.com\">\r\n  <soapenv:Header/>\r\n  <soapenv:Body>\r\n    <gim:UpdateTestCase>\r\n      <!--Optional:-->\r\n      <gim:testCaseXml>       \r\n                <![CDATA[         \r\n    <testcases username=\"{{gimpyUsername}}\">\r\n    <testcase codebase=\"PureCloud\" id=\"41246\" name=\"API - Verify Doc historyEventData for Work Item Transfer\" priority=\"P3\" state=\"Active\">\r\n        <description>Verify the document workflow history historyEventData is correct for a transferring a Work Item</description>\r\n        <estimatedruntime>0.20</estimatedruntime>\r\n        <assumptions>A work item exists that has been transferred.</assumptions>\r\n        <limitations> </limitations>\r\n        <notes> </notes>\r\n        <data> </data>\r\n        <type>Public API Endpoint Only</type>\r\n        <howfound>Tester Input</howfound>\r\n        <targetrelease>PureCloud 1.0GA</targetrelease>\r\n        <pscim>\r\n            <product>PureCloud</product>\r\n        </pscim>\r\n        <teststeps>\r\n            <teststep action=\"Call an endpoint to retrieve document workflow history that contains a transfer Work Item action and verify the historyEventData is correct\" expectedresult=\"A HTTP response is returned that contains correct historyEventData where historyEventType equals WORK_ITEM_INSTANCE_REASSIGN\"/>\r\n        </teststeps>\r\n    </testcase>\r\n    </testcases>\r\n\t\t]]>\r\n      </gim:testCaseXml>\r\n    </gim:UpdateTestCase>\r\n  </soapenv:Body>\r\n</soapenv:Envelope>\r\n"
                },


		{
			"id": "00000000-0000-0000-0000-000000000008",
			"headers": "Content-Type: text/xml\nSOAPAction: http://gimpy.i3domain.inin.com/TCDBWebService/UpdateTestCase\n",
			"url": "http://gimpy.i3domain.inin.com/TCDBWebService/TCDBWebService.asmx",
			"pathVariables": {},
			"preRequestScript": "",
			"method": "POST",
			"collectionId": "00000000-0000-0000-0000-000000000008",
			"data": [],
			"dataMode": "raw",
			"name": "8",
			"description": "",
			"descriptionFormat": "html",
			"time": 1428692568969,
			"version": 2,
			"responses": [],
			"tests": "postman.setGlobalVariable(\"testCaseId\", \"0\");",
			"currentHelper": "normal",
			"helperAttributes": {},
			"collectionOwner": 0,
			"write": true,
			"synced": false,
			"owner": "39537",
			"collection": "00000000-0000-0000-0000-000000000008",
			"rawModeData": "<soapenv:Envelope xmlns:soapenv=\"http://schemas.xmlsoap.org/soap/envelope/\" xmlns:gim=\"http://gimpy.i3domain.inin.com\">\r\n  <soapenv:Header/>\r\n  <soapenv:Body>\r\n    <gim:UpdateTestCase>\r\n      <!--Optional:-->\r\n      <gim:testCaseXml>       \r\n                <![CDATA[         \r\n    <testcases username=\"{{gimpyUsername}}\">\r\n    <testcase codebase=\"PureCloud\" id=\"41247\" name=\"API - Verify Doc historyEventData for Work Item Submit\" priority=\"P1\" state=\"Active\">\r\n        <description>Verify the document workflow history historyEventData is correct for submitting a Work Item</description>\r\n        <estimatedruntime>0.20</estimatedruntime>\r\n        <assumptions>A Work Item has been submitted.</assumptions>\r\n        <limitations> </limitations>\r\n        <notes> </notes>\r\n        <data> </data>\r\n        <type>Public API Endpoint Only</type>\r\n        <howfound>Tester Input</howfound>\r\n        <targetrelease>PureCloud 1.0GA</targetrelease>\r\n        <pscim>\r\n            <product>PureCloud</product>\r\n        </pscim>\r\n        <teststeps>\r\n            <teststep action=\"Call an endpoint to retrieve document workflow history that contains a submit Work Item action and verify the historyEventData is correct \" expectedresult=\"A HTTP response is returned that contains correct historyEventData where historyEventType equals WORK_ITEM_INSTANCE_SUBMIT\"/>\r\n        </teststeps>\r\n    </testcase>\r\n    </testcases>\r\n\t\t]]>\r\n      </gim:testCaseXml>\r\n    </gim:UpdateTestCase>\r\n  </soapenv:Body>\r\n</soapenv:Envelope>\r\n"
                },


		{
			"id": "00000000-0000-0000-0000-000000000009",
			"headers": "Content-Type: text/xml\nSOAPAction: http://gimpy.i3domain.inin.com/TCDBWebService/UpdateTestCase\n",
			"url": "http://gimpy.i3domain.inin.com/TCDBWebService/TCDBWebService.asmx",
			"pathVariables": {},
			"preRequestScript": "",
			"method": "POST",
			"collectionId": "00000000-0000-0000-0000-000000000008",
			"data": [],
			"dataMode": "raw",
			"name": "9",
			"description": "",
			"descriptionFormat": "html",
			"time": 1428692568969,
			"version": 2,
			"responses": [],
			"tests": "postman.setGlobalVariable(\"testCaseId\", \"0\");",
			"currentHelper": "normal",
			"helperAttributes": {},
			"collectionOwner": 0,
			"write": true,
			"synced": false,
			"owner": "39537",
			"collection": "00000000-0000-0000-0000-000000000008",
			"rawModeData": "<soapenv:Envelope xmlns:soapenv=\"http://schemas.xmlsoap.org/soap/envelope/\" xmlns:gim=\"http://gimpy.i3domain.inin.com\">\r\n  <soapenv:Header/>\r\n  <soapenv:Body>\r\n    <gim:UpdateTestCase>\r\n      <!--Optional:-->\r\n      <gim:testCaseXml>       \r\n                <![CDATA[         \r\n    <testcases username=\"{{gimpyUsername}}\">\r\n    <testcase codebase=\"PureCloud\" id=\"41248\" name=\"DELETE\" priority=\"P3\" state=\"Active\">\r\n        <description>DELETE</description>\r\n        <estimatedruntime>0.20</estimatedruntime>\r\n        <assumptions>DELETE</assumptions>\r\n        <limitations> </limitations>\r\n        <notes> </notes>\r\n        <data> </data>\r\n        <type>Public API Endpoint Only</type>\r\n        <howfound>Tester Input</howfound>\r\n        <targetrelease>PureCloud 1.0GA</targetrelease>\r\n        <pscim>\r\n            <product>PureCloud</product>\r\n        </pscim>\r\n        <teststeps>\r\n            <teststep action=\"DELETE\" expectedresult=\"DELETE\"/>\r\n        </teststeps>\r\n    </testcase>\r\n    </testcases>\r\n\t\t]]>\r\n      </gim:testCaseXml>\r\n    </gim:UpdateTestCase>\r\n  </soapenv:Body>\r\n</soapenv:Envelope>\r\n"
                },


		{
			"id": "00000000-0000-0000-0000-000000000010",
			"headers": "Content-Type: text/xml\nSOAPAction: http://gimpy.i3domain.inin.com/TCDBWebService/UpdateTestCase\n",
			"url": "http://gimpy.i3domain.inin.com/TCDBWebService/TCDBWebService.asmx",
			"pathVariables": {},
			"preRequestScript": "",
			"method": "POST",
			"collectionId": "00000000-0000-0000-0000-000000000008",
			"data": [],
			"dataMode": "raw",
			"name": "10",
			"description": "",
			"descriptionFormat": "html",
			"time": 1428692568969,
			"version": 2,
			"responses": [],
			"tests": "postman.setGlobalVariable(\"testCaseId\", \"0\");",
			"currentHelper": "normal",
			"helperAttributes": {},
			"collectionOwner": 0,
			"write": true,
			"synced": false,
			"owner": "39537",
			"collection": "00000000-0000-0000-0000-000000000008",
			"rawModeData": "<soapenv:Envelope xmlns:soapenv=\"http://schemas.xmlsoap.org/soap/envelope/\" xmlns:gim=\"http://gimpy.i3domain.inin.com\">\r\n  <soapenv:Header/>\r\n  <soapenv:Body>\r\n    <gim:UpdateTestCase>\r\n      <!--Optional:-->\r\n      <gim:testCaseXml>       \r\n                <![CDATA[         \r\n    <testcases username=\"{{gimpyUsername}}\">\r\n    <testcase codebase=\"PureCloud\" id=\"41249\" name=\"DELETE\" priority=\"P3\" state=\"Active\">\r\n        <description>DELETE</description>\r\n        <estimatedruntime>0.20</estimatedruntime>\r\n        <assumptions>DELETE</assumptions>\r\n        <limitations> </limitations>\r\n        <notes> </notes>\r\n        <data> </data>\r\n        <type>Public API Endpoint Only</type>\r\n        <howfound>Tester Input</howfound>\r\n        <targetrelease>PureCloud 1.0GA</targetrelease>\r\n        <pscim>\r\n            <product>PureCloud</product>\r\n        </pscim>\r\n        <teststeps>\r\n            <teststep action=\"DELETE\" expectedresult=\"DELETE\"/>\r\n        </teststeps>\r\n    </testcase>\r\n    </testcases>\r\n\t\t]]>\r\n      </gim:testCaseXml>\r\n    </gim:UpdateTestCase>\r\n  </soapenv:Body>\r\n</soapenv:Envelope>\r\n"
                },


		{
			"id": "00000000-0000-0000-0000-000000000011",
			"headers": "Content-Type: text/xml\nSOAPAction: http://gimpy.i3domain.inin.com/TCDBWebService/UpdateTestCase\n",
			"url": "http://gimpy.i3domain.inin.com/TCDBWebService/TCDBWebService.asmx",
			"pathVariables": {},
			"preRequestScript": "",
			"method": "POST",
			"collectionId": "00000000-0000-0000-0000-000000000008",
			"data": [],
			"dataMode": "raw",
			"name": "11",
			"description": "",
			"descriptionFormat": "html",
			"time": 1428692568969,
			"version": 2,
			"responses": [],
			"tests": "postman.setGlobalVariable(\"testCaseId\", \"0\");",
			"currentHelper": "normal",
			"helperAttributes": {},
			"collectionOwner": 0,
			"write": true,
			"synced": false,
			"owner": "39537",
			"collection": "00000000-0000-0000-0000-000000000008",
			"rawModeData": "<soapenv:Envelope xmlns:soapenv=\"http://schemas.xmlsoap.org/soap/envelope/\" xmlns:gim=\"http://gimpy.i3domain.inin.com\">\r\n  <soapenv:Header/>\r\n  <soapenv:Body>\r\n    <gim:UpdateTestCase>\r\n      <!--Optional:-->\r\n      <gim:testCaseXml>       \r\n                <![CDATA[         \r\n    <testcases username=\"{{gimpyUsername}}\">\r\n    <testcase codebase=\"PureCloud\" id=\"41250\" name=\"API - Verify Doc historyEventData for Work Item PUT_workItemCache\" priority=\"P3\" state=\"Active\">\r\n        <description>Verify the document workflow history historyEventData is correct for PUT_workItemCache a Work Item</description>\r\n        <estimatedruntime>0.20</estimatedruntime>\r\n        <assumptions>A user has PUT_workItemCache a work item.</assumptions>\r\n        <limitations> </limitations>\r\n        <notes> </notes>\r\n        <data> </data>\r\n        <type>Public API Endpoint Only</type>\r\n        <howfound>Tester Input</howfound>\r\n        <targetrelease>PureCloud 1.0GA</targetrelease>\r\n        <pscim>\r\n            <product>PureCloud</product>\r\n        </pscim>\r\n        <teststeps>\r\n            <teststep action=\"Call an endpoint to retrieve document workflow history that contains a PUT_workItemCache Work Item action and verify the historyEventData is correct   \" expectedresult=\"A HTTP response is returned that contains correct historyEventData where historyEventType equals WORK_ITEM_INSTANCE_CACHE\"/>\r\n        </teststeps>\r\n    </testcase>\r\n    </testcases>\r\n\t\t]]>\r\n      </gim:testCaseXml>\r\n    </gim:UpdateTestCase>\r\n  </soapenv:Body>\r\n</soapenv:Envelope>\r\n"
                },


		{
			"id": "00000000-0000-0000-0000-000000000012",
			"headers": "Content-Type: text/xml\nSOAPAction: http://gimpy.i3domain.inin.com/TCDBWebService/UpdateTestCase\n",
			"url": "http://gimpy.i3domain.inin.com/TCDBWebService/TCDBWebService.asmx",
			"pathVariables": {},
			"preRequestScript": "",
			"method": "POST",
			"collectionId": "00000000-0000-0000-0000-000000000008",
			"data": [],
			"dataMode": "raw",
			"name": "12",
			"description": "",
			"descriptionFormat": "html",
			"time": 1428692568969,
			"version": 2,
			"responses": [],
			"tests": "postman.setGlobalVariable(\"testCaseId\", \"0\");",
			"currentHelper": "normal",
			"helperAttributes": {},
			"collectionOwner": 0,
			"write": true,
			"synced": false,
			"owner": "39537",
			"collection": "00000000-0000-0000-0000-000000000008",
			"rawModeData": "<soapenv:Envelope xmlns:soapenv=\"http://schemas.xmlsoap.org/soap/envelope/\" xmlns:gim=\"http://gimpy.i3domain.inin.com\">\r\n  <soapenv:Header/>\r\n  <soapenv:Body>\r\n    <gim:UpdateTestCase>\r\n      <!--Optional:-->\r\n      <gim:testCaseXml>       \r\n                <![CDATA[         \r\n    <testcases username=\"{{gimpyUsername}}\">\r\n    <testcase codebase=\"PureCloud\" id=\"41251\" name=\"API - Verify Doc historyEventData for Work Item Suspend\" priority=\"P3\" state=\"Active\">\r\n        <description>Verify the document workflow history historyEventData is correct for suspending a Work Item</description>\r\n        <estimatedruntime>0.20</estimatedruntime>\r\n        <assumptions>A user has suspended a work item.</assumptions>\r\n        <limitations> </limitations>\r\n        <notes> </notes>\r\n        <data> </data>\r\n        <type>Public API Endpoint Only</type>\r\n        <howfound>Tester Input</howfound>\r\n        <targetrelease>PureCloud 1.0GA</targetrelease>\r\n        <pscim>\r\n            <product>PureCloud</product>\r\n        </pscim>\r\n        <teststeps>\r\n            <teststep action=\"Call an endpoint to retrieve document workflow history that contains a suspend Work Item action and verify the historyEventData is correct \" expectedresult=\"A HTTP response is returned that contains correct historyEventData where historyEventType equals WORK_ITEM_INSTANCE_SUSPEND\"/>\r\n        </teststeps>\r\n    </testcase>\r\n    </testcases>\r\n\t\t]]>\r\n      </gim:testCaseXml>\r\n    </gim:UpdateTestCase>\r\n  </soapenv:Body>\r\n</soapenv:Envelope>\r\n"
                },


		{
			"id": "00000000-0000-0000-0000-000000000013",
			"headers": "Content-Type: text/xml\nSOAPAction: http://gimpy.i3domain.inin.com/TCDBWebService/UpdateTestCase\n",
			"url": "http://gimpy.i3domain.inin.com/TCDBWebService/TCDBWebService.asmx",
			"pathVariables": {},
			"preRequestScript": "",
			"method": "POST",
			"collectionId": "00000000-0000-0000-0000-000000000008",
			"data": [],
			"dataMode": "raw",
			"name": "13",
			"description": "",
			"descriptionFormat": "html",
			"time": 1428692568969,
			"version": 2,
			"responses": [],
			"tests": "postman.setGlobalVariable(\"testCaseId\", \"0\");",
			"currentHelper": "normal",
			"helperAttributes": {},
			"collectionOwner": 0,
			"write": true,
			"synced": false,
			"owner": "39537",
			"collection": "00000000-0000-0000-0000-000000000008",
			"rawModeData": "<soapenv:Envelope xmlns:soapenv=\"http://schemas.xmlsoap.org/soap/envelope/\" xmlns:gim=\"http://gimpy.i3domain.inin.com\">\r\n  <soapenv:Header/>\r\n  <soapenv:Body>\r\n    <gim:UpdateTestCase>\r\n      <!--Optional:-->\r\n      <gim:testCaseXml>       \r\n                <![CDATA[         \r\n    <testcases username=\"{{gimpyUsername}}\">\r\n    <testcase codebase=\"PureCloud\" id=\"41252\" name=\"API - Verify Doc historyEventData for Work Item Unsuspend\" priority=\"P3\" state=\"Active\">\r\n        <description>Verify the document workflow history historyEventData is correct for unsuspending a Work Item</description>\r\n        <estimatedruntime>0.20</estimatedruntime>\r\n        <assumptions>A user has unsuspended a work item.</assumptions>\r\n        <limitations> </limitations>\r\n        <notes> </notes>\r\n        <data> </data>\r\n        <type>Public API Endpoint Only</type>\r\n        <howfound>Tester Input</howfound>\r\n        <targetrelease>PureCloud 1.0GA</targetrelease>\r\n        <pscim>\r\n            <product>PureCloud</product>\r\n        </pscim>\r\n        <teststeps>\r\n            <teststep action=\"Call an endpoint to retrieve document workflow history that contains an unsuspend Work Item action and verify the historyEventData is correct   \" expectedresult=\"A HTTP response is returned that contains correct historyEventData where historyEventType equals WORK_ITEM_INSTANCE_UNSUSPEND\"/>\r\n        </teststeps>\r\n    </testcase>\r\n    </testcases>\r\n\t\t]]>\r\n      </gim:testCaseXml>\r\n    </gim:UpdateTestCase>\r\n  </soapenv:Body>\r\n</soapenv:Envelope>\r\n"
                },


		{
			"id": "00000000-0000-0000-0000-000000000014",
			"headers": "Content-Type: text/xml\nSOAPAction: http://gimpy.i3domain.inin.com/TCDBWebService/UpdateTestCase\n",
			"url": "http://gimpy.i3domain.inin.com/TCDBWebService/TCDBWebService.asmx",
			"pathVariables": {},
			"preRequestScript": "",
			"method": "POST",
			"collectionId": "00000000-0000-0000-0000-000000000008",
			"data": [],
			"dataMode": "raw",
			"name": "14",
			"description": "",
			"descriptionFormat": "html",
			"time": 1428692568969,
			"version": 2,
			"responses": [],
			"tests": "postman.setGlobalVariable(\"testCaseId\", \"0\");",
			"currentHelper": "normal",
			"helperAttributes": {},
			"collectionOwner": 0,
			"write": true,
			"synced": false,
			"owner": "39537",
			"collection": "00000000-0000-0000-0000-000000000008",
			"rawModeData": "<soapenv:Envelope xmlns:soapenv=\"http://schemas.xmlsoap.org/soap/envelope/\" xmlns:gim=\"http://gimpy.i3domain.inin.com\">\r\n  <soapenv:Header/>\r\n  <soapenv:Body>\r\n    <gim:UpdateTestCase>\r\n      <!--Optional:-->\r\n      <gim:testCaseXml>       \r\n                <![CDATA[         \r\n    <testcases username=\"{{gimpyUsername}}\">\r\n    <testcase codebase=\"PureCloud\" id=\"41253\" name=\"API - Verify Doc historyEventTime\" priority=\"P1\" state=\"Active\">\r\n        <description>Verify the document workflow history item event times are correct and in the proper order</description>\r\n        <estimatedruntime>0.20</estimatedruntime>\r\n        <assumptions>A flow exists that has been launched.</assumptions>\r\n        <limitations> </limitations>\r\n        <notes> </notes>\r\n        <data> </data>\r\n        <type>Public API Endpoint Only</type>\r\n        <howfound>Tester Input</howfound>\r\n        <targetrelease>PureCloud 1.0GA</targetrelease>\r\n        <pscim>\r\n            <product>PureCloud</product>\r\n        </pscim>\r\n        <teststeps>\r\n            <teststep action=\"Call an endpoint to retrieve all document workflow history for a given flow and verify the historyEventTime field is correct and ordered ascending\" expectedresult=\"A HTTP response is returned that contains history items with the correct historyEventTime, listing earliest items first\"/>\r\n        </teststeps>\r\n    </testcase>\r\n    </testcases>\r\n\t\t]]>\r\n      </gim:testCaseXml>\r\n    </gim:UpdateTestCase>\r\n  </soapenv:Body>\r\n</soapenv:Envelope>\r\n"
                },


		{
			"id": "00000000-0000-0000-0000-000000000015",
			"headers": "Content-Type: text/xml\nSOAPAction: http://gimpy.i3domain.inin.com/TCDBWebService/UpdateTestCase\n",
			"url": "http://gimpy.i3domain.inin.com/TCDBWebService/TCDBWebService.asmx",
			"pathVariables": {},
			"preRequestScript": "",
			"method": "POST",
			"collectionId": "00000000-0000-0000-0000-000000000008",
			"data": [],
			"dataMode": "raw",
			"name": "15",
			"description": "",
			"descriptionFormat": "html",
			"time": 1428692568969,
			"version": 2,
			"responses": [],
			"tests": "postman.setGlobalVariable(\"testCaseId\", \"0\");",
			"currentHelper": "normal",
			"helperAttributes": {},
			"collectionOwner": 0,
			"write": true,
			"synced": false,
			"owner": "39537",
			"collection": "00000000-0000-0000-0000-000000000008",
			"rawModeData": "<soapenv:Envelope xmlns:soapenv=\"http://schemas.xmlsoap.org/soap/envelope/\" xmlns:gim=\"http://gimpy.i3domain.inin.com\">\r\n  <soapenv:Header/>\r\n  <soapenv:Body>\r\n    <gim:UpdateTestCase>\r\n      <!--Optional:-->\r\n      <gim:testCaseXml>       \r\n                <![CDATA[         \r\n    <testcases username=\"{{gimpyUsername}}\">\r\n    <testcase codebase=\"PureCloud\" id=\"41254\" name=\"API - Verify Doc historyEventData for Flow Change State\" priority=\"P3\" state=\"Active\">\r\n        <description>Verify the document workflow history historyEventData is correct for changing the state of a flow</description>\r\n        <estimatedruntime>0.20</estimatedruntime>\r\n        <assumptions>A flow exists that has changed state.</assumptions>\r\n        <limitations> </limitations>\r\n        <notes> </notes>\r\n        <data> </data>\r\n        <type>Public API Endpoint Only</type>\r\n        <howfound>Tester Input</howfound>\r\n        <targetrelease>PureCloud 1.0GA</targetrelease>\r\n        <pscim>\r\n            <product>PureCloud</product>\r\n        </pscim>\r\n        <teststeps>\r\n            <teststep action=\"Call an endpoint to retrieve document workflow history that contains a change state flow action and verify the historyEventData is correct \" expectedresult=\"A HTTP response is returned that contains correct historyEventData where historyEventType equals FLOW_INSTANCE_GOTO\"/>\r\n        </teststeps>\r\n    </testcase>\r\n    </testcases>\r\n\t\t]]>\r\n      </gim:testCaseXml>\r\n    </gim:UpdateTestCase>\r\n  </soapenv:Body>\r\n</soapenv:Envelope>\r\n"
                },


		{
			"id": "00000000-0000-0000-0000-000000000016",
			"headers": "Content-Type: text/xml\nSOAPAction: http://gimpy.i3domain.inin.com/TCDBWebService/UpdateTestCase\n",
			"url": "http://gimpy.i3domain.inin.com/TCDBWebService/TCDBWebService.asmx",
			"pathVariables": {},
			"preRequestScript": "",
			"method": "POST",
			"collectionId": "00000000-0000-0000-0000-000000000008",
			"data": [],
			"dataMode": "raw",
			"name": "16",
			"description": "",
			"descriptionFormat": "html",
			"time": 1428692568969,
			"version": 2,
			"responses": [],
			"tests": "postman.setGlobalVariable(\"testCaseId\", \"0\");",
			"currentHelper": "normal",
			"helperAttributes": {},
			"collectionOwner": 0,
			"write": true,
			"synced": false,
			"owner": "39537",
			"collection": "00000000-0000-0000-0000-000000000008",
			"rawModeData": "<soapenv:Envelope xmlns:soapenv=\"http://schemas.xmlsoap.org/soap/envelope/\" xmlns:gim=\"http://gimpy.i3domain.inin.com\">\r\n  <soapenv:Header/>\r\n  <soapenv:Body>\r\n    <gim:UpdateTestCase>\r\n      <!--Optional:-->\r\n      <gim:testCaseXml>       \r\n                <![CDATA[         \r\n    <testcases username=\"{{gimpyUsername}}\">\r\n    <testcase codebase=\"PureCloud\" id=\"41255\" name=\"API - Verify Doc historyEventData for Flow Terminate\" priority=\"P2\" state=\"Active\">\r\n        <description>Verify the document workflow history historyEventData is correct for terminating of a flow</description>\r\n        <estimatedruntime>0.20</estimatedruntime>\r\n        <assumptions>A flow exists that has been terminated.</assumptions>\r\n        <limitations> </limitations>\r\n        <notes> </notes>\r\n        <data> </data>\r\n        <type>Public API Endpoint Only</type>\r\n        <howfound>Tester Input</howfound>\r\n        <targetrelease>PureCloud 1.0GA</targetrelease>\r\n        <pscim>\r\n            <product>PureCloud</product>\r\n        </pscim>\r\n        <teststeps>\r\n            <teststep action=\"Call an endpoint to retrieve document workflow history for a terminated flow and verify the historyEventData is correct\" expectedresult=\"A HTTP response is returned that contains correct historyEventData where historyEventType equals FLOW_INSTANCE_TERMINATE\"/>\r\n        </teststeps>\r\n    </testcase>\r\n    </testcases>\r\n\t\t]]>\r\n      </gim:testCaseXml>\r\n    </gim:UpdateTestCase>\r\n  </soapenv:Body>\r\n</soapenv:Envelope>\r\n"
                },


		{
			"id": "00000000-0000-0000-0000-000000000017",
			"headers": "Content-Type: text/xml\nSOAPAction: http://gimpy.i3domain.inin.com/TCDBWebService/UpdateTestCase\n",
			"url": "http://gimpy.i3domain.inin.com/TCDBWebService/TCDBWebService.asmx",
			"pathVariables": {},
			"preRequestScript": "",
			"method": "POST",
			"collectionId": "00000000-0000-0000-0000-000000000008",
			"data": [],
			"dataMode": "raw",
			"name": "17",
			"description": "",
			"descriptionFormat": "html",
			"time": 1428692568969,
			"version": 2,
			"responses": [],
			"tests": "postman.setGlobalVariable(\"testCaseId\", \"0\");",
			"currentHelper": "normal",
			"helperAttributes": {},
			"collectionOwner": 0,
			"write": true,
			"synced": false,
			"owner": "39537",
			"collection": "00000000-0000-0000-0000-000000000008",
			"rawModeData": "<soapenv:Envelope xmlns:soapenv=\"http://schemas.xmlsoap.org/soap/envelope/\" xmlns:gim=\"http://gimpy.i3domain.inin.com\">\r\n  <soapenv:Header/>\r\n  <soapenv:Body>\r\n    <gim:UpdateTestCase>\r\n      <!--Optional:-->\r\n      <gim:testCaseXml>       \r\n                <![CDATA[         \r\n    <testcases username=\"{{gimpyUsername}}\">\r\n    <testcase codebase=\"PureCloud\" id=\"41256\" name=\"API - Verify Doc historyEventData for Flow In Error\" priority=\"P2\" state=\"Active\">\r\n        <description>Verify the document workflow history historyEventData is correct for a flow in error</description>\r\n        <estimatedruntime>0.20</estimatedruntime>\r\n        <assumptions>A flow exists that has gone to error.</assumptions>\r\n        <limitations> </limitations>\r\n        <notes> </notes>\r\n        <data> </data>\r\n        <type>Public API Endpoint Only</type>\r\n        <howfound>Tester Input</howfound>\r\n        <targetrelease>PureCloud 1.0GA</targetrelease>\r\n        <pscim>\r\n            <product>PureCloud</product>\r\n        </pscim>\r\n        <teststeps>\r\n            <teststep action=\"Call an endpoint to retrieve document workflow history for a flow in error and verify the historyEventData is correct\" expectedresult=\"A HTTP response is returned that contains correct historyEventData where historyEventType equals FLOW_INSTANCE_ERROR\"/>\r\n        </teststeps>\r\n    </testcase>\r\n    </testcases>\r\n\t\t]]>\r\n      </gim:testCaseXml>\r\n    </gim:UpdateTestCase>\r\n  </soapenv:Body>\r\n</soapenv:Envelope>\r\n"
                },


		{
			"id": "00000000-0000-0000-0000-000000000018",
			"headers": "Content-Type: text/xml\nSOAPAction: http://gimpy.i3domain.inin.com/TCDBWebService/UpdateTestCase\n",
			"url": "http://gimpy.i3domain.inin.com/TCDBWebService/TCDBWebService.asmx",
			"pathVariables": {},
			"preRequestScript": "",
			"method": "POST",
			"collectionId": "00000000-0000-0000-0000-000000000008",
			"data": [],
			"dataMode": "raw",
			"name": "18",
			"description": "",
			"descriptionFormat": "html",
			"time": 1428692568969,
			"version": 2,
			"responses": [],
			"tests": "postman.setGlobalVariable(\"testCaseId\", \"0\");",
			"currentHelper": "normal",
			"helperAttributes": {},
			"collectionOwner": 0,
			"write": true,
			"synced": false,
			"owner": "39537",
			"collection": "00000000-0000-0000-0000-000000000008",
			"rawModeData": "<soapenv:Envelope xmlns:soapenv=\"http://schemas.xmlsoap.org/soap/envelope/\" xmlns:gim=\"http://gimpy.i3domain.inin.com\">\r\n  <soapenv:Header/>\r\n  <soapenv:Body>\r\n    <gim:UpdateTestCase>\r\n      <!--Optional:-->\r\n      <gim:testCaseXml>       \r\n                <![CDATA[         \r\n    <testcases username=\"{{gimpyUsername}}\">\r\n    <testcase codebase=\"PureCloud\" id=\"41257\" name=\"API - Verify Doc Users for Work Item Transfer\" priority=\"P3\" state=\"Active\">\r\n        <description>Verify the document workflow history users are correct for transferring a Work Item</description>\r\n        <estimatedruntime>0.20</estimatedruntime>\r\n        <assumptions>A Work Item has been transferred.</assumptions>\r\n        <limitations> </limitations>\r\n        <notes> </notes>\r\n        <data> </data>\r\n        <type>Public API Endpoint Only</type>\r\n        <howfound>Tester Input</howfound>\r\n        <targetrelease>PureCloud 1.0GA</targetrelease>\r\n        <pscim>\r\n            <product>PureCloud</product>\r\n        </pscim>\r\n        <teststeps>\r\n            <teststep action=\"Call an endpoint to retrieve document workflow history that contains a transfer Work Item action and verify the users are correct\" expectedresult=\"A HTTP response is returned that contains the correct users where historyEventType equals WORK_ITEM_INSTANCE_REASSIGN\"/>\r\n        </teststeps>\r\n    </testcase>\r\n    </testcases>\r\n\t\t]]>\r\n      </gim:testCaseXml>\r\n    </gim:UpdateTestCase>\r\n  </soapenv:Body>\r\n</soapenv:Envelope>\r\n"
                },


		{
			"id": "00000000-0000-0000-0000-000000000019",
			"headers": "Content-Type: text/xml\nSOAPAction: http://gimpy.i3domain.inin.com/TCDBWebService/UpdateTestCase\n",
			"url": "http://gimpy.i3domain.inin.com/TCDBWebService/TCDBWebService.asmx",
			"pathVariables": {},
			"preRequestScript": "",
			"method": "POST",
			"collectionId": "00000000-0000-0000-0000-000000000008",
			"data": [],
			"dataMode": "raw",
			"name": "19",
			"description": "",
			"descriptionFormat": "html",
			"time": 1428692568969,
			"version": 2,
			"responses": [],
			"tests": "postman.setGlobalVariable(\"testCaseId\", \"0\");",
			"currentHelper": "normal",
			"helperAttributes": {},
			"collectionOwner": 0,
			"write": true,
			"synced": false,
			"owner": "39537",
			"collection": "00000000-0000-0000-0000-000000000008",
			"rawModeData": "<soapenv:Envelope xmlns:soapenv=\"http://schemas.xmlsoap.org/soap/envelope/\" xmlns:gim=\"http://gimpy.i3domain.inin.com\">\r\n  <soapenv:Header/>\r\n  <soapenv:Body>\r\n    <gim:UpdateTestCase>\r\n      <!--Optional:-->\r\n      <gim:testCaseXml>       \r\n                <![CDATA[         \r\n    <testcases username=\"{{gimpyUsername}}\">\r\n    <testcase codebase=\"PureCloud\" id=\"41258\" name=\"API - Verify Doc User for Work Item Submit\" priority=\"P1\" state=\"Active\">\r\n        <description>Verify the document workflow history User is correct for submitting a Work Item</description>\r\n        <estimatedruntime>0.20</estimatedruntime>\r\n        <assumptions>A Work Item has been submitted.</assumptions>\r\n        <limitations> </limitations>\r\n        <notes> </notes>\r\n        <data> </data>\r\n        <type>Public API Endpoint Only</type>\r\n        <howfound>Tester Input</howfound>\r\n        <targetrelease>PureCloud 1.0GA</targetrelease>\r\n        <pscim>\r\n            <product>PureCloud</product>\r\n        </pscim>\r\n        <teststeps>\r\n            <teststep action=\"Call an endpoint to retrieve document workflow history that contains a submit Work Item action and verify the User is correct \" expectedresult=\"A HTTP response is returned that contains the correct user where historyEventType equals WORK_ITEM_INSTANCE_SUBMIT\"/>\r\n        </teststeps>\r\n    </testcase>\r\n    </testcases>\r\n\t\t]]>\r\n      </gim:testCaseXml>\r\n    </gim:UpdateTestCase>\r\n  </soapenv:Body>\r\n</soapenv:Envelope>\r\n"
                },


		{
			"id": "00000000-0000-0000-0000-000000000020",
			"headers": "Content-Type: text/xml\nSOAPAction: http://gimpy.i3domain.inin.com/TCDBWebService/UpdateTestCase\n",
			"url": "http://gimpy.i3domain.inin.com/TCDBWebService/TCDBWebService.asmx",
			"pathVariables": {},
			"preRequestScript": "",
			"method": "POST",
			"collectionId": "00000000-0000-0000-0000-000000000008",
			"data": [],
			"dataMode": "raw",
			"name": "20",
			"description": "",
			"descriptionFormat": "html",
			"time": 1428692568969,
			"version": 2,
			"responses": [],
			"tests": "postman.setGlobalVariable(\"testCaseId\", \"0\");",
			"currentHelper": "normal",
			"helperAttributes": {},
			"collectionOwner": 0,
			"write": true,
			"synced": false,
			"owner": "39537",
			"collection": "00000000-0000-0000-0000-000000000008",
			"rawModeData": "<soapenv:Envelope xmlns:soapenv=\"http://schemas.xmlsoap.org/soap/envelope/\" xmlns:gim=\"http://gimpy.i3domain.inin.com\">\r\n  <soapenv:Header/>\r\n  <soapenv:Body>\r\n    <gim:UpdateTestCase>\r\n      <!--Optional:-->\r\n      <gim:testCaseXml>       \r\n                <![CDATA[         \r\n    <testcases username=\"{{gimpyUsername}}\">\r\n    <testcase codebase=\"PureCloud\" id=\"41259\" name=\"DELETE\" priority=\"DELETE\" state=\"Active\">\r\n        <description>DELETE</description>\r\n        <estimatedruntime>0.20</estimatedruntime>\r\n        <assumptions>DELETE</assumptions>\r\n        <limitations> </limitations>\r\n        <notes> </notes>\r\n        <data> </data>\r\n        <type>Public API Endpoint Only</type>\r\n        <howfound>Tester Input</howfound>\r\n        <targetrelease>PureCloud 1.0GA</targetrelease>\r\n        <pscim>\r\n            <product>PureCloud</product>\r\n        </pscim>\r\n        <teststeps>\r\n            <teststep action=\"DELETE\" expectedresult=\"DELETE\"/>\r\n        </teststeps>\r\n    </testcase>\r\n    </testcases>\r\n\t\t]]>\r\n      </gim:testCaseXml>\r\n    </gim:UpdateTestCase>\r\n  </soapenv:Body>\r\n</soapenv:Envelope>\r\n"
                },


		{
			"id": "00000000-0000-0000-0000-000000000021",
			"headers": "Content-Type: text/xml\nSOAPAction: http://gimpy.i3domain.inin.com/TCDBWebService/UpdateTestCase\n",
			"url": "http://gimpy.i3domain.inin.com/TCDBWebService/TCDBWebService.asmx",
			"pathVariables": {},
			"preRequestScript": "",
			"method": "POST",
			"collectionId": "00000000-0000-0000-0000-000000000008",
			"data": [],
			"dataMode": "raw",
			"name": "21",
			"description": "",
			"descriptionFormat": "html",
			"time": 1428692568969,
			"version": 2,
			"responses": [],
			"tests": "postman.setGlobalVariable(\"testCaseId\", \"0\");",
			"currentHelper": "normal",
			"helperAttributes": {},
			"collectionOwner": 0,
			"write": true,
			"synced": false,
			"owner": "39537",
			"collection": "00000000-0000-0000-0000-000000000008",
			"rawModeData": "<soapenv:Envelope xmlns:soapenv=\"http://schemas.xmlsoap.org/soap/envelope/\" xmlns:gim=\"http://gimpy.i3domain.inin.com\">\r\n  <soapenv:Header/>\r\n  <soapenv:Body>\r\n    <gim:UpdateTestCase>\r\n      <!--Optional:-->\r\n      <gim:testCaseXml>       \r\n                <![CDATA[         \r\n    <testcases username=\"{{gimpyUsername}}\">\r\n    <testcase codebase=\"PureCloud\" id=\"41260\" name=\"API - Verify Doc User for Work Item Take Ownership\" priority=\"P2\" state=\"Active\">\r\n        <description>Verify the document workflow history User is correct for taking ownership of a Work Item</description>\r\n        <estimatedruntime>0.20</estimatedruntime>\r\n        <assumptions>A user has taken ownership of a work item.</assumptions>\r\n        <limitations> </limitations>\r\n        <notes> </notes>\r\n        <data> </data>\r\n        <type>Public API Endpoint Only</type>\r\n        <howfound>Tester Input</howfound>\r\n        <targetrelease>PureCloud 1.0GA</targetrelease>\r\n        <pscim>\r\n            <product>PureCloud</product>\r\n        </pscim>\r\n        <teststeps>\r\n            <teststep action=\"Call an endpoint to retrieve document workflow history that contains a take ownership Work Item action and verify the User is correct\" expectedresult=\"A HTTP response is returned that contains the correct user where historyEventType equals WORK_ITEM_INSTANCE_ACQUIRE\"/>\r\n        </teststeps>\r\n    </testcase>\r\n    </testcases>\r\n\t\t]]>\r\n      </gim:testCaseXml>\r\n    </gim:UpdateTestCase>\r\n  </soapenv:Body>\r\n</soapenv:Envelope>\r\n"
                },


		{
			"id": "00000000-0000-0000-0000-000000000022",
			"headers": "Content-Type: text/xml\nSOAPAction: http://gimpy.i3domain.inin.com/TCDBWebService/UpdateTestCase\n",
			"url": "http://gimpy.i3domain.inin.com/TCDBWebService/TCDBWebService.asmx",
			"pathVariables": {},
			"preRequestScript": "",
			"method": "POST",
			"collectionId": "00000000-0000-0000-0000-000000000008",
			"data": [],
			"dataMode": "raw",
			"name": "22",
			"description": "",
			"descriptionFormat": "html",
			"time": 1428692568969,
			"version": 2,
			"responses": [],
			"tests": "postman.setGlobalVariable(\"testCaseId\", \"0\");",
			"currentHelper": "normal",
			"helperAttributes": {},
			"collectionOwner": 0,
			"write": true,
			"synced": false,
			"owner": "39537",
			"collection": "00000000-0000-0000-0000-000000000008",
			"rawModeData": "<soapenv:Envelope xmlns:soapenv=\"http://schemas.xmlsoap.org/soap/envelope/\" xmlns:gim=\"http://gimpy.i3domain.inin.com\">\r\n  <soapenv:Header/>\r\n  <soapenv:Body>\r\n    <gim:UpdateTestCase>\r\n      <!--Optional:-->\r\n      <gim:testCaseXml>       \r\n                <![CDATA[         \r\n    <testcases username=\"{{gimpyUsername}}\">\r\n    <testcase codebase=\"PureCloud\" id=\"41261\" name=\"API - Verify Doc User for Work Item PUT_workItemCache\" priority=\"P3\" state=\"Active\">\r\n        <description>Verify the document workflow history User is correct for PUT_workItemCache a Work Item</description>\r\n        <estimatedruntime>0.20</estimatedruntime>\r\n        <assumptions>A user has PUT_workItemCache a work item.</assumptions>\r\n        <limitations> </limitations>\r\n        <notes> </notes>\r\n        <data> </data>\r\n        <type>Public API Endpoint Only</type>\r\n        <howfound>Tester Input</howfound>\r\n        <targetrelease>PureCloud 1.0GA</targetrelease>\r\n        <pscim>\r\n            <product>PureCloud</product>\r\n        </pscim>\r\n        <teststeps>\r\n            <teststep action=\"Call an endpoint to retrieve document workflow history that contains a PUT_workItemCache Work Item action and verify the User is correct   \" expectedresult=\"A HTTP response is returned that contains the correct user where historyEventType equals WORK_ITEM_INSTANCE_CACHE\"/>\r\n        </teststeps>\r\n    </testcase>\r\n    </testcases>\r\n\t\t]]>\r\n      </gim:testCaseXml>\r\n    </gim:UpdateTestCase>\r\n  </soapenv:Body>\r\n</soapenv:Envelope>\r\n"
                },


		{
			"id": "00000000-0000-0000-0000-000000000023",
			"headers": "Content-Type: text/xml\nSOAPAction: http://gimpy.i3domain.inin.com/TCDBWebService/UpdateTestCase\n",
			"url": "http://gimpy.i3domain.inin.com/TCDBWebService/TCDBWebService.asmx",
			"pathVariables": {},
			"preRequestScript": "",
			"method": "POST",
			"collectionId": "00000000-0000-0000-0000-000000000008",
			"data": [],
			"dataMode": "raw",
			"name": "23",
			"description": "",
			"descriptionFormat": "html",
			"time": 1428692568969,
			"version": 2,
			"responses": [],
			"tests": "postman.setGlobalVariable(\"testCaseId\", \"0\");",
			"currentHelper": "normal",
			"helperAttributes": {},
			"collectionOwner": 0,
			"write": true,
			"synced": false,
			"owner": "39537",
			"collection": "00000000-0000-0000-0000-000000000008",
			"rawModeData": "<soapenv:Envelope xmlns:soapenv=\"http://schemas.xmlsoap.org/soap/envelope/\" xmlns:gim=\"http://gimpy.i3domain.inin.com\">\r\n  <soapenv:Header/>\r\n  <soapenv:Body>\r\n    <gim:UpdateTestCase>\r\n      <!--Optional:-->\r\n      <gim:testCaseXml>       \r\n                <![CDATA[         \r\n    <testcases username=\"{{gimpyUsername}}\">\r\n    <testcase codebase=\"PureCloud\" id=\"41262\" name=\"API - Verify Doc User for Work Item Suspend\" priority=\"P3\" state=\"Active\">\r\n        <description>Verify the document workflow history User is correct for suspending a Work Item</description>\r\n        <estimatedruntime>0.20</estimatedruntime>\r\n        <assumptions>A user has suspended a work item.</assumptions>\r\n        <limitations> </limitations>\r\n        <notes> </notes>\r\n        <data> </data>\r\n        <type>Public API Endpoint Only</type>\r\n        <howfound>Tester Input</howfound>\r\n        <targetrelease>PureCloud 1.0GA</targetrelease>\r\n        <pscim>\r\n            <product>PureCloud</product>\r\n        </pscim>\r\n        <teststeps>\r\n            <teststep action=\"Call an endpoint to retrieve document workflow history that contains a suspend Work Item action and verify the User is correct \" expectedresult=\"A HTTP response is returned that contains the correct user where historyEventType equals WORK_ITEM_INSTANCE_SUSPEND\"/>\r\n        </teststeps>\r\n    </testcase>\r\n    </testcases>\r\n\t\t]]>\r\n      </gim:testCaseXml>\r\n    </gim:UpdateTestCase>\r\n  </soapenv:Body>\r\n</soapenv:Envelope>\r\n"
                },


		{
			"id": "00000000-0000-0000-0000-000000000024",
			"headers": "Content-Type: text/xml\nSOAPAction: http://gimpy.i3domain.inin.com/TCDBWebService/UpdateTestCase\n",
			"url": "http://gimpy.i3domain.inin.com/TCDBWebService/TCDBWebService.asmx",
			"pathVariables": {},
			"preRequestScript": "",
			"method": "POST",
			"collectionId": "00000000-0000-0000-0000-000000000008",
			"data": [],
			"dataMode": "raw",
			"name": "24",
			"description": "",
			"descriptionFormat": "html",
			"time": 1428692568969,
			"version": 2,
			"responses": [],
			"tests": "postman.setGlobalVariable(\"testCaseId\", \"0\");",
			"currentHelper": "normal",
			"helperAttributes": {},
			"collectionOwner": 0,
			"write": true,
			"synced": false,
			"owner": "39537",
			"collection": "00000000-0000-0000-0000-000000000008",
			"rawModeData": "<soapenv:Envelope xmlns:soapenv=\"http://schemas.xmlsoap.org/soap/envelope/\" xmlns:gim=\"http://gimpy.i3domain.inin.com\">\r\n  <soapenv:Header/>\r\n  <soapenv:Body>\r\n    <gim:UpdateTestCase>\r\n      <!--Optional:-->\r\n      <gim:testCaseXml>       \r\n                <![CDATA[         \r\n    <testcases username=\"{{gimpyUsername}}\">\r\n    <testcase codebase=\"PureCloud\" id=\"41263\" name=\"API - Verify Doc User for Work Item Unsuspend\" priority=\"P3\" state=\"Active\">\r\n        <description>Verify the document workflow history User is correct for unsuspending a Work Item</description>\r\n        <estimatedruntime>0.20</estimatedruntime>\r\n        <assumptions>A user has unsuspended a work item.</assumptions>\r\n        <limitations> </limitations>\r\n        <notes> </notes>\r\n        <data> </data>\r\n        <type>Public API Endpoint Only</type>\r\n        <howfound>Tester Input</howfound>\r\n        <targetrelease>PureCloud 1.0GA</targetrelease>\r\n        <pscim>\r\n            <product>PureCloud</product>\r\n        </pscim>\r\n        <teststeps>\r\n            <teststep action=\"Call an endpoint to retrieve document workflow history that contains an unsuspend Work Item action and verify the User is correct   \" expectedresult=\"A HTTP response is returned that contains the correct user where historyEventType equals WORK_ITEM_INSTANCE_UNSUSPEND\"/>\r\n        </teststeps>\r\n    </testcase>\r\n    </testcases>\r\n\t\t]]>\r\n      </gim:testCaseXml>\r\n    </gim:UpdateTestCase>\r\n  </soapenv:Body>\r\n</soapenv:Envelope>\r\n"
                },


		{
			"id": "00000000-0000-0000-0000-000000000025",
			"headers": "Content-Type: text/xml\nSOAPAction: http://gimpy.i3domain.inin.com/TCDBWebService/UpdateTestCase\n",
			"url": "http://gimpy.i3domain.inin.com/TCDBWebService/TCDBWebService.asmx",
			"pathVariables": {},
			"preRequestScript": "",
			"method": "POST",
			"collectionId": "00000000-0000-0000-0000-000000000008",
			"data": [],
			"dataMode": "raw",
			"name": "25",
			"description": "",
			"descriptionFormat": "html",
			"time": 1428692568969,
			"version": 2,
			"responses": [],
			"tests": "postman.setGlobalVariable(\"testCaseId\", \"0\");",
			"currentHelper": "normal",
			"helperAttributes": {},
			"collectionOwner": 0,
			"write": true,
			"synced": false,
			"owner": "39537",
			"collection": "00000000-0000-0000-0000-000000000008",
			"rawModeData": "<soapenv:Envelope xmlns:soapenv=\"http://schemas.xmlsoap.org/soap/envelope/\" xmlns:gim=\"http://gimpy.i3domain.inin.com\">\r\n  <soapenv:Header/>\r\n  <soapenv:Body>\r\n    <gim:UpdateTestCase>\r\n      <!--Optional:-->\r\n      <gim:testCaseXml>       \r\n                <![CDATA[         \r\n    <testcases username=\"{{gimpyUsername}}\">\r\n    <testcase codebase=\"PureCloud\" id=\"41264\" name=\"API - Verify Doc History Work Item data\" priority=\"P1\" state=\"Active\">\r\n        <description>Verify the document workflow history work item data is correct</description>\r\n        <estimatedruntime>0.20</estimatedruntime>\r\n        <assumptions>A flow with a work item exists that has been launched.</assumptions>\r\n        <limitations> </limitations>\r\n        <notes> </notes>\r\n        <data> </data>\r\n        <type>Public API Endpoint Only</type>\r\n        <howfound>Tester Input</howfound>\r\n        <targetrelease>PureCloud 1.0GA</targetrelease>\r\n        <pscim>\r\n            <product>PureCloud</product>\r\n        </pscim>\r\n        <teststeps>\r\n            <teststep action=\"Call an endpoint to retrieve document workflow history for a given flow and verify all the workItem data is correct \" expectedresult=\"A HTTP response is returned that contains the correct workItemExecId, workItemConfigId, and workItemName\"/>\r\n        </teststeps>\r\n    </testcase>\r\n    </testcases>\r\n\t\t]]>\r\n      </gim:testCaseXml>\r\n    </gim:UpdateTestCase>\r\n  </soapenv:Body>\r\n</soapenv:Envelope>\r\n"
                },


		{
			"id": "00000000-0000-0000-0000-000000000026",
			"headers": "Content-Type: text/xml\nSOAPAction: http://gimpy.i3domain.inin.com/TCDBWebService/UpdateTestCase\n",
			"url": "http://gimpy.i3domain.inin.com/TCDBWebService/TCDBWebService.asmx",
			"pathVariables": {},
			"preRequestScript": "",
			"method": "POST",
			"collectionId": "00000000-0000-0000-0000-000000000008",
			"data": [],
			"dataMode": "raw",
			"name": "26",
			"description": "",
			"descriptionFormat": "html",
			"time": 1428692568969,
			"version": 2,
			"responses": [],
			"tests": "postman.setGlobalVariable(\"testCaseId\", \"0\");",
			"currentHelper": "normal",
			"helperAttributes": {},
			"collectionOwner": 0,
			"write": true,
			"synced": false,
			"owner": "39537",
			"collection": "00000000-0000-0000-0000-000000000008",
			"rawModeData": "<soapenv:Envelope xmlns:soapenv=\"http://schemas.xmlsoap.org/soap/envelope/\" xmlns:gim=\"http://gimpy.i3domain.inin.com\">\r\n  <soapenv:Header/>\r\n  <soapenv:Body>\r\n    <gim:UpdateTestCase>\r\n      <!--Optional:-->\r\n      <gim:testCaseXml>       \r\n                <![CDATA[         \r\n    <testcases username=\"{{gimpyUsername}}\">\r\n    <testcase codebase=\"PureCloud\" id=\"41265\" name=\"API - Verify Doc User for Flow Change State\" priority=\"P3\" state=\"Active\">\r\n        <description>Verify the document workflow history User is correct for changing the state of a flow</description>\r\n        <estimatedruntime>0.20</estimatedruntime>\r\n        <assumptions>A flow exists that has changed state.</assumptions>\r\n        <limitations> </limitations>\r\n        <notes> </notes>\r\n        <data> </data>\r\n        <type>Public API Endpoint Only</type>\r\n        <howfound>Tester Input</howfound>\r\n        <targetrelease>PureCloud 1.0GA</targetrelease>\r\n        <pscim>\r\n            <product>PureCloud</product>\r\n        </pscim>\r\n        <teststeps>\r\n            <teststep action=\"Call an endpoint to retrieve document workflow history that contains a change state flow action and verify the User is correct \" expectedresult=\"A HTTP response is returned that contains the correct user where historyEventType equals FLOW_INSTANCE_GOTO\"/>\r\n        </teststeps>\r\n    </testcase>\r\n    </testcases>\r\n\t\t]]>\r\n      </gim:testCaseXml>\r\n    </gim:UpdateTestCase>\r\n  </soapenv:Body>\r\n</soapenv:Envelope>\r\n"
                },


		{
			"id": "00000000-0000-0000-0000-000000000027",
			"headers": "Content-Type: text/xml\nSOAPAction: http://gimpy.i3domain.inin.com/TCDBWebService/UpdateTestCase\n",
			"url": "http://gimpy.i3domain.inin.com/TCDBWebService/TCDBWebService.asmx",
			"pathVariables": {},
			"preRequestScript": "",
			"method": "POST",
			"collectionId": "00000000-0000-0000-0000-000000000008",
			"data": [],
			"dataMode": "raw",
			"name": "27",
			"description": "",
			"descriptionFormat": "html",
			"time": 1428692568969,
			"version": 2,
			"responses": [],
			"tests": "postman.setGlobalVariable(\"testCaseId\", \"0\");",
			"currentHelper": "normal",
			"helperAttributes": {},
			"collectionOwner": 0,
			"write": true,
			"synced": false,
			"owner": "39537",
			"collection": "00000000-0000-0000-0000-000000000008",
			"rawModeData": "<soapenv:Envelope xmlns:soapenv=\"http://schemas.xmlsoap.org/soap/envelope/\" xmlns:gim=\"http://gimpy.i3domain.inin.com\">\r\n  <soapenv:Header/>\r\n  <soapenv:Body>\r\n    <gim:UpdateTestCase>\r\n      <!--Optional:-->\r\n      <gim:testCaseXml>       \r\n                <![CDATA[         \r\n    <testcases username=\"{{gimpyUsername}}\">\r\n    <testcase codebase=\"PureCloud\" id=\"41266\" name=\"API - Verify Doc User for Flow Terminate\" priority=\"P1\" state=\"Active\">\r\n        <description>Verify the document workflow history User is correct for terminating of a flow</description>\r\n        <estimatedruntime>0.20</estimatedruntime>\r\n        <assumptions>A flow exists that has been terminated.</assumptions>\r\n        <limitations> </limitations>\r\n        <notes> </notes>\r\n        <data> </data>\r\n        <type>Public API Endpoint Only</type>\r\n        <howfound>Tester Input</howfound>\r\n        <targetrelease>PureCloud 1.0GA</targetrelease>\r\n        <pscim>\r\n            <product>PureCloud</product>\r\n        </pscim>\r\n        <teststeps>\r\n            <teststep action=\"Call an endpoint to retrieve document workflow history for a terminated flow and verify the user is correct\" expectedresult=\"A HTTP response is returned that contains the correct user where historyEventType equals FLOW_INSTANCE_TERMINATE\"/>\r\n        </teststeps>\r\n    </testcase>\r\n    </testcases>\r\n\t\t]]>\r\n      </gim:testCaseXml>\r\n    </gim:UpdateTestCase>\r\n  </soapenv:Body>\r\n</soapenv:Envelope>\r\n"
                },


		{
			"id": "00000000-0000-0000-0000-000000000028",
			"headers": "Content-Type: text/xml\nSOAPAction: http://gimpy.i3domain.inin.com/TCDBWebService/UpdateTestCase\n",
			"url": "http://gimpy.i3domain.inin.com/TCDBWebService/TCDBWebService.asmx",
			"pathVariables": {},
			"preRequestScript": "",
			"method": "POST",
			"collectionId": "00000000-0000-0000-0000-000000000008",
			"data": [],
			"dataMode": "raw",
			"name": "28",
			"description": "",
			"descriptionFormat": "html",
			"time": 1428692568969,
			"version": 2,
			"responses": [],
			"tests": "postman.setGlobalVariable(\"testCaseId\", \"0\");",
			"currentHelper": "normal",
			"helperAttributes": {},
			"collectionOwner": 0,
			"write": true,
			"synced": false,
			"owner": "39537",
			"collection": "00000000-0000-0000-0000-000000000008",
			"rawModeData": "<soapenv:Envelope xmlns:soapenv=\"http://schemas.xmlsoap.org/soap/envelope/\" xmlns:gim=\"http://gimpy.i3domain.inin.com\">\r\n  <soapenv:Header/>\r\n  <soapenv:Body>\r\n    <gim:UpdateTestCase>\r\n      <!--Optional:-->\r\n      <gim:testCaseXml>       \r\n                <![CDATA[         \r\n    <testcases username=\"{{gimpyUsername}}\">\r\n    <testcase codebase=\"PureCloud\" id=\"41267\" name=\"API - Verify Doc Terminated Flow Status\" priority=\"P2\" state=\"Active\">\r\n        <description>Verify the document workflow history status is correct when a flow is terminated</description>\r\n        <estimatedruntime>0.20</estimatedruntime>\r\n        <assumptions>A flow exists that has been terminated.</assumptions>\r\n        <limitations> </limitations>\r\n        <notes> </notes>\r\n        <data> </data>\r\n        <type>Public API Endpoint Only</type>\r\n        <howfound>Tester Input</howfound>\r\n        <targetrelease>PureCloud 1.0GA</targetrelease>\r\n        <pscim>\r\n            <product>PureCloud</product>\r\n        </pscim>\r\n        <teststeps>\r\n            <teststep action=\"Call an endpoint to retrieve document workflow history for a terminated flow and verify the status is terminated\" expectedresult=\"A HTTP response is returned that indicates the status is TERMINATED\"/>\r\n        </teststeps>\r\n    </testcase>\r\n    </testcases>\r\n\t\t]]>\r\n      </gim:testCaseXml>\r\n    </gim:UpdateTestCase>\r\n  </soapenv:Body>\r\n</soapenv:Envelope>\r\n"
                },


		{
			"id": "00000000-0000-0000-0000-000000000029",
			"headers": "Content-Type: text/xml\nSOAPAction: http://gimpy.i3domain.inin.com/TCDBWebService/UpdateTestCase\n",
			"url": "http://gimpy.i3domain.inin.com/TCDBWebService/TCDBWebService.asmx",
			"pathVariables": {},
			"preRequestScript": "",
			"method": "POST",
			"collectionId": "00000000-0000-0000-0000-000000000008",
			"data": [],
			"dataMode": "raw",
			"name": "29",
			"description": "",
			"descriptionFormat": "html",
			"time": 1428692568969,
			"version": 2,
			"responses": [],
			"tests": "postman.setGlobalVariable(\"testCaseId\", \"0\");",
			"currentHelper": "normal",
			"helperAttributes": {},
			"collectionOwner": 0,
			"write": true,
			"synced": false,
			"owner": "39537",
			"collection": "00000000-0000-0000-0000-000000000008",
			"rawModeData": "<soapenv:Envelope xmlns:soapenv=\"http://schemas.xmlsoap.org/soap/envelope/\" xmlns:gim=\"http://gimpy.i3domain.inin.com\">\r\n  <soapenv:Header/>\r\n  <soapenv:Body>\r\n    <gim:UpdateTestCase>\r\n      <!--Optional:-->\r\n      <gim:testCaseXml>       \r\n                <![CDATA[         \r\n    <testcases username=\"{{gimpyUsername}}\">\r\n    <testcase codebase=\"PureCloud\" id=\"41268\" name=\"API - Verify Doc Completed Flow Status \" priority=\"P2\" state=\"Active\">\r\n        <description>Verify the document workflow history status is correct when a flow is completed</description>\r\n        <estimatedruntime>0.20</estimatedruntime>\r\n        <assumptions>A flow exists that has been completed.</assumptions>\r\n        <limitations> </limitations>\r\n        <notes> </notes>\r\n        <data> </data>\r\n        <type>Public API Endpoint Only</type>\r\n        <howfound>Tester Input</howfound>\r\n        <targetrelease>PureCloud 1.0GA</targetrelease>\r\n        <pscim>\r\n            <product>PureCloud</product>\r\n        </pscim>\r\n        <teststeps>\r\n            <teststep action=\"Call an endpoint to retrieve document workflow history for a completed flow and verify the status is completed\" expectedresult=\"A HTTP response is returned that indicates the status is COMPLETED\"/>\r\n        </teststeps>\r\n    </testcase>\r\n    </testcases>\r\n\t\t]]>\r\n      </gim:testCaseXml>\r\n    </gim:UpdateTestCase>\r\n  </soapenv:Body>\r\n</soapenv:Envelope>\r\n"
                },


		{
			"id": "00000000-0000-0000-0000-000000000030",
			"headers": "Content-Type: text/xml\nSOAPAction: http://gimpy.i3domain.inin.com/TCDBWebService/UpdateTestCase\n",
			"url": "http://gimpy.i3domain.inin.com/TCDBWebService/TCDBWebService.asmx",
			"pathVariables": {},
			"preRequestScript": "",
			"method": "POST",
			"collectionId": "00000000-0000-0000-0000-000000000008",
			"data": [],
			"dataMode": "raw",
			"name": "30",
			"description": "",
			"descriptionFormat": "html",
			"time": 1428692568969,
			"version": 2,
			"responses": [],
			"tests": "postman.setGlobalVariable(\"testCaseId\", \"0\");",
			"currentHelper": "normal",
			"helperAttributes": {},
			"collectionOwner": 0,
			"write": true,
			"synced": false,
			"owner": "39537",
			"collection": "00000000-0000-0000-0000-000000000008",
			"rawModeData": "<soapenv:Envelope xmlns:soapenv=\"http://schemas.xmlsoap.org/soap/envelope/\" xmlns:gim=\"http://gimpy.i3domain.inin.com\">\r\n  <soapenv:Header/>\r\n  <soapenv:Body>\r\n    <gim:UpdateTestCase>\r\n      <!--Optional:-->\r\n      <gim:testCaseXml>       \r\n                <![CDATA[         \r\n    <testcases username=\"{{gimpyUsername}}\">\r\n    <testcase codebase=\"PureCloud\" id=\"41269\" name=\"API - Verify Doc Running Flow Status \" priority=\"P2\" state=\"Active\">\r\n        <description>Verify the document workflow history status is correct when a flow is running</description>\r\n        <estimatedruntime>0.20</estimatedruntime>\r\n        <assumptions>A flow exists that is running.</assumptions>\r\n        <limitations> </limitations>\r\n        <notes> </notes>\r\n        <data> </data>\r\n        <type>Public API Endpoint Only</type>\r\n        <howfound>Tester Input</howfound>\r\n        <targetrelease>PureCloud 1.0GA</targetrelease>\r\n        <pscim>\r\n            <product>PureCloud</product>\r\n        </pscim>\r\n        <teststeps>\r\n            <teststep action=\"Call an endpoint to retrieve document workflow history for a running flow and verify the status is running\" expectedresult=\"A HTTP response is returned that indicates the status is RUNNING\"/>\r\n        </teststeps>\r\n    </testcase>\r\n    </testcases>\r\n\t\t]]>\r\n      </gim:testCaseXml>\r\n    </gim:UpdateTestCase>\r\n  </soapenv:Body>\r\n</soapenv:Envelope>\r\n"
                },


		{
			"id": "00000000-0000-0000-0000-000000000031",
			"headers": "Content-Type: text/xml\nSOAPAction: http://gimpy.i3domain.inin.com/TCDBWebService/UpdateTestCase\n",
			"url": "http://gimpy.i3domain.inin.com/TCDBWebService/TCDBWebService.asmx",
			"pathVariables": {},
			"preRequestScript": "",
			"method": "POST",
			"collectionId": "00000000-0000-0000-0000-000000000008",
			"data": [],
			"dataMode": "raw",
			"name": "31",
			"description": "",
			"descriptionFormat": "html",
			"time": 1428692568969,
			"version": 2,
			"responses": [],
			"tests": "postman.setGlobalVariable(\"testCaseId\", \"0\");",
			"currentHelper": "normal",
			"helperAttributes": {},
			"collectionOwner": 0,
			"write": true,
			"synced": false,
			"owner": "39537",
			"collection": "00000000-0000-0000-0000-000000000008",
			"rawModeData": "<soapenv:Envelope xmlns:soapenv=\"http://schemas.xmlsoap.org/soap/envelope/\" xmlns:gim=\"http://gimpy.i3domain.inin.com\">\r\n  <soapenv:Header/>\r\n  <soapenv:Body>\r\n    <gim:UpdateTestCase>\r\n      <!--Optional:-->\r\n      <gim:testCaseXml>       \r\n                <![CDATA[         \r\n    <testcases username=\"{{gimpyUsername}}\">\r\n    <testcase codebase=\"PureCloud\" id=\"41270\" name=\"\" priority=\"\" state=\"Active\">\r\n        <description></description>\r\n        <estimatedruntime>0.20</estimatedruntime>\r\n        <assumptions></assumptions>\r\n        <limitations> </limitations>\r\n        <notes> </notes>\r\n        <data> </data>\r\n        <type>Public API Endpoint Only</type>\r\n        <howfound>Tester Input</howfound>\r\n        <targetrelease>PureCloud 1.0GA</targetrelease>\r\n        <pscim>\r\n            <product>PureCloud</product>\r\n        </pscim>\r\n        <teststeps>\r\n            <teststep action=\"\" expectedresult=\"\"/>\r\n        </teststeps>\r\n    </testcase>\r\n    </testcases>\r\n\t\t]]>\r\n      </gim:testCaseXml>\r\n    </gim:UpdateTestCase>\r\n  </soapenv:Body>\r\n</soapenv:Envelope>\r\n"
                },


		{
			"id": "00000000-0000-0000-0000-000000000032",
			"headers": "Content-Type: text/xml\nSOAPAction: http://gimpy.i3domain.inin.com/TCDBWebService/UpdateTestCase\n",
			"url": "http://gimpy.i3domain.inin.com/TCDBWebService/TCDBWebService.asmx",
			"pathVariables": {},
			"preRequestScript": "",
			"method": "POST",
			"collectionId": "00000000-0000-0000-0000-000000000008",
			"data": [],
			"dataMode": "raw",
			"name": "32",
			"description": "",
			"descriptionFormat": "html",
			"time": 1428692568969,
			"version": 2,
			"responses": [],
			"tests": "postman.setGlobalVariable(\"testCaseId\", \"0\");",
			"currentHelper": "normal",
			"helperAttributes": {},
			"collectionOwner": 0,
			"write": true,
			"synced": false,
			"owner": "39537",
			"collection": "00000000-0000-0000-0000-000000000008",
			"rawModeData": "<soapenv:Envelope xmlns:soapenv=\"http://schemas.xmlsoap.org/soap/envelope/\" xmlns:gim=\"http://gimpy.i3domain.inin.com\">\r\n  <soapenv:Header/>\r\n  <soapenv:Body>\r\n    <gim:UpdateTestCase>\r\n      <!--Optional:-->\r\n      <gim:testCaseXml>       \r\n                <![CDATA[         \r\n    <testcases username=\"{{gimpyUsername}}\">\r\n    <testcase codebase=\"PureCloud\" id=\"41271\" name=\"API - Verify Doc History State data\" priority=\"P1\" state=\"Active\">\r\n        <description>Verify the document workflow history state data is correct</description>\r\n        <estimatedruntime>0.20</estimatedruntime>\r\n        <assumptions>A flow exists that has been launched.</assumptions>\r\n        <limitations> </limitations>\r\n        <notes> </notes>\r\n        <data> </data>\r\n        <type>Public API Endpoint Only</type>\r\n        <howfound>Tester Input</howfound>\r\n        <targetrelease>PureCloud 1.0GA</targetrelease>\r\n        <pscim>\r\n            <product>PureCloud</product>\r\n        </pscim>\r\n        <teststeps>\r\n            <teststep action=\"Call an endpoint to retrieve document workflow history for a given flow and verify all the state data is correct \" expectedresult=\"A HTTP response is returned that contains the correct stateExecId, stateConfigId, and stateName\"/>\r\n        </teststeps>\r\n    </testcase>\r\n    </testcases>\r\n\t\t]]>\r\n      </gim:testCaseXml>\r\n    </gim:UpdateTestCase>\r\n  </soapenv:Body>\r\n</soapenv:Envelope>\r\n"
                },


		{
			"id": "00000000-0000-0000-0000-000000000033",
			"headers": "Content-Type: text/xml\nSOAPAction: http://gimpy.i3domain.inin.com/TCDBWebService/UpdateTestCase\n",
			"url": "http://gimpy.i3domain.inin.com/TCDBWebService/TCDBWebService.asmx",
			"pathVariables": {},
			"preRequestScript": "",
			"method": "POST",
			"collectionId": "00000000-0000-0000-0000-000000000008",
			"data": [],
			"dataMode": "raw",
			"name": "33",
			"description": "",
			"descriptionFormat": "html",
			"time": 1428692568969,
			"version": 2,
			"responses": [],
			"tests": "postman.setGlobalVariable(\"testCaseId\", \"0\");",
			"currentHelper": "normal",
			"helperAttributes": {},
			"collectionOwner": 0,
			"write": true,
			"synced": false,
			"owner": "39537",
			"collection": "00000000-0000-0000-0000-000000000008",
			"rawModeData": "<soapenv:Envelope xmlns:soapenv=\"http://schemas.xmlsoap.org/soap/envelope/\" xmlns:gim=\"http://gimpy.i3domain.inin.com\">\r\n  <soapenv:Header/>\r\n  <soapenv:Body>\r\n    <gim:UpdateTestCase>\r\n      <!--Optional:-->\r\n      <gim:testCaseXml>       \r\n                <![CDATA[         \r\n    <testcases username=\"{{gimpyUsername}}\">\r\n    <testcase codebase=\"PureCloud\" id=\"41272\" name=\"API - Verify Doc historyEventType for Work Item Transfer\" priority=\"P3\" state=\"Active\">\r\n        <description>Verify the document workflow history historyEventType is correct for transferring a Work Item</description>\r\n        <estimatedruntime>0.20</estimatedruntime>\r\n        <assumptions>A work item exists that has been transferred.</assumptions>\r\n        <limitations> </limitations>\r\n        <notes> </notes>\r\n        <data> </data>\r\n        <type>Public API Endpoint Only</type>\r\n        <howfound>Tester Input</howfound>\r\n        <targetrelease>PureCloud 1.0GA</targetrelease>\r\n        <pscim>\r\n            <product>PureCloud</product>\r\n        </pscim>\r\n        <teststeps>\r\n            <teststep action=\"Call an endpoint to retrieve document workflow history that contains a transfer Work Item action and verify the historyEventType is correct\" expectedresult=\"A HTTP response is returned that indicates the historyEventType is WORK_ITEM_INSTANCE_REASSIGN\"/>\r\n        </teststeps>\r\n    </testcase>\r\n    </testcases>\r\n\t\t]]>\r\n      </gim:testCaseXml>\r\n    </gim:UpdateTestCase>\r\n  </soapenv:Body>\r\n</soapenv:Envelope>\r\n"
                },


		{
			"id": "00000000-0000-0000-0000-000000000034",
			"headers": "Content-Type: text/xml\nSOAPAction: http://gimpy.i3domain.inin.com/TCDBWebService/UpdateTestCase\n",
			"url": "http://gimpy.i3domain.inin.com/TCDBWebService/TCDBWebService.asmx",
			"pathVariables": {},
			"preRequestScript": "",
			"method": "POST",
			"collectionId": "00000000-0000-0000-0000-000000000008",
			"data": [],
			"dataMode": "raw",
			"name": "34",
			"description": "",
			"descriptionFormat": "html",
			"time": 1428692568969,
			"version": 2,
			"responses": [],
			"tests": "postman.setGlobalVariable(\"testCaseId\", \"0\");",
			"currentHelper": "normal",
			"helperAttributes": {},
			"collectionOwner": 0,
			"write": true,
			"synced": false,
			"owner": "39537",
			"collection": "00000000-0000-0000-0000-000000000008",
			"rawModeData": "<soapenv:Envelope xmlns:soapenv=\"http://schemas.xmlsoap.org/soap/envelope/\" xmlns:gim=\"http://gimpy.i3domain.inin.com\">\r\n  <soapenv:Header/>\r\n  <soapenv:Body>\r\n    <gim:UpdateTestCase>\r\n      <!--Optional:-->\r\n      <gim:testCaseXml>       \r\n                <![CDATA[         \r\n    <testcases username=\"{{gimpyUsername}}\">\r\n    <testcase codebase=\"PureCloud\" id=\"41273\" name=\"API - Verify Doc historyEventType for Work Item Submit\" priority=\"P1\" state=\"Active\">\r\n        <description>Verify the document workflow history historyEventType is correct for submitting a Work Item</description>\r\n        <estimatedruntime>0.20</estimatedruntime>\r\n        <assumptions>A Work Item has been submitted.</assumptions>\r\n        <limitations> </limitations>\r\n        <notes> </notes>\r\n        <data> </data>\r\n        <type>Public API Endpoint Only</type>\r\n        <howfound>Tester Input</howfound>\r\n        <targetrelease>PureCloud 1.0GA</targetrelease>\r\n        <pscim>\r\n            <product>PureCloud</product>\r\n        </pscim>\r\n        <teststeps>\r\n            <teststep action=\"Call an endpoint to retrieve document workflow history that contains a submit Work Item action and verify the historyEventType is correct \" expectedresult=\"A HTTP response is returned that indicates the historyEventType is WORK_ITEM_INSTANCE_SUBMIT\"/>\r\n        </teststeps>\r\n    </testcase>\r\n    </testcases>\r\n\t\t]]>\r\n      </gim:testCaseXml>\r\n    </gim:UpdateTestCase>\r\n  </soapenv:Body>\r\n</soapenv:Envelope>\r\n"
                },


		{
			"id": "00000000-0000-0000-0000-000000000035",
			"headers": "Content-Type: text/xml\nSOAPAction: http://gimpy.i3domain.inin.com/TCDBWebService/UpdateTestCase\n",
			"url": "http://gimpy.i3domain.inin.com/TCDBWebService/TCDBWebService.asmx",
			"pathVariables": {},
			"preRequestScript": "",
			"method": "POST",
			"collectionId": "00000000-0000-0000-0000-000000000008",
			"data": [],
			"dataMode": "raw",
			"name": "35",
			"description": "",
			"descriptionFormat": "html",
			"time": 1428692568969,
			"version": 2,
			"responses": [],
			"tests": "postman.setGlobalVariable(\"testCaseId\", \"0\");",
			"currentHelper": "normal",
			"helperAttributes": {},
			"collectionOwner": 0,
			"write": true,
			"synced": false,
			"owner": "39537",
			"collection": "00000000-0000-0000-0000-000000000008",
			"rawModeData": "<soapenv:Envelope xmlns:soapenv=\"http://schemas.xmlsoap.org/soap/envelope/\" xmlns:gim=\"http://gimpy.i3domain.inin.com\">\r\n  <soapenv:Header/>\r\n  <soapenv:Body>\r\n    <gim:UpdateTestCase>\r\n      <!--Optional:-->\r\n      <gim:testCaseXml>       \r\n                <![CDATA[         \r\n    <testcases username=\"{{gimpyUsername}}\">\r\n    <testcase codebase=\"PureCloud\" id=\"41274\" name=\"DELETE\" priority=\"DELETE\" state=\"Active\">\r\n        <description>DELETE</description>\r\n        <estimatedruntime>0.20</estimatedruntime>\r\n        <assumptions>DELETE</assumptions>\r\n        <limitations> </limitations>\r\n        <notes> </notes>\r\n        <data> </data>\r\n        <type>Public API Endpoint Only</type>\r\n        <howfound>Tester Input</howfound>\r\n        <targetrelease>PureCloud 1.0GA</targetrelease>\r\n        <pscim>\r\n            <product>PureCloud</product>\r\n        </pscim>\r\n        <teststeps>\r\n            <teststep action=\"DELETE\" expectedresult=\"DELETE\"/>\r\n        </teststeps>\r\n    </testcase>\r\n    </testcases>\r\n\t\t]]>\r\n      </gim:testCaseXml>\r\n    </gim:UpdateTestCase>\r\n  </soapenv:Body>\r\n</soapenv:Envelope>\r\n"
                },


		{
			"id": "00000000-0000-0000-0000-000000000036",
			"headers": "Content-Type: text/xml\nSOAPAction: http://gimpy.i3domain.inin.com/TCDBWebService/UpdateTestCase\n",
			"url": "http://gimpy.i3domain.inin.com/TCDBWebService/TCDBWebService.asmx",
			"pathVariables": {},
			"preRequestScript": "",
			"method": "POST",
			"collectionId": "00000000-0000-0000-0000-000000000008",
			"data": [],
			"dataMode": "raw",
			"name": "36",
			"description": "",
			"descriptionFormat": "html",
			"time": 1428692568969,
			"version": 2,
			"responses": [],
			"tests": "postman.setGlobalVariable(\"testCaseId\", \"0\");",
			"currentHelper": "normal",
			"helperAttributes": {},
			"collectionOwner": 0,
			"write": true,
			"synced": false,
			"owner": "39537",
			"collection": "00000000-0000-0000-0000-000000000008",
			"rawModeData": "<soapenv:Envelope xmlns:soapenv=\"http://schemas.xmlsoap.org/soap/envelope/\" xmlns:gim=\"http://gimpy.i3domain.inin.com\">\r\n  <soapenv:Header/>\r\n  <soapenv:Body>\r\n    <gim:UpdateTestCase>\r\n      <!--Optional:-->\r\n      <gim:testCaseXml>       \r\n                <![CDATA[         \r\n    <testcases username=\"{{gimpyUsername}}\">\r\n    <testcase codebase=\"PureCloud\" id=\"41275\" name=\"API - Verify Doc historyEventType for Work Item Take Ownership\" priority=\"P2\" state=\"Active\">\r\n        <description>Verify the document workflow history historyEventType is correct for taking ownership of a Work Item</description>\r\n        <estimatedruntime>0.20</estimatedruntime>\r\n        <assumptions>A user has taken ownership of a work item.</assumptions>\r\n        <limitations> </limitations>\r\n        <notes> </notes>\r\n        <data> </data>\r\n        <type>Public API Endpoint Only</type>\r\n        <howfound>Tester Input</howfound>\r\n        <targetrelease>PureCloud 1.0GA</targetrelease>\r\n        <pscim>\r\n            <product>PureCloud</product>\r\n        </pscim>\r\n        <teststeps>\r\n            <teststep action=\"Call an endpoint to retrieve document workflow history that contains a take ownership Work Item action and verify the historyEventType is correct\" expectedresult=\"A HTTP response is returned that indicates the historyEventType is WORK_ITEM_INSTANCE_ACQUIRE\"/>\r\n        </teststeps>\r\n    </testcase>\r\n    </testcases>\r\n\t\t]]>\r\n      </gim:testCaseXml>\r\n    </gim:UpdateTestCase>\r\n  </soapenv:Body>\r\n</soapenv:Envelope>\r\n"
                },


		{
			"id": "00000000-0000-0000-0000-000000000037",
			"headers": "Content-Type: text/xml\nSOAPAction: http://gimpy.i3domain.inin.com/TCDBWebService/UpdateTestCase\n",
			"url": "http://gimpy.i3domain.inin.com/TCDBWebService/TCDBWebService.asmx",
			"pathVariables": {},
			"preRequestScript": "",
			"method": "POST",
			"collectionId": "00000000-0000-0000-0000-000000000008",
			"data": [],
			"dataMode": "raw",
			"name": "37",
			"description": "",
			"descriptionFormat": "html",
			"time": 1428692568969,
			"version": 2,
			"responses": [],
			"tests": "postman.setGlobalVariable(\"testCaseId\", \"0\");",
			"currentHelper": "normal",
			"helperAttributes": {},
			"collectionOwner": 0,
			"write": true,
			"synced": false,
			"owner": "39537",
			"collection": "00000000-0000-0000-0000-000000000008",
			"rawModeData": "<soapenv:Envelope xmlns:soapenv=\"http://schemas.xmlsoap.org/soap/envelope/\" xmlns:gim=\"http://gimpy.i3domain.inin.com\">\r\n  <soapenv:Header/>\r\n  <soapenv:Body>\r\n    <gim:UpdateTestCase>\r\n      <!--Optional:-->\r\n      <gim:testCaseXml>       \r\n                <![CDATA[         \r\n    <testcases username=\"{{gimpyUsername}}\">\r\n    <testcase codebase=\"PureCloud\" id=\"41276\" name=\"API - Verify Doc historyEventType for Work Item PUT_workItemCache\" priority=\"P3\" state=\"Active\">\r\n        <description>Verify the document workflow history historyEventType is correct for PUT_workItemCache a Work Item</description>\r\n        <estimatedruntime>0.20</estimatedruntime>\r\n        <assumptions>A user has PUT_workItemCache a work item.</assumptions>\r\n        <limitations> </limitations>\r\n        <notes> </notes>\r\n        <data> </data>\r\n        <type>Public API Endpoint Only</type>\r\n        <howfound>Tester Input</howfound>\r\n        <targetrelease>PureCloud 1.0GA</targetrelease>\r\n        <pscim>\r\n            <product>PureCloud</product>\r\n        </pscim>\r\n        <teststeps>\r\n            <teststep action=\"Call an endpoint to retrieve document workflow history that contains a PUT_workItemCache Work Item action and verify the historyEventType is correct   \" expectedresult=\"A HTTP response is returned that indicates the historyEventType is WORK_ITEM_INSTANCE_CACHE\"/>\r\n        </teststeps>\r\n    </testcase>\r\n    </testcases>\r\n\t\t]]>\r\n      </gim:testCaseXml>\r\n    </gim:UpdateTestCase>\r\n  </soapenv:Body>\r\n</soapenv:Envelope>\r\n"
                },


