Test Case:
API.Flows.Instances.Search.Filter
---------------------------------
Status Code: <Response [200]>
Test Case ID: 50570
('Feature Suite ', '3681.0', ': Updated successfully with TC', '50570', '\n\n\n')Test Case:
API.Flows.Instances.Launch.Activated
------------------------------------
Status Code: <Response [200]>
Test Case ID: 50571
('Feature Suite ', '3682.0', ': Updated successfully with TC', '50571', '\n\n\n')