		{
			"id": "00000000-0000-0000-0000-000000000056",
			"headers": "Content-Type: text/xml\nSOAPAction: http://gimpy.i3domain.inin.com/TCDBWebService/CreateInactiveTestCase\n",
			"url": "http://gimpy.i3domain.inin.com/TCDBWebService/TCDBWebService.asmx",
			"pathVariables": {},
			"preRequestScript": "",
			"method": "POST",
			"collectionId": "00000000-0000-0000-0000-000000000007",
			"data": [],
			"dataMode": "raw",
			"name": "56",
			"description": "",
			"descriptionFormat": "html",
			"time": 1428691633073,
			"version": 2,
			"responses": [],
			"tests": "var jsonObject = xmlToJson(responseBody);\nvar importResult = JSON.stringify(jsonObject);\nvar match = importResult.match(/testcaseid.+\\:\\\\\\\"(\\d+).+imported/);\npostman.setGlobalVariable( \"testCaseId\", match[1]);\nconsole.log(\"Test Case Number Imported \" + match[1]);",
			"currentHelper": "normal",
			"helperAttributes": {},
			"collectionOwner": 0,
			"write": true,
			"synced": false,
			"owner": "39537",
			"collection": "00000000-0000-0000-0000-000000000007",
			"rawModeData": "<soapenv:Envelope xmlns:soapenv=\"http://schemas.xmlsoap.org/soap/envelope/\" xmlns:gim=\"http://gimpy.i3domain.inin.com\">\r\n  <soapenv:Header/>\r\n  <soapenv:Body>\r\n    <gim:CreateInactiveTestCase>\r\n      <!--Optional:-->\r\n      <gim:testCaseXml>       \r\n                <![CDATA[         \r\n    <testcases username=\"{{gimpyUsername}}\">\r\n    <testcase codebase=\"PureCloud\" id=\"{{testCaseId}}\" name=\"Expression Arithmetic - Advanced, Complex\" priority=\"P1\" state=\"Inactive\">\r\n        <description>Verify the correct behavior upon using all arithmetic operations in pattern ((011)(011))((1(11))(1(1(1(1(1(1(10(11(11((11)(11))))))))))))) where 0 is a negative value, 1 is a positive value</description>\r\n        <estimatedruntime>0.20</estimatedruntime>\r\n        <assumptions>A flow exists.</assumptions>\r\n        <limitations> </limitations>\r\n        <notes> </notes>\r\n        <data> </data>\r\n        <type>Public API Endpoint Only</type>\r\n        <howfound>Tester Input</howfound>\r\n        <targetrelease>PureCloud 1.0GA</targetrelease>\r\n        <pscim>\r\n            <product>PureCloud</product>\r\n        </pscim>\r\n        <teststeps>\r\n            <teststep action=\"Execute an expression ((-596945+568767*0.005 )+(-3.33*69.653489645645/587)) / ((6878*(55 % 1.5978)) + (76877 - (0.5(0.2(55(3(0.1(1(2-0.50968(3^2(4+6((687/37568.5897860979)(475*0.5)))))))))))))\" expectedresult=\"The result is -7.26796607942\"/>\r\n        </teststeps>\r\n    </testcase>\r\n    </testcases>\r\n\t\t]]>\r\n      </gim:testCaseXml>\r\n    </gim:CreateInactiveTestCase>\r\n  </soapenv:Body>\r\n</soapenv:Envelope>\r\n"
		},

