		{
			"id": "00000000-0000-0000-0000-000000000001",
			"headers": "Content-Type: text/xml\nSOAPAction: http://gimpy.i3domain.inin.com/TCDBWebService/UpdateTestCase\n",
			"url": "http://gimpy.i3domain.inin.com/TCDBWebService/TCDBWebService.asmx",
			"pathVariables": {},
			"preRequestScript": "",
			"method": "POST",
			"collectionId": "00000000-0000-0000-0000-000000000008",
			"data": [],
			"dataMode": "raw",
			"name": "1",
			"description": "",
			"descriptionFormat": "html",
			"time": 1428692568969,
			"version": 2,
			"responses": [],
			"tests": "postman.setGlobalVariable(\"testCaseId\", \"0\");",
			"currentHelper": "normal",
			"helperAttributes": {},
			"collectionOwner": 0,
			"write": true,
			"synced": false,
			"owner": "39537",
			"collection": "00000000-0000-0000-0000-000000000008",
			"rawModeData": "<soapenv:Envelope xmlns:soapenv=\"http://schemas.xmlsoap.org/soap/envelope/\" xmlns:gim=\"http://gimpy.i3domain.inin.com\">\r\n  <soapenv:Header/>\r\n  <soapenv:Body>\r\n    <gim:UpdateTestCase>\r\n      <!--Optional:-->\r\n      <gim:testCaseXml>       \r\n                <![CDATA[         \r\n    <testcases username=\"{{gimpyUsername}}\">\r\n    <testcase codebase=\"PureCloud\" id=\"36255\" name=\"API - Lock Locked Flow\" priority=\"P2\" state=\"Active\">\r\n        <description>Public API test to verify the correct behavior upon an attempt of locking an already locked flow</description>\r\n        <estimatedruntime>0.20</estimatedruntime>\r\n        <assumptions>The user has permission to modify a flow.\r\n A flow exists that has been locked</assumptions>\r\n        <limitations> </limitations>\r\n        <notes> </notes>\r\n        <data> </data>\r\n        <type>Public API Endpoint Only</type>\r\n        <howfound>Tester Input</howfound>\r\n        <targetrelease>PureCloud 1.0GA</targetrelease>\r\n        <pscim>\r\n            <product>PureCloud</product>\r\n        </pscim>\r\n        <teststeps>\r\n            <teststep action=\"Call an endpoint to lock a flow that is currently locked\" expectedresult=\"A HTTP response is returned indicating the flow has been locked successfully\"/>\r\n        </teststeps>\r\n    </testcase>\r\n    </testcases>\r\n\t\t]]>\r\n      </gim:testCaseXml>\r\n    </gim:UpdateTestCase>\r\n  </soapenv:Body>\r\n</soapenv:Envelope>\r\n"
                },


		{
			"id": "00000000-0000-0000-0000-000000000002",
			"headers": "Content-Type: text/xml\nSOAPAction: http://gimpy.i3domain.inin.com/TCDBWebService/UpdateTestCase\n",
			"url": "http://gimpy.i3domain.inin.com/TCDBWebService/TCDBWebService.asmx",
			"pathVariables": {},
			"preRequestScript": "",
			"method": "POST",
			"collectionId": "00000000-0000-0000-0000-000000000008",
			"data": [],
			"dataMode": "raw",
			"name": "2",
			"description": "",
			"descriptionFormat": "html",
			"time": 1428692568969,
			"version": 2,
			"responses": [],
			"tests": "postman.setGlobalVariable(\"testCaseId\", \"0\");",
			"currentHelper": "normal",
			"helperAttributes": {},
			"collectionOwner": 0,
			"write": true,
			"synced": false,
			"owner": "39537",
			"collection": "00000000-0000-0000-0000-000000000008",
			"rawModeData": "<soapenv:Envelope xmlns:soapenv=\"http://schemas.xmlsoap.org/soap/envelope/\" xmlns:gim=\"http://gimpy.i3domain.inin.com\">\r\n  <soapenv:Header/>\r\n  <soapenv:Body>\r\n    <gim:UpdateTestCase>\r\n      <!--Optional:-->\r\n      <gim:testCaseXml>       \r\n                <![CDATA[         \r\n    <testcases username=\"{{gimpyUsername}}\">\r\n    <testcase codebase=\"PureCloud\" id=\"36479\" name=\"API - Launch Activated Flow\" priority=\"P3\" state=\"Active\">\r\n        <description>Public API test to verify the correct error upon an attempt of launching an unpublished, activated flow</description>\r\n        <estimatedruntime>0.20</estimatedruntime>\r\n        <assumptions>The user has permission to launch a flow.\r\n A flow exists that is currently activated.</assumptions>\r\n        <limitations> </limitations>\r\n        <notes> </notes>\r\n        <data> </data>\r\n        <type>Public API Endpoint Only</type>\r\n        <howfound>Tester Input</howfound>\r\n        <targetrelease>PureCloud 1.0GA</targetrelease>\r\n        <pscim>\r\n            <product>PureCloud</product>\r\n        </pscim>\r\n        <teststeps>\r\n            <teststep action=\"Call an endpoint to launch a flow that is activated\" expectedresult=\"A HTTP response is returned indicating the operation failed\"/>\r\n        </teststeps>\r\n    </testcase>\r\n    </testcases>\r\n\t\t]]>\r\n      </gim:testCaseXml>\r\n    </gim:UpdateTestCase>\r\n  </soapenv:Body>\r\n</soapenv:Envelope>\r\n"
                },


		{
			"id": "00000000-0000-0000-0000-000000000003",
			"headers": "Content-Type: text/xml\nSOAPAction: http://gimpy.i3domain.inin.com/TCDBWebService/UpdateTestCase\n",
			"url": "http://gimpy.i3domain.inin.com/TCDBWebService/TCDBWebService.asmx",
			"pathVariables": {},
			"preRequestScript": "",
			"method": "POST",
			"collectionId": "00000000-0000-0000-0000-000000000008",
			"data": [],
			"dataMode": "raw",
			"name": "3",
			"description": "",
			"descriptionFormat": "html",
			"time": 1428692568969,
			"version": 2,
			"responses": [],
			"tests": "postman.setGlobalVariable(\"testCaseId\", \"0\");",
			"currentHelper": "normal",
			"helperAttributes": {},
			"collectionOwner": 0,
			"write": true,
			"synced": false,
			"owner": "39537",
			"collection": "00000000-0000-0000-0000-000000000008",
			"rawModeData": "<soapenv:Envelope xmlns:soapenv=\"http://schemas.xmlsoap.org/soap/envelope/\" xmlns:gim=\"http://gimpy.i3domain.inin.com\">\r\n  <soapenv:Header/>\r\n  <soapenv:Body>\r\n    <gim:UpdateTestCase>\r\n      <!--Optional:-->\r\n      <gim:testCaseXml>       \r\n                <![CDATA[         \r\n    <testcases username=\"{{gimpyUsername}}\">\r\n    <testcase codebase=\"PureCloud\" id=\"36480\" name=\"API - Launch Nonexistent Flow\" priority=\"P3\" state=\"Active\">\r\n        <description>Public API test to verify the correct error upon an attempt of launching a nonexistent flow</description>\r\n        <estimatedruntime>0.20</estimatedruntime>\r\n        <assumptions>The user has permission to launch a flow.</assumptions>\r\n        <limitations> </limitations>\r\n        <notes> </notes>\r\n        <data> </data>\r\n        <type>Public API Endpoint Only</type>\r\n        <howfound>Tester Input</howfound>\r\n        <targetrelease>PureCloud 1.0GA</targetrelease>\r\n        <pscim>\r\n            <product>PureCloud</product>\r\n        </pscim>\r\n        <teststeps>\r\n            <teststep action=\"Call an endpoint to launch a flow that doesn't exist\" expectedresult=\"A HTTP response is returned indicating the flow does not exist\"/>\r\n        </teststeps>\r\n    </testcase>\r\n    </testcases>\r\n\t\t]]>\r\n      </gim:testCaseXml>\r\n    </gim:UpdateTestCase>\r\n  </soapenv:Body>\r\n</soapenv:Envelope>\r\n"
                },


		{
			"id": "00000000-0000-0000-0000-000000000004",
			"headers": "Content-Type: text/xml\nSOAPAction: http://gimpy.i3domain.inin.com/TCDBWebService/UpdateTestCase\n",
			"url": "http://gimpy.i3domain.inin.com/TCDBWebService/TCDBWebService.asmx",
			"pathVariables": {},
			"preRequestScript": "",
			"method": "POST",
			"collectionId": "00000000-0000-0000-0000-000000000008",
			"data": [],
			"dataMode": "raw",
			"name": "4",
			"description": "",
			"descriptionFormat": "html",
			"time": 1428692568969,
			"version": 2,
			"responses": [],
			"tests": "postman.setGlobalVariable(\"testCaseId\", \"0\");",
			"currentHelper": "normal",
			"helperAttributes": {},
			"collectionOwner": 0,
			"write": true,
			"synced": false,
			"owner": "39537",
			"collection": "00000000-0000-0000-0000-000000000008",
			"rawModeData": "<soapenv:Envelope xmlns:soapenv=\"http://schemas.xmlsoap.org/soap/envelope/\" xmlns:gim=\"http://gimpy.i3domain.inin.com\">\r\n  <soapenv:Header/>\r\n  <soapenv:Body>\r\n    <gim:UpdateTestCase>\r\n      <!--Optional:-->\r\n      <gim:testCaseXml>       \r\n                <![CDATA[         \r\n    <testcases username=\"{{gimpyUsername}}\">\r\n    <testcase codebase=\"PureCloud\" id=\"36550\" name=\"API - Activate Published Flow\" priority=\"P1\" state=\"Active\">\r\n        <description>Public API test to verify the correct behavior upon an attempt of activating a published flow</description>\r\n        <estimatedruntime>0.20</estimatedruntime>\r\n        <assumptions>The user has permission to modify a flow.\r\n A flow exists that is currently published.</assumptions>\r\n        <limitations> </limitations>\r\n        <notes> </notes>\r\n        <data> </data>\r\n        <type>Public API Endpoint Only</type>\r\n        <howfound>Tester Input</howfound>\r\n        <targetrelease>PureCloud 1.0GA</targetrelease>\r\n        <pscim>\r\n            <product>PureCloud</product>\r\n        </pscim>\r\n        <teststeps>\r\n            <teststep action=\"Call an endpoint to activate a flow that is published\" expectedresult=\"A HTTP response is returned indicating the flow has been activated successfully\"/>\r\n        </teststeps>\r\n    </testcase>\r\n    </testcases>\r\n\t\t]]>\r\n      </gim:testCaseXml>\r\n    </gim:UpdateTestCase>\r\n  </soapenv:Body>\r\n</soapenv:Envelope>\r\n"
                },


		{
			"id": "00000000-0000-0000-0000-000000000005",
			"headers": "Content-Type: text/xml\nSOAPAction: http://gimpy.i3domain.inin.com/TCDBWebService/UpdateTestCase\n",
			"url": "http://gimpy.i3domain.inin.com/TCDBWebService/TCDBWebService.asmx",
			"pathVariables": {},
			"preRequestScript": "",
			"method": "POST",
			"collectionId": "00000000-0000-0000-0000-000000000008",
			"data": [],
			"dataMode": "raw",
			"name": "5",
			"description": "",
			"descriptionFormat": "html",
			"time": 1428692568969,
			"version": 2,
			"responses": [],
			"tests": "postman.setGlobalVariable(\"testCaseId\", \"0\");",
			"currentHelper": "normal",
			"helperAttributes": {},
			"collectionOwner": 0,
			"write": true,
			"synced": false,
			"owner": "39537",
			"collection": "00000000-0000-0000-0000-000000000008",
			"rawModeData": "<soapenv:Envelope xmlns:soapenv=\"http://schemas.xmlsoap.org/soap/envelope/\" xmlns:gim=\"http://gimpy.i3domain.inin.com\">\r\n  <soapenv:Header/>\r\n  <soapenv:Body>\r\n    <gim:UpdateTestCase>\r\n      <!--Optional:-->\r\n      <gim:testCaseXml>       \r\n                <![CDATA[         \r\n    <testcases username=\"{{gimpyUsername}}\">\r\n    <testcase codebase=\"PureCloud\" id=\"36551\" name=\"API - Activate Nonexistent Flow\" priority=\"P3\" state=\"Active\">\r\n        <description>Public API test to verify the correct error upon an attempt of activating a nonexistent flow</description>\r\n        <estimatedruntime>0.20</estimatedruntime>\r\n        <assumptions>The user has permission to modify a flow.</assumptions>\r\n        <limitations> </limitations>\r\n        <notes> </notes>\r\n        <data> </data>\r\n        <type>Public API Endpoint Only</type>\r\n        <howfound>Tester Input</howfound>\r\n        <targetrelease>PureCloud 1.0GA</targetrelease>\r\n        <pscim>\r\n            <product>PureCloud</product>\r\n        </pscim>\r\n        <teststeps>\r\n            <teststep action=\"Call an endpoint to activate a flow that doesn't exist\" expectedresult=\"A HTTP response is returned indicating the flow does not exist\"/>\r\n        </teststeps>\r\n    </testcase>\r\n    </testcases>\r\n\t\t]]>\r\n      </gim:testCaseXml>\r\n    </gim:UpdateTestCase>\r\n  </soapenv:Body>\r\n</soapenv:Envelope>\r\n"
                },


		{
			"id": "00000000-0000-0000-0000-000000000006",
			"headers": "Content-Type: text/xml\nSOAPAction: http://gimpy.i3domain.inin.com/TCDBWebService/UpdateTestCase\n",
			"url": "http://gimpy.i3domain.inin.com/TCDBWebService/TCDBWebService.asmx",
			"pathVariables": {},
			"preRequestScript": "",
			"method": "POST",
			"collectionId": "00000000-0000-0000-0000-000000000008",
			"data": [],
			"dataMode": "raw",
			"name": "6",
			"description": "",
			"descriptionFormat": "html",
			"time": 1428692568969,
			"version": 2,
			"responses": [],
			"tests": "postman.setGlobalVariable(\"testCaseId\", \"0\");",
			"currentHelper": "normal",
			"helperAttributes": {},
			"collectionOwner": 0,
			"write": true,
			"synced": false,
			"owner": "39537",
			"collection": "00000000-0000-0000-0000-000000000008",
			"rawModeData": "<soapenv:Envelope xmlns:soapenv=\"http://schemas.xmlsoap.org/soap/envelope/\" xmlns:gim=\"http://gimpy.i3domain.inin.com\">\r\n  <soapenv:Header/>\r\n  <soapenv:Body>\r\n    <gim:UpdateTestCase>\r\n      <!--Optional:-->\r\n      <gim:testCaseXml>       \r\n                <![CDATA[         \r\n    <testcases username=\"{{gimpyUsername}}\">\r\n    <testcase codebase=\"PureCloud\" id=\"36552\" name=\"API - Activate Deactivated Flow\" priority=\"P1\" state=\"Active\">\r\n        <description>Public API test to verify the correct behavior upon an attempt of activating a deactivated flow</description>\r\n        <estimatedruntime>0.20</estimatedruntime>\r\n        <assumptions>The user has permission to modify a flow.\r\n A flow exists that is currently deactivated.</assumptions>\r\n        <limitations> </limitations>\r\n        <notes> </notes>\r\n        <data> </data>\r\n        <type>Public API Endpoint Only</type>\r\n        <howfound>Tester Input</howfound>\r\n        <targetrelease>PureCloud 1.0GA</targetrelease>\r\n        <pscim>\r\n            <product>PureCloud</product>\r\n        </pscim>\r\n        <teststeps>\r\n            <teststep action=\"Call an endpoint to activate a flow that has been deactivated\" expectedresult=\"A HTTP response is returned indicating the flow has been activated successfully\"/>\r\n        </teststeps>\r\n    </testcase>\r\n    </testcases>\r\n\t\t]]>\r\n      </gim:testCaseXml>\r\n    </gim:UpdateTestCase>\r\n  </soapenv:Body>\r\n</soapenv:Envelope>\r\n"
                },


		{
			"id": "00000000-0000-0000-0000-000000000007",
			"headers": "Content-Type: text/xml\nSOAPAction: http://gimpy.i3domain.inin.com/TCDBWebService/UpdateTestCase\n",
			"url": "http://gimpy.i3domain.inin.com/TCDBWebService/TCDBWebService.asmx",
			"pathVariables": {},
			"preRequestScript": "",
			"method": "POST",
			"collectionId": "00000000-0000-0000-0000-000000000008",
			"data": [],
			"dataMode": "raw",
			"name": "7",
			"description": "",
			"descriptionFormat": "html",
			"time": 1428692568969,
			"version": 2,
			"responses": [],
			"tests": "postman.setGlobalVariable(\"testCaseId\", \"0\");",
			"currentHelper": "normal",
			"helperAttributes": {},
			"collectionOwner": 0,
			"write": true,
			"synced": false,
			"owner": "39537",
			"collection": "00000000-0000-0000-0000-000000000008",
			"rawModeData": "<soapenv:Envelope xmlns:soapenv=\"http://schemas.xmlsoap.org/soap/envelope/\" xmlns:gim=\"http://gimpy.i3domain.inin.com\">\r\n  <soapenv:Header/>\r\n  <soapenv:Body>\r\n    <gim:UpdateTestCase>\r\n      <!--Optional:-->\r\n      <gim:testCaseXml>       \r\n                <![CDATA[         \r\n    <testcases username=\"{{gimpyUsername}}\">\r\n    <testcase codebase=\"PureCloud\" id=\"36553\" name=\"API - Deactivate Activated Flow\" priority=\"P1\" state=\"Active\">\r\n        <description>Public API test to verify the correct behavior upon an attempt of deactivating an activated flow</description>\r\n        <estimatedruntime>0.20</estimatedruntime>\r\n        <assumptions>The user has permission to modify a flow.\r\n A flow exists that is currently activated.</assumptions>\r\n        <limitations> </limitations>\r\n        <notes> </notes>\r\n        <data> </data>\r\n        <type>Public API Endpoint Only</type>\r\n        <howfound>Tester Input</howfound>\r\n        <targetrelease>PureCloud 1.0GA</targetrelease>\r\n        <pscim>\r\n            <product>PureCloud</product>\r\n        </pscim>\r\n        <teststeps>\r\n            <teststep action=\"Call an endpoint to deactivate a flow that has been activated\" expectedresult=\"A HTTP response is returned indicating the flow has been deactivated successfully\"/>\r\n        </teststeps>\r\n    </testcase>\r\n    </testcases>\r\n\t\t]]>\r\n      </gim:testCaseXml>\r\n    </gim:UpdateTestCase>\r\n  </soapenv:Body>\r\n</soapenv:Envelope>\r\n"
                },


		{
			"id": "00000000-0000-0000-0000-000000000008",
			"headers": "Content-Type: text/xml\nSOAPAction: http://gimpy.i3domain.inin.com/TCDBWebService/UpdateTestCase\n",
			"url": "http://gimpy.i3domain.inin.com/TCDBWebService/TCDBWebService.asmx",
			"pathVariables": {},
			"preRequestScript": "",
			"method": "POST",
			"collectionId": "00000000-0000-0000-0000-000000000008",
			"data": [],
			"dataMode": "raw",
			"name": "8",
			"description": "",
			"descriptionFormat": "html",
			"time": 1428692568969,
			"version": 2,
			"responses": [],
			"tests": "postman.setGlobalVariable(\"testCaseId\", \"0\");",
			"currentHelper": "normal",
			"helperAttributes": {},
			"collectionOwner": 0,
			"write": true,
			"synced": false,
			"owner": "39537",
			"collection": "00000000-0000-0000-0000-000000000008",
			"rawModeData": "<soapenv:Envelope xmlns:soapenv=\"http://schemas.xmlsoap.org/soap/envelope/\" xmlns:gim=\"http://gimpy.i3domain.inin.com\">\r\n  <soapenv:Header/>\r\n  <soapenv:Body>\r\n    <gim:UpdateTestCase>\r\n      <!--Optional:-->\r\n      <gim:testCaseXml>       \r\n                <![CDATA[         \r\n    <testcases username=\"{{gimpyUsername}}\">\r\n    <testcase codebase=\"PureCloud\" id=\"36554\" name=\"API - Deactivate Nonexistent Flow\" priority=\"P3\" state=\"Active\">\r\n        <description>Public API test to verify the correct error upon an attempt of deactivating a nonexistent flow</description>\r\n        <estimatedruntime>0.20</estimatedruntime>\r\n        <assumptions>The user has permission to modify a flow.</assumptions>\r\n        <limitations> </limitations>\r\n        <notes> </notes>\r\n        <data> </data>\r\n        <type>Public API Endpoint Only</type>\r\n        <howfound>Tester Input</howfound>\r\n        <targetrelease>PureCloud 1.0GA</targetrelease>\r\n        <pscim>\r\n            <product>PureCloud</product>\r\n        </pscim>\r\n        <teststeps>\r\n            <teststep action=\"Call an endpoint to Deactivate a flow that doesn't exist  \" expectedresult=\"A HTTP response is returned indicating the flow does not exist\"/>\r\n        </teststeps>\r\n    </testcase>\r\n    </testcases>\r\n\t\t]]>\r\n      </gim:testCaseXml>\r\n    </gim:UpdateTestCase>\r\n  </soapenv:Body>\r\n</soapenv:Envelope>\r\n"
                },


		{
			"id": "00000000-0000-0000-0000-000000000009",
			"headers": "Content-Type: text/xml\nSOAPAction: http://gimpy.i3domain.inin.com/TCDBWebService/UpdateTestCase\n",
			"url": "http://gimpy.i3domain.inin.com/TCDBWebService/TCDBWebService.asmx",
			"pathVariables": {},
			"preRequestScript": "",
			"method": "POST",
			"collectionId": "00000000-0000-0000-0000-000000000008",
			"data": [],
			"dataMode": "raw",
			"name": "9",
			"description": "",
			"descriptionFormat": "html",
			"time": 1428692568969,
			"version": 2,
			"responses": [],
			"tests": "postman.setGlobalVariable(\"testCaseId\", \"0\");",
			"currentHelper": "normal",
			"helperAttributes": {},
			"collectionOwner": 0,
			"write": true,
			"synced": false,
			"owner": "39537",
			"collection": "00000000-0000-0000-0000-000000000008",
			"rawModeData": "<soapenv:Envelope xmlns:soapenv=\"http://schemas.xmlsoap.org/soap/envelope/\" xmlns:gim=\"http://gimpy.i3domain.inin.com\">\r\n  <soapenv:Header/>\r\n  <soapenv:Body>\r\n    <gim:UpdateTestCase>\r\n      <!--Optional:-->\r\n      <gim:testCaseXml>       \r\n                <![CDATA[         \r\n    <testcases username=\"{{gimpyUsername}}\">\r\n    <testcase codebase=\"PureCloud\" id=\"36556\" name=\"API - Unlock Locked Flow\" priority=\"P1\" state=\"Active\">\r\n        <description>Public API test to verify the correct behavior upon an attempt of unlocking a locked flow</description>\r\n        <estimatedruntime>0.20</estimatedruntime>\r\n        <assumptions>The user has permission to modify a flow.\r\n A flow exists that is currently locked.</assumptions>\r\n        <limitations> </limitations>\r\n        <notes> </notes>\r\n        <data> </data>\r\n        <type>Public API Endpoint Only</type>\r\n        <howfound>Tester Input</howfound>\r\n        <targetrelease>PureCloud 1.0GA</targetrelease>\r\n        <pscim>\r\n            <product>PureCloud</product>\r\n        </pscim>\r\n        <teststeps>\r\n            <teststep action=\"Call an endpoint to unlock a flow that is locked\" expectedresult=\"A HTTP response is returned indicating the flow has been unlocked successfully\"/>\r\n        </teststeps>\r\n    </testcase>\r\n    </testcases>\r\n\t\t]]>\r\n      </gim:testCaseXml>\r\n    </gim:UpdateTestCase>\r\n  </soapenv:Body>\r\n</soapenv:Envelope>\r\n"
                },


		{
			"id": "00000000-0000-0000-0000-000000000010",
			"headers": "Content-Type: text/xml\nSOAPAction: http://gimpy.i3domain.inin.com/TCDBWebService/UpdateTestCase\n",
			"url": "http://gimpy.i3domain.inin.com/TCDBWebService/TCDBWebService.asmx",
			"pathVariables": {},
			"preRequestScript": "",
			"method": "POST",
			"collectionId": "00000000-0000-0000-0000-000000000008",
			"data": [],
			"dataMode": "raw",
			"name": "10",
			"description": "",
			"descriptionFormat": "html",
			"time": 1428692568969,
			"version": 2,
			"responses": [],
			"tests": "postman.setGlobalVariable(\"testCaseId\", \"0\");",
			"currentHelper": "normal",
			"helperAttributes": {},
			"collectionOwner": 0,
			"write": true,
			"synced": false,
			"owner": "39537",
			"collection": "00000000-0000-0000-0000-000000000008",
			"rawModeData": "<soapenv:Envelope xmlns:soapenv=\"http://schemas.xmlsoap.org/soap/envelope/\" xmlns:gim=\"http://gimpy.i3domain.inin.com\">\r\n  <soapenv:Header/>\r\n  <soapenv:Body>\r\n    <gim:UpdateTestCase>\r\n      <!--Optional:-->\r\n      <gim:testCaseXml>       \r\n                <![CDATA[         \r\n    <testcases username=\"{{gimpyUsername}}\">\r\n    <testcase codebase=\"PureCloud\" id=\"36557\" name=\"API - Lock Unlocked Flow\" priority=\"P1\" state=\"Active\">\r\n        <description>Public API test to verify the correct behavior upon an attempt of locking a flow that has been unlocked</description>\r\n        <estimatedruntime>0.20</estimatedruntime>\r\n        <assumptions>The user has permission to modify a flow.\r\n A flow exists that has been unlocked.</assumptions>\r\n        <limitations> </limitations>\r\n        <notes> </notes>\r\n        <data> </data>\r\n        <type>Public API Endpoint Only</type>\r\n        <howfound>Tester Input</howfound>\r\n        <targetrelease>PureCloud 1.0GA</targetrelease>\r\n        <pscim>\r\n            <product>PureCloud</product>\r\n        </pscim>\r\n        <teststeps>\r\n            <teststep action=\"Call an endpoint to lock a flow that has been unlocked\" expectedresult=\"A HTTP response is returned indicating the flow has been locked successfully\"/>\r\n        </teststeps>\r\n    </testcase>\r\n    </testcases>\r\n\t\t]]>\r\n      </gim:testCaseXml>\r\n    </gim:UpdateTestCase>\r\n  </soapenv:Body>\r\n</soapenv:Envelope>\r\n"
                },


		{
			"id": "00000000-0000-0000-0000-000000000011",
			"headers": "Content-Type: text/xml\nSOAPAction: http://gimpy.i3domain.inin.com/TCDBWebService/UpdateTestCase\n",
			"url": "http://gimpy.i3domain.inin.com/TCDBWebService/TCDBWebService.asmx",
			"pathVariables": {},
			"preRequestScript": "",
			"method": "POST",
			"collectionId": "00000000-0000-0000-0000-000000000008",
			"data": [],
			"dataMode": "raw",
			"name": "11",
			"description": "",
			"descriptionFormat": "html",
			"time": 1428692568969,
			"version": 2,
			"responses": [],
			"tests": "postman.setGlobalVariable(\"testCaseId\", \"0\");",
			"currentHelper": "normal",
			"helperAttributes": {},
			"collectionOwner": 0,
			"write": true,
			"synced": false,
			"owner": "39537",
			"collection": "00000000-0000-0000-0000-000000000008",
			"rawModeData": "<soapenv:Envelope xmlns:soapenv=\"http://schemas.xmlsoap.org/soap/envelope/\" xmlns:gim=\"http://gimpy.i3domain.inin.com\">\r\n  <soapenv:Header/>\r\n  <soapenv:Body>\r\n    <gim:UpdateTestCase>\r\n      <!--Optional:-->\r\n      <gim:testCaseXml>       \r\n                <![CDATA[         \r\n    <testcases username=\"{{gimpyUsername}}\">\r\n    <testcase codebase=\"PureCloud\" id=\"36558\" name=\"API - Lock Nonexistent Flow\" priority=\"P3\" state=\"Active\">\r\n        <description>Public API test to verify the correct error upon an attempt of locking a nonexistent flow</description>\r\n        <estimatedruntime>0.20</estimatedruntime>\r\n        <assumptions>The user has permission to modify a flow.</assumptions>\r\n        <limitations> </limitations>\r\n        <notes> </notes>\r\n        <data> </data>\r\n        <type>Public API Endpoint Only</type>\r\n        <howfound>Tester Input</howfound>\r\n        <targetrelease>PureCloud 1.0GA</targetrelease>\r\n        <pscim>\r\n            <product>PureCloud</product>\r\n        </pscim>\r\n        <teststeps>\r\n            <teststep action=\"Call an endpoint to lock a flow that doesn't exist \" expectedresult=\"A HTTP response is returned indicating the flow does not exist\"/>\r\n        </teststeps>\r\n    </testcase>\r\n    </testcases>\r\n\t\t]]>\r\n      </gim:testCaseXml>\r\n    </gim:UpdateTestCase>\r\n  </soapenv:Body>\r\n</soapenv:Envelope>\r\n"
                },


		{
			"id": "00000000-0000-0000-0000-000000000012",
			"headers": "Content-Type: text/xml\nSOAPAction: http://gimpy.i3domain.inin.com/TCDBWebService/UpdateTestCase\n",
			"url": "http://gimpy.i3domain.inin.com/TCDBWebService/TCDBWebService.asmx",
			"pathVariables": {},
			"preRequestScript": "",
			"method": "POST",
			"collectionId": "00000000-0000-0000-0000-000000000008",
			"data": [],
			"dataMode": "raw",
			"name": "12",
			"description": "",
			"descriptionFormat": "html",
			"time": 1428692568969,
			"version": 2,
			"responses": [],
			"tests": "postman.setGlobalVariable(\"testCaseId\", \"0\");",
			"currentHelper": "normal",
			"helperAttributes": {},
			"collectionOwner": 0,
			"write": true,
			"synced": false,
			"owner": "39537",
			"collection": "00000000-0000-0000-0000-000000000008",
			"rawModeData": "<soapenv:Envelope xmlns:soapenv=\"http://schemas.xmlsoap.org/soap/envelope/\" xmlns:gim=\"http://gimpy.i3domain.inin.com\">\r\n  <soapenv:Header/>\r\n  <soapenv:Body>\r\n    <gim:UpdateTestCase>\r\n      <!--Optional:-->\r\n      <gim:testCaseXml>       \r\n                <![CDATA[         \r\n    <testcases username=\"{{gimpyUsername}}\">\r\n    <testcase codebase=\"PureCloud\" id=\"36560\" name=\"API - Lock New Flow\" priority=\"P1\" state=\"Active\">\r\n        <description>Public API test to verify the correct behavior upon an attempt of locking a new flow</description>\r\n        <estimatedruntime>0.20</estimatedruntime>\r\n        <assumptions>The user has permission to modify a flow.\r\n A flow exists that has not yet been modified.</assumptions>\r\n        <limitations> </limitations>\r\n        <notes> </notes>\r\n        <data> </data>\r\n        <type>Public API Endpoint Only</type>\r\n        <howfound>Tester Input</howfound>\r\n        <targetrelease>PureCloud 1.0GA</targetrelease>\r\n        <pscim>\r\n            <product>PureCloud</product>\r\n        </pscim>\r\n        <teststeps>\r\n            <teststep action=\"Call an endpoint to lock a new flow\" expectedresult=\"A HTTP response is returned indicating the flow has been locked successfully\"/>\r\n        </teststeps>\r\n    </testcase>\r\n    </testcases>\r\n\t\t]]>\r\n      </gim:testCaseXml>\r\n    </gim:UpdateTestCase>\r\n  </soapenv:Body>\r\n</soapenv:Envelope>\r\n"
                },


		{
			"id": "00000000-0000-0000-0000-000000000013",
			"headers": "Content-Type: text/xml\nSOAPAction: http://gimpy.i3domain.inin.com/TCDBWebService/UpdateTestCase\n",
			"url": "http://gimpy.i3domain.inin.com/TCDBWebService/TCDBWebService.asmx",
			"pathVariables": {},
			"preRequestScript": "",
			"method": "POST",
			"collectionId": "00000000-0000-0000-0000-000000000008",
			"data": [],
			"dataMode": "raw",
			"name": "13",
			"description": "",
			"descriptionFormat": "html",
			"time": 1428692568969,
			"version": 2,
			"responses": [],
			"tests": "postman.setGlobalVariable(\"testCaseId\", \"0\");",
			"currentHelper": "normal",
			"helperAttributes": {},
			"collectionOwner": 0,
			"write": true,
			"synced": false,
			"owner": "39537",
			"collection": "00000000-0000-0000-0000-000000000008",
			"rawModeData": "<soapenv:Envelope xmlns:soapenv=\"http://schemas.xmlsoap.org/soap/envelope/\" xmlns:gim=\"http://gimpy.i3domain.inin.com\">\r\n  <soapenv:Header/>\r\n  <soapenv:Body>\r\n    <gim:UpdateTestCase>\r\n      <!--Optional:-->\r\n      <gim:testCaseXml>       \r\n                <![CDATA[         \r\n    <testcases username=\"{{gimpyUsername}}\">\r\n    <testcase codebase=\"PureCloud\" id=\"36561\" name=\"API - Publish Nonexistent Flow\" priority=\"P3\" state=\"Active\">\r\n        <description>Public API test to verify the correct error upon an attempt of publishing a nonexistent flow</description>\r\n        <estimatedruntime>0.20</estimatedruntime>\r\n        <assumptions>The user has permission to modify a flow.</assumptions>\r\n        <limitations> </limitations>\r\n        <notes> </notes>\r\n        <data> </data>\r\n        <type>Public API Endpoint Only</type>\r\n        <howfound>Tester Input</howfound>\r\n        <targetrelease>PureCloud 1.0GA</targetrelease>\r\n        <pscim>\r\n            <product>PureCloud</product>\r\n        </pscim>\r\n        <teststeps>\r\n            <teststep action=\"Call an endpoint to publish a flow that doesn't exist \" expectedresult=\"A HTTP response is returned indicating the flow does not exist\"/>\r\n        </teststeps>\r\n    </testcase>\r\n    </testcases>\r\n\t\t]]>\r\n      </gim:testCaseXml>\r\n    </gim:UpdateTestCase>\r\n  </soapenv:Body>\r\n</soapenv:Envelope>\r\n"
                },


		{
			"id": "00000000-0000-0000-0000-000000000014",
			"headers": "Content-Type: text/xml\nSOAPAction: http://gimpy.i3domain.inin.com/TCDBWebService/UpdateTestCase\n",
			"url": "http://gimpy.i3domain.inin.com/TCDBWebService/TCDBWebService.asmx",
			"pathVariables": {},
			"preRequestScript": "",
			"method": "POST",
			"collectionId": "00000000-0000-0000-0000-000000000008",
			"data": [],
			"dataMode": "raw",
			"name": "14",
			"description": "",
			"descriptionFormat": "html",
			"time": 1428692568969,
			"version": 2,
			"responses": [],
			"tests": "postman.setGlobalVariable(\"testCaseId\", \"0\");",
			"currentHelper": "normal",
			"helperAttributes": {},
			"collectionOwner": 0,
			"write": true,
			"synced": false,
			"owner": "39537",
			"collection": "00000000-0000-0000-0000-000000000008",
			"rawModeData": "<soapenv:Envelope xmlns:soapenv=\"http://schemas.xmlsoap.org/soap/envelope/\" xmlns:gim=\"http://gimpy.i3domain.inin.com\">\r\n  <soapenv:Header/>\r\n  <soapenv:Body>\r\n    <gim:UpdateTestCase>\r\n      <!--Optional:-->\r\n      <gim:testCaseXml>       \r\n                <![CDATA[         \r\n    <testcases username=\"{{gimpyUsername}}\">\r\n    <testcase codebase=\"PureCloud\" id=\"36562\" name=\"API - Publish Locked Flow\" priority=\"P2\" state=\"Active\">\r\n        <description>Public API test to verify the correct behavior upon an attempt of publishing a locked flow</description>\r\n        <estimatedruntime>0.20</estimatedruntime>\r\n        <assumptions>The user has permission to modify a flow.\r\n A flow exists that is currently locked.</assumptions>\r\n        <limitations> </limitations>\r\n        <notes> </notes>\r\n        <data> </data>\r\n        <type>Public API Endpoint Only</type>\r\n        <howfound>Tester Input</howfound>\r\n        <targetrelease>PureCloud 1.0GA</targetrelease>\r\n        <pscim>\r\n            <product>PureCloud</product>\r\n        </pscim>\r\n        <teststeps>\r\n            <teststep action=\"Call an endpoint to publish a flow that is locked \" expectedresult=\"A HTTP response is returned indicating the flow has been published successfully\"/>\r\n        </teststeps>\r\n    </testcase>\r\n    </testcases>\r\n\t\t]]>\r\n      </gim:testCaseXml>\r\n    </gim:UpdateTestCase>\r\n  </soapenv:Body>\r\n</soapenv:Envelope>\r\n"
                },


		{
			"id": "00000000-0000-0000-0000-000000000015",
			"headers": "Content-Type: text/xml\nSOAPAction: http://gimpy.i3domain.inin.com/TCDBWebService/UpdateTestCase\n",
			"url": "http://gimpy.i3domain.inin.com/TCDBWebService/TCDBWebService.asmx",
			"pathVariables": {},
			"preRequestScript": "",
			"method": "POST",
			"collectionId": "00000000-0000-0000-0000-000000000008",
			"data": [],
			"dataMode": "raw",
			"name": "15",
			"description": "",
			"descriptionFormat": "html",
			"time": 1428692568969,
			"version": 2,
			"responses": [],
			"tests": "postman.setGlobalVariable(\"testCaseId\", \"0\");",
			"currentHelper": "normal",
			"helperAttributes": {},
			"collectionOwner": 0,
			"write": true,
			"synced": false,
			"owner": "39537",
			"collection": "00000000-0000-0000-0000-000000000008",
			"rawModeData": "<soapenv:Envelope xmlns:soapenv=\"http://schemas.xmlsoap.org/soap/envelope/\" xmlns:gim=\"http://gimpy.i3domain.inin.com\">\r\n  <soapenv:Header/>\r\n  <soapenv:Body>\r\n    <gim:UpdateTestCase>\r\n      <!--Optional:-->\r\n      <gim:testCaseXml>       \r\n                <![CDATA[         \r\n    <testcases username=\"{{gimpyUsername}}\">\r\n    <testcase codebase=\"PureCloud\" id=\"36563\" name=\"API - Publish Versioned Flow\" priority=\"P1\" state=\"Active\">\r\n        <description>Public API test to verify the correct behavior upon an attempt of publishing a version of a flow</description>\r\n        <estimatedruntime>0.20</estimatedruntime>\r\n        <assumptions>The user has permission to modify a flow.\r\n A flow exists that a version has been created from.</assumptions>\r\n        <limitations> </limitations>\r\n        <notes> </notes>\r\n        <data> </data>\r\n        <type>Public API Endpoint Only</type>\r\n        <howfound>Tester Input</howfound>\r\n        <targetrelease>PureCloud 1.0GA</targetrelease>\r\n        <pscim>\r\n            <product>PureCloud</product>\r\n        </pscim>\r\n        <teststeps>\r\n            <teststep action=\"Call an endpoint to publish a flow that a version has been created from.\" expectedresult=\"A HTTP response is returned indicating the flow has been published successfully\"/>\r\n        </teststeps>\r\n    </testcase>\r\n    </testcases>\r\n\t\t]]>\r\n      </gim:testCaseXml>\r\n    </gim:UpdateTestCase>\r\n  </soapenv:Body>\r\n</soapenv:Envelope>\r\n"
                },


		{
			"id": "00000000-0000-0000-0000-000000000016",
			"headers": "Content-Type: text/xml\nSOAPAction: http://gimpy.i3domain.inin.com/TCDBWebService/UpdateTestCase\n",
			"url": "http://gimpy.i3domain.inin.com/TCDBWebService/TCDBWebService.asmx",
			"pathVariables": {},
			"preRequestScript": "",
			"method": "POST",
			"collectionId": "00000000-0000-0000-0000-000000000008",
			"data": [],
			"dataMode": "raw",
			"name": "16",
			"description": "",
			"descriptionFormat": "html",
			"time": 1428692568969,
			"version": 2,
			"responses": [],
			"tests": "postman.setGlobalVariable(\"testCaseId\", \"0\");",
			"currentHelper": "normal",
			"helperAttributes": {},
			"collectionOwner": 0,
			"write": true,
			"synced": false,
			"owner": "39537",
			"collection": "00000000-0000-0000-0000-000000000008",
			"rawModeData": "<soapenv:Envelope xmlns:soapenv=\"http://schemas.xmlsoap.org/soap/envelope/\" xmlns:gim=\"http://gimpy.i3domain.inin.com\">\r\n  <soapenv:Header/>\r\n  <soapenv:Body>\r\n    <gim:UpdateTestCase>\r\n      <!--Optional:-->\r\n      <gim:testCaseXml>       \r\n                <![CDATA[         \r\n    <testcases username=\"{{gimpyUsername}}\">\r\n    <testcase codebase=\"PureCloud\" id=\"36564\" name=\"API - Delete Versioned Deactivated Flow\" priority=\"P2\" state=\"Active\">\r\n        <description>Public API test to verify the correct behavior upon an attempt of deleting a base flow with a version that is deactivated.</description>\r\n        <estimatedruntime>0.20</estimatedruntime>\r\n        <assumptions>The user has permission to modify a flow.\r\n A flow exists that a version has been created from and is currently deactivated.</assumptions>\r\n        <limitations> </limitations>\r\n        <notes> </notes>\r\n        <data> </data>\r\n        <type>Public API Endpoint Only</type>\r\n        <howfound>Tester Input</howfound>\r\n        <targetrelease>PureCloud 1.0GA</targetrelease>\r\n        <pscim>\r\n            <product>PureCloud</product>\r\n        </pscim>\r\n        <teststeps>\r\n            <teststep action=\"Call an endpoint to delete a flow that a version has been created from and is currently deactivated\" expectedresult=\"A HTTP response is returned indicating the flow has been deleted successfully\"/>\r\n        </teststeps>\r\n    </testcase>\r\n    </testcases>\r\n\t\t]]>\r\n      </gim:testCaseXml>\r\n    </gim:UpdateTestCase>\r\n  </soapenv:Body>\r\n</soapenv:Envelope>\r\n"
                },


		{
			"id": "00000000-0000-0000-0000-000000000017",
			"headers": "Content-Type: text/xml\nSOAPAction: http://gimpy.i3domain.inin.com/TCDBWebService/UpdateTestCase\n",
			"url": "http://gimpy.i3domain.inin.com/TCDBWebService/TCDBWebService.asmx",
			"pathVariables": {},
			"preRequestScript": "",
			"method": "POST",
			"collectionId": "00000000-0000-0000-0000-000000000008",
			"data": [],
			"dataMode": "raw",
			"name": "17",
			"description": "",
			"descriptionFormat": "html",
			"time": 1428692568969,
			"version": 2,
			"responses": [],
			"tests": "postman.setGlobalVariable(\"testCaseId\", \"0\");",
			"currentHelper": "normal",
			"helperAttributes": {},
			"collectionOwner": 0,
			"write": true,
			"synced": false,
			"owner": "39537",
			"collection": "00000000-0000-0000-0000-000000000008",
			"rawModeData": "<soapenv:Envelope xmlns:soapenv=\"http://schemas.xmlsoap.org/soap/envelope/\" xmlns:gim=\"http://gimpy.i3domain.inin.com\">\r\n  <soapenv:Header/>\r\n  <soapenv:Body>\r\n    <gim:UpdateTestCase>\r\n      <!--Optional:-->\r\n      <gim:testCaseXml>       \r\n                <![CDATA[         \r\n    <testcases username=\"{{gimpyUsername}}\">\r\n    <testcase codebase=\"PureCloud\" id=\"36565\" name=\"API - Delete Unlocked Activated Flow\" priority=\"P2\" state=\"Active\">\r\n        <description>Public API test to verify the correct error upon an attempt of deleting an unlocked flow that is activated.</description>\r\n        <estimatedruntime>0.20</estimatedruntime>\r\n        <assumptions>The user has permission to modify a flow.\r\n A flow exists that is currently unlocked and activated.</assumptions>\r\n        <limitations> </limitations>\r\n        <notes> </notes>\r\n        <data> </data>\r\n        <type>Public API Endpoint Only</type>\r\n        <howfound>Tester Input</howfound>\r\n        <targetrelease>PureCloud 1.0GA</targetrelease>\r\n        <pscim>\r\n            <product>PureCloud</product>\r\n        </pscim>\r\n        <teststeps>\r\n            <teststep action=\"Call an endpoint to delete a flow that is currently unlocked and activated \" expectedresult=\"A HTTP response is returned indicating the flow has been deleted successfully\"/>\r\n        </teststeps>\r\n    </testcase>\r\n    </testcases>\r\n\t\t]]>\r\n      </gim:testCaseXml>\r\n    </gim:UpdateTestCase>\r\n  </soapenv:Body>\r\n</soapenv:Envelope>\r\n"
                },


		{
			"id": "00000000-0000-0000-0000-000000000018",
			"headers": "Content-Type: text/xml\nSOAPAction: http://gimpy.i3domain.inin.com/TCDBWebService/UpdateTestCase\n",
			"url": "http://gimpy.i3domain.inin.com/TCDBWebService/TCDBWebService.asmx",
			"pathVariables": {},
			"preRequestScript": "",
			"method": "POST",
			"collectionId": "00000000-0000-0000-0000-000000000008",
			"data": [],
			"dataMode": "raw",
			"name": "18",
			"description": "",
			"descriptionFormat": "html",
			"time": 1428692568969,
			"version": 2,
			"responses": [],
			"tests": "postman.setGlobalVariable(\"testCaseId\", \"0\");",
			"currentHelper": "normal",
			"helperAttributes": {},
			"collectionOwner": 0,
			"write": true,
			"synced": false,
			"owner": "39537",
			"collection": "00000000-0000-0000-0000-000000000008",
			"rawModeData": "<soapenv:Envelope xmlns:soapenv=\"http://schemas.xmlsoap.org/soap/envelope/\" xmlns:gim=\"http://gimpy.i3domain.inin.com\">\r\n  <soapenv:Header/>\r\n  <soapenv:Body>\r\n    <gim:UpdateTestCase>\r\n      <!--Optional:-->\r\n      <gim:testCaseXml>       \r\n                <![CDATA[         \r\n    <testcases username=\"{{gimpyUsername}}\">\r\n    <testcase codebase=\"PureCloud\" id=\"36566\" name=\"API - Delete Locked Activated Flow\" priority=\"P2\" state=\"Active\">\r\n        <description>Public API test to verify the correct error upon an attempt of deleting a locked flow that is activated.</description>\r\n        <estimatedruntime>0.20</estimatedruntime>\r\n        <assumptions>The user has permission to modify a flow.\r\n A flow exists that is currently locked and activated.</assumptions>\r\n        <limitations> </limitations>\r\n        <notes> </notes>\r\n        <data> </data>\r\n        <type>Public API Endpoint Only</type>\r\n        <howfound>Tester Input</howfound>\r\n        <targetrelease>PureCloud 1.0GA</targetrelease>\r\n        <pscim>\r\n            <product>PureCloud</product>\r\n        </pscim>\r\n        <teststeps>\r\n            <teststep action=\"Call an endpoint to delete a flow that is currently locked and activated \" expectedresult=\"A HTTP response is returned indicating the flow has been deleted successfully\"/>\r\n        </teststeps>\r\n    </testcase>\r\n    </testcases>\r\n\t\t]]>\r\n      </gim:testCaseXml>\r\n    </gim:UpdateTestCase>\r\n  </soapenv:Body>\r\n</soapenv:Envelope>\r\n"
                },


		{
			"id": "00000000-0000-0000-0000-000000000019",
			"headers": "Content-Type: text/xml\nSOAPAction: http://gimpy.i3domain.inin.com/TCDBWebService/UpdateTestCase\n",
			"url": "http://gimpy.i3domain.inin.com/TCDBWebService/TCDBWebService.asmx",
			"pathVariables": {},
			"preRequestScript": "",
			"method": "POST",
			"collectionId": "00000000-0000-0000-0000-000000000008",
			"data": [],
			"dataMode": "raw",
			"name": "19",
			"description": "",
			"descriptionFormat": "html",
			"time": 1428692568969,
			"version": 2,
			"responses": [],
			"tests": "postman.setGlobalVariable(\"testCaseId\", \"0\");",
			"currentHelper": "normal",
			"helperAttributes": {},
			"collectionOwner": 0,
			"write": true,
			"synced": false,
			"owner": "39537",
			"collection": "00000000-0000-0000-0000-000000000008",
			"rawModeData": "<soapenv:Envelope xmlns:soapenv=\"http://schemas.xmlsoap.org/soap/envelope/\" xmlns:gim=\"http://gimpy.i3domain.inin.com\">\r\n  <soapenv:Header/>\r\n  <soapenv:Body>\r\n    <gim:UpdateTestCase>\r\n      <!--Optional:-->\r\n      <gim:testCaseXml>       \r\n                <![CDATA[         \r\n    <testcases username=\"{{gimpyUsername}}\">\r\n    <testcase codebase=\"PureCloud\" id=\"36567\" name=\"API - Delete New Flow\" priority=\"P1\" state=\"Active\">\r\n        <description>Public API test to verify the correct behavior upon an attempt of deleting a new flow</description>\r\n        <estimatedruntime>0.20</estimatedruntime>\r\n        <assumptions>The user has permission to modify a flow.\r\n A flow exists that has not yet been modified.</assumptions>\r\n        <limitations> </limitations>\r\n        <notes> </notes>\r\n        <data> </data>\r\n        <type>Public API Endpoint Only</type>\r\n        <howfound>Tester Input</howfound>\r\n        <targetrelease>PureCloud 1.0GA</targetrelease>\r\n        <pscim>\r\n            <product>PureCloud</product>\r\n        </pscim>\r\n        <teststeps>\r\n            <teststep action=\"Call an endpoint to delete a flow that has not yet been modified\" expectedresult=\"A HTTP response is returned indicating the flow has been deleted successfully\"/>\r\n        </teststeps>\r\n    </testcase>\r\n    </testcases>\r\n\t\t]]>\r\n      </gim:testCaseXml>\r\n    </gim:UpdateTestCase>\r\n  </soapenv:Body>\r\n</soapenv:Envelope>\r\n"
                },


		{
			"id": "00000000-0000-0000-0000-000000000020",
			"headers": "Content-Type: text/xml\nSOAPAction: http://gimpy.i3domain.inin.com/TCDBWebService/UpdateTestCase\n",
			"url": "http://gimpy.i3domain.inin.com/TCDBWebService/TCDBWebService.asmx",
			"pathVariables": {},
			"preRequestScript": "",
			"method": "POST",
			"collectionId": "00000000-0000-0000-0000-000000000008",
			"data": [],
			"dataMode": "raw",
			"name": "20",
			"description": "",
			"descriptionFormat": "html",
			"time": 1428692568969,
			"version": 2,
			"responses": [],
			"tests": "postman.setGlobalVariable(\"testCaseId\", \"0\");",
			"currentHelper": "normal",
			"helperAttributes": {},
			"collectionOwner": 0,
			"write": true,
			"synced": false,
			"owner": "39537",
			"collection": "00000000-0000-0000-0000-000000000008",
			"rawModeData": "<soapenv:Envelope xmlns:soapenv=\"http://schemas.xmlsoap.org/soap/envelope/\" xmlns:gim=\"http://gimpy.i3domain.inin.com\">\r\n  <soapenv:Header/>\r\n  <soapenv:Body>\r\n    <gim:UpdateTestCase>\r\n      <!--Optional:-->\r\n      <gim:testCaseXml>       \r\n                <![CDATA[         \r\n    <testcases username=\"{{gimpyUsername}}\">\r\n    <testcase codebase=\"PureCloud\" id=\"36568\" name=\"API - Delete Nonexistent Flow\" priority=\"P3\" state=\"Active\">\r\n        <description>Public API test to verify the correct error upon an attempt of deleting a nonexistent flow</description>\r\n        <estimatedruntime>0.20</estimatedruntime>\r\n        <assumptions>The user has permission to modify a flow.</assumptions>\r\n        <limitations> </limitations>\r\n        <notes> </notes>\r\n        <data> </data>\r\n        <type>Public API Endpoint Only</type>\r\n        <howfound>Tester Input</howfound>\r\n        <targetrelease>PureCloud 1.0GA</targetrelease>\r\n        <pscim>\r\n            <product>PureCloud</product>\r\n        </pscim>\r\n        <teststeps>\r\n            <teststep action=\"Call an endpoint to delete a flow that doesn't exist \" expectedresult=\"A HTTP response is returned indicating the flow does not exist\"/>\r\n        </teststeps>\r\n    </testcase>\r\n    </testcases>\r\n\t\t]]>\r\n      </gim:testCaseXml>\r\n    </gim:UpdateTestCase>\r\n  </soapenv:Body>\r\n</soapenv:Envelope>\r\n"
                },


		{
			"id": "00000000-0000-0000-0000-000000000021",
			"headers": "Content-Type: text/xml\nSOAPAction: http://gimpy.i3domain.inin.com/TCDBWebService/UpdateTestCase\n",
			"url": "http://gimpy.i3domain.inin.com/TCDBWebService/TCDBWebService.asmx",
			"pathVariables": {},
			"preRequestScript": "",
			"method": "POST",
			"collectionId": "00000000-0000-0000-0000-000000000008",
			"data": [],
			"dataMode": "raw",
			"name": "21",
			"description": "",
			"descriptionFormat": "html",
			"time": 1428692568969,
			"version": 2,
			"responses": [],
			"tests": "postman.setGlobalVariable(\"testCaseId\", \"0\");",
			"currentHelper": "normal",
			"helperAttributes": {},
			"collectionOwner": 0,
			"write": true,
			"synced": false,
			"owner": "39537",
			"collection": "00000000-0000-0000-0000-000000000008",
			"rawModeData": "<soapenv:Envelope xmlns:soapenv=\"http://schemas.xmlsoap.org/soap/envelope/\" xmlns:gim=\"http://gimpy.i3domain.inin.com\">\r\n  <soapenv:Header/>\r\n  <soapenv:Body>\r\n    <gim:UpdateTestCase>\r\n      <!--Optional:-->\r\n      <gim:testCaseXml>       \r\n                <![CDATA[         \r\n    <testcases username=\"{{gimpyUsername}}\">\r\n    <testcase codebase=\"PureCloud\" id=\"36569\" name=\"API - Create a versioned flow from a Nonexistent Flow\" priority=\"P3\" state=\"Active\">\r\n        <description>Public API test to verify the correct error upon an attempt of creating a versioned flow from a nonexistent flow</description>\r\n        <estimatedruntime>0.20</estimatedruntime>\r\n        <assumptions>The user has permission to modify a flow.</assumptions>\r\n        <limitations> </limitations>\r\n        <notes> </notes>\r\n        <data> </data>\r\n        <type>Public API Endpoint Only</type>\r\n        <howfound>Tester Input</howfound>\r\n        <targetrelease>PureCloud 1.0GA</targetrelease>\r\n        <pscim>\r\n            <product>PureCloud</product>\r\n        </pscim>\r\n        <teststeps>\r\n            <teststep action=\"Call an endpoint to create a versioned flow from a flow that doesn't exist \" expectedresult=\"A HTTP response is returned indicating the flow does not exist\"/>\r\n        </teststeps>\r\n    </testcase>\r\n    </testcases>\r\n\t\t]]>\r\n      </gim:testCaseXml>\r\n    </gim:UpdateTestCase>\r\n  </soapenv:Body>\r\n</soapenv:Envelope>\r\n"
                },


		{
			"id": "00000000-0000-0000-0000-000000000022",
			"headers": "Content-Type: text/xml\nSOAPAction: http://gimpy.i3domain.inin.com/TCDBWebService/UpdateTestCase\n",
			"url": "http://gimpy.i3domain.inin.com/TCDBWebService/TCDBWebService.asmx",
			"pathVariables": {},
			"preRequestScript": "",
			"method": "POST",
			"collectionId": "00000000-0000-0000-0000-000000000008",
			"data": [],
			"dataMode": "raw",
			"name": "22",
			"description": "",
			"descriptionFormat": "html",
			"time": 1428692568969,
			"version": 2,
			"responses": [],
			"tests": "postman.setGlobalVariable(\"testCaseId\", \"0\");",
			"currentHelper": "normal",
			"helperAttributes": {},
			"collectionOwner": 0,
			"write": true,
			"synced": false,
			"owner": "39537",
			"collection": "00000000-0000-0000-0000-000000000008",
			"rawModeData": "<soapenv:Envelope xmlns:soapenv=\"http://schemas.xmlsoap.org/soap/envelope/\" xmlns:gim=\"http://gimpy.i3domain.inin.com\">\r\n  <soapenv:Header/>\r\n  <soapenv:Body>\r\n    <gim:UpdateTestCase>\r\n      <!--Optional:-->\r\n      <gim:testCaseXml>       \r\n                <![CDATA[         \r\n    <testcases username=\"{{gimpyUsername}}\">\r\n    <testcase codebase=\"PureCloud\" id=\"36570\" name=\"API - Create a versioned flow from a New Flow\" priority=\"P1\" state=\"Active\">\r\n        <description>Public API test to verify the correct behavior upon an attempt of creating a versioned flow from a new flow</description>\r\n        <estimatedruntime>0.20</estimatedruntime>\r\n        <assumptions>The user has permission to create a flow.\r\n The user has permission to modify a flow.\r\n The flow has not yet been locked.</assumptions>\r\n        <limitations> </limitations>\r\n        <notes> </notes>\r\n        <data> </data>\r\n        <type>Public API Endpoint Only</type>\r\n        <howfound>Tester Input</howfound>\r\n        <targetrelease>PureCloud 1.0GA</targetrelease>\r\n        <pscim>\r\n            <product>PureCloud</product>\r\n        </pscim>\r\n        <teststeps>\r\n            <teststep action=\"Call an endpoint to to create a versioned flow from a new flow\" expectedresult=\"A HTTP response is returned indicating the flow is not locked\"/>\r\n        </teststeps>\r\n    </testcase>\r\n    </testcases>\r\n\t\t]]>\r\n      </gim:testCaseXml>\r\n    </gim:UpdateTestCase>\r\n  </soapenv:Body>\r\n</soapenv:Envelope>\r\n"
                },


		{
			"id": "00000000-0000-0000-0000-000000000023",
			"headers": "Content-Type: text/xml\nSOAPAction: http://gimpy.i3domain.inin.com/TCDBWebService/UpdateTestCase\n",
			"url": "http://gimpy.i3domain.inin.com/TCDBWebService/TCDBWebService.asmx",
			"pathVariables": {},
			"preRequestScript": "",
			"method": "POST",
			"collectionId": "00000000-0000-0000-0000-000000000008",
			"data": [],
			"dataMode": "raw",
			"name": "23",
			"description": "",
			"descriptionFormat": "html",
			"time": 1428692568969,
			"version": 2,
			"responses": [],
			"tests": "postman.setGlobalVariable(\"testCaseId\", \"0\");",
			"currentHelper": "normal",
			"helperAttributes": {},
			"collectionOwner": 0,
			"write": true,
			"synced": false,
			"owner": "39537",
			"collection": "00000000-0000-0000-0000-000000000008",
			"rawModeData": "<soapenv:Envelope xmlns:soapenv=\"http://schemas.xmlsoap.org/soap/envelope/\" xmlns:gim=\"http://gimpy.i3domain.inin.com\">\r\n  <soapenv:Header/>\r\n  <soapenv:Body>\r\n    <gim:UpdateTestCase>\r\n      <!--Optional:-->\r\n      <gim:testCaseXml>       \r\n                <![CDATA[         \r\n    <testcases username=\"{{gimpyUsername}}\">\r\n    <testcase codebase=\"PureCloud\" id=\"36571\" name=\"API - Create a versioned flow from a Locked Flow\" priority=\"P1\" state=\"Active\">\r\n        <description>Public API test to verify the correct behavior upon an attempt of creating a versioned flow from a locked flow</description>\r\n        <estimatedruntime>0.20</estimatedruntime>\r\n        <assumptions>The user has permission to modify a flow.\r\n A flow exists that is currently unlocked</assumptions>\r\n        <limitations> </limitations>\r\n        <notes> </notes>\r\n        <data> </data>\r\n        <type>Public API Endpoint Only</type>\r\n        <howfound>Tester Input</howfound>\r\n        <targetrelease>PureCloud 1.0GA</targetrelease>\r\n        <pscim>\r\n            <product>PureCloud</product>\r\n        </pscim>\r\n        <teststeps>\r\n            <teststep action=\"Call an endpoint to to create a versioned flow from a flow that is locked\" expectedresult=\"A HTTP response is returned indicating the flow has been saved successfully\"/>\r\n        </teststeps>\r\n    </testcase>\r\n    </testcases>\r\n\t\t]]>\r\n      </gim:testCaseXml>\r\n    </gim:UpdateTestCase>\r\n  </soapenv:Body>\r\n</soapenv:Envelope>\r\n"
                },


		{
			"id": "00000000-0000-0000-0000-000000000024",
			"headers": "Content-Type: text/xml\nSOAPAction: http://gimpy.i3domain.inin.com/TCDBWebService/UpdateTestCase\n",
			"url": "http://gimpy.i3domain.inin.com/TCDBWebService/TCDBWebService.asmx",
			"pathVariables": {},
			"preRequestScript": "",
			"method": "POST",
			"collectionId": "00000000-0000-0000-0000-000000000008",
			"data": [],
			"dataMode": "raw",
			"name": "24",
			"description": "",
			"descriptionFormat": "html",
			"time": 1428692568969,
			"version": 2,
			"responses": [],
			"tests": "postman.setGlobalVariable(\"testCaseId\", \"0\");",
			"currentHelper": "normal",
			"helperAttributes": {},
			"collectionOwner": 0,
			"write": true,
			"synced": false,
			"owner": "39537",
			"collection": "00000000-0000-0000-0000-000000000008",
			"rawModeData": "<soapenv:Envelope xmlns:soapenv=\"http://schemas.xmlsoap.org/soap/envelope/\" xmlns:gim=\"http://gimpy.i3domain.inin.com\">\r\n  <soapenv:Header/>\r\n  <soapenv:Body>\r\n    <gim:UpdateTestCase>\r\n      <!--Optional:-->\r\n      <gim:testCaseXml>       \r\n                <![CDATA[         \r\n    <testcases username=\"{{gimpyUsername}}\">\r\n    <testcase codebase=\"PureCloud\" id=\"36572\" name=\"API - Get All Versions of Nonexistent Flow\" priority=\"P3\" state=\"Active\">\r\n        <description>Public API test to verify the correct error upon an attempt of retrieving all versions of a nonexistent flow</description>\r\n        <estimatedruntime>0.20</estimatedruntime>\r\n        <assumptions>The user has permission to view a flow.</assumptions>\r\n        <limitations> </limitations>\r\n        <notes> </notes>\r\n        <data> </data>\r\n        <type>Public API Endpoint Only</type>\r\n        <howfound>Tester Input</howfound>\r\n        <targetrelease>PureCloud 1.0GA</targetrelease>\r\n        <pscim>\r\n            <product>PureCloud</product>\r\n        </pscim>\r\n        <teststeps>\r\n            <teststep action=\"Call an endpoint to get all versions of a flow that doesn't exist \" expectedresult=\"A HTTP response is returned indicating the flow does not exist\"/>\r\n        </teststeps>\r\n    </testcase>\r\n    </testcases>\r\n\t\t]]>\r\n      </gim:testCaseXml>\r\n    </gim:UpdateTestCase>\r\n  </soapenv:Body>\r\n</soapenv:Envelope>\r\n"
                },


		{
			"id": "00000000-0000-0000-0000-000000000025",
			"headers": "Content-Type: text/xml\nSOAPAction: http://gimpy.i3domain.inin.com/TCDBWebService/UpdateTestCase\n",
			"url": "http://gimpy.i3domain.inin.com/TCDBWebService/TCDBWebService.asmx",
			"pathVariables": {},
			"preRequestScript": "",
			"method": "POST",
			"collectionId": "00000000-0000-0000-0000-000000000008",
			"data": [],
			"dataMode": "raw",
			"name": "25",
			"description": "",
			"descriptionFormat": "html",
			"time": 1428692568969,
			"version": 2,
			"responses": [],
			"tests": "postman.setGlobalVariable(\"testCaseId\", \"0\");",
			"currentHelper": "normal",
			"helperAttributes": {},
			"collectionOwner": 0,
			"write": true,
			"synced": false,
			"owner": "39537",
			"collection": "00000000-0000-0000-0000-000000000008",
			"rawModeData": "<soapenv:Envelope xmlns:soapenv=\"http://schemas.xmlsoap.org/soap/envelope/\" xmlns:gim=\"http://gimpy.i3domain.inin.com\">\r\n  <soapenv:Header/>\r\n  <soapenv:Body>\r\n    <gim:UpdateTestCase>\r\n      <!--Optional:-->\r\n      <gim:testCaseXml>       \r\n                <![CDATA[         \r\n    <testcases username=\"{{gimpyUsername}}\">\r\n    <testcase codebase=\"PureCloud\" id=\"36573\" name=\"API - Get All Versions of Activated Flow\" priority=\"P3\" state=\"Active\">\r\n        <description>Public API test to verify the correct behavior upon an attempt of retrieving an activated flow</description>\r\n        <estimatedruntime>0.20</estimatedruntime>\r\n        <assumptions>The user has permission to view a flow.\r\n A flow exists that is currently activated</assumptions>\r\n        <limitations> </limitations>\r\n        <notes> </notes>\r\n        <data> </data>\r\n        <type>Public API Endpoint Only</type>\r\n        <howfound>Tester Input</howfound>\r\n        <targetrelease>PureCloud 1.0GA</targetrelease>\r\n        <pscim>\r\n            <product>PureCloud</product>\r\n        </pscim>\r\n        <teststeps>\r\n            <teststep action=\"Call an endpoint to get all versions of a flow that is activated\" expectedresult=\"A HTTP response is returned that includes all versions of the requested flow\"/>\r\n        </teststeps>\r\n    </testcase>\r\n    </testcases>\r\n\t\t]]>\r\n      </gim:testCaseXml>\r\n    </gim:UpdateTestCase>\r\n  </soapenv:Body>\r\n</soapenv:Envelope>\r\n"
                },


		{
			"id": "00000000-0000-0000-0000-000000000026",
			"headers": "Content-Type: text/xml\nSOAPAction: http://gimpy.i3domain.inin.com/TCDBWebService/UpdateTestCase\n",
			"url": "http://gimpy.i3domain.inin.com/TCDBWebService/TCDBWebService.asmx",
			"pathVariables": {},
			"preRequestScript": "",
			"method": "POST",
			"collectionId": "00000000-0000-0000-0000-000000000008",
			"data": [],
			"dataMode": "raw",
			"name": "26",
			"description": "",
			"descriptionFormat": "html",
			"time": 1428692568969,
			"version": 2,
			"responses": [],
			"tests": "postman.setGlobalVariable(\"testCaseId\", \"0\");",
			"currentHelper": "normal",
			"helperAttributes": {},
			"collectionOwner": 0,
			"write": true,
			"synced": false,
			"owner": "39537",
			"collection": "00000000-0000-0000-0000-000000000008",
			"rawModeData": "<soapenv:Envelope xmlns:soapenv=\"http://schemas.xmlsoap.org/soap/envelope/\" xmlns:gim=\"http://gimpy.i3domain.inin.com\">\r\n  <soapenv:Header/>\r\n  <soapenv:Body>\r\n    <gim:UpdateTestCase>\r\n      <!--Optional:-->\r\n      <gim:testCaseXml>       \r\n                <![CDATA[         \r\n    <testcases username=\"{{gimpyUsername}}\">\r\n    <testcase codebase=\"PureCloud\" id=\"36574\" name=\"API - Get Version of Nonexistent Flow\" priority=\"P3\" state=\"Active\">\r\n        <description>Public API test to verify the correct error upon an attempt of retrieving a version of a nonexistent flow</description>\r\n        <estimatedruntime>0.20</estimatedruntime>\r\n        <assumptions>The user has permission to view a flow.</assumptions>\r\n        <limitations> </limitations>\r\n        <notes> </notes>\r\n        <data> </data>\r\n        <type>Public API Endpoint Only</type>\r\n        <howfound>Tester Input</howfound>\r\n        <targetrelease>PureCloud 1.0GA</targetrelease>\r\n        <pscim>\r\n            <product>PureCloud</product>\r\n        </pscim>\r\n        <teststeps>\r\n            <teststep action=\"Call an endpoint to get a nonexistent version of a flow\" expectedresult=\"A HTTP response is returned indicating the flow does not exist\"/>\r\n        </teststeps>\r\n    </testcase>\r\n    </testcases>\r\n\t\t]]>\r\n      </gim:testCaseXml>\r\n    </gim:UpdateTestCase>\r\n  </soapenv:Body>\r\n</soapenv:Envelope>\r\n"
                },


		{
			"id": "00000000-0000-0000-0000-000000000027",
			"headers": "Content-Type: text/xml\nSOAPAction: http://gimpy.i3domain.inin.com/TCDBWebService/UpdateTestCase\n",
			"url": "http://gimpy.i3domain.inin.com/TCDBWebService/TCDBWebService.asmx",
			"pathVariables": {},
			"preRequestScript": "",
			"method": "POST",
			"collectionId": "00000000-0000-0000-0000-000000000008",
			"data": [],
			"dataMode": "raw",
			"name": "27",
			"description": "",
			"descriptionFormat": "html",
			"time": 1428692568969,
			"version": 2,
			"responses": [],
			"tests": "postman.setGlobalVariable(\"testCaseId\", \"0\");",
			"currentHelper": "normal",
			"helperAttributes": {},
			"collectionOwner": 0,
			"write": true,
			"synced": false,
			"owner": "39537",
			"collection": "00000000-0000-0000-0000-000000000008",
			"rawModeData": "<soapenv:Envelope xmlns:soapenv=\"http://schemas.xmlsoap.org/soap/envelope/\" xmlns:gim=\"http://gimpy.i3domain.inin.com\">\r\n  <soapenv:Header/>\r\n  <soapenv:Body>\r\n    <gim:UpdateTestCase>\r\n      <!--Optional:-->\r\n      <gim:testCaseXml>       \r\n                <![CDATA[         \r\n    <testcases username=\"{{gimpyUsername}}\">\r\n    <testcase codebase=\"PureCloud\" id=\"36575\" name=\"API - Get Version of Activated Flow\" priority=\"P2\" state=\"Active\">\r\n        <description>Public API test to verify the correct behavior upon an attempt of retrieving a version of an activated flow</description>\r\n        <estimatedruntime>0.20</estimatedruntime>\r\n        <assumptions>The user has permission to view a flow.\r\n A flow exists with a version and is currently activated.</assumptions>\r\n        <limitations> </limitations>\r\n        <notes> </notes>\r\n        <data> </data>\r\n        <type>Public API Endpoint Only</type>\r\n        <howfound>Tester Input</howfound>\r\n        <targetrelease>PureCloud 1.0GA</targetrelease>\r\n        <pscim>\r\n            <product>PureCloud</product>\r\n        </pscim>\r\n        <teststeps>\r\n            <teststep action=\"Call an endpoint to get a version of an activated flow\" expectedresult=\"A HTTP response is returned that includes the requested version of the requested flow\"/>\r\n        </teststeps>\r\n    </testcase>\r\n    </testcases>\r\n\t\t]]>\r\n      </gim:testCaseXml>\r\n    </gim:UpdateTestCase>\r\n  </soapenv:Body>\r\n</soapenv:Envelope>\r\n"
                },


		{
			"id": "00000000-0000-0000-0000-000000000028",
			"headers": "Content-Type: text/xml\nSOAPAction: http://gimpy.i3domain.inin.com/TCDBWebService/UpdateTestCase\n",
			"url": "http://gimpy.i3domain.inin.com/TCDBWebService/TCDBWebService.asmx",
			"pathVariables": {},
			"preRequestScript": "",
			"method": "POST",
			"collectionId": "00000000-0000-0000-0000-000000000008",
			"data": [],
			"dataMode": "raw",
			"name": "28",
			"description": "",
			"descriptionFormat": "html",
			"time": 1428692568969,
			"version": 2,
			"responses": [],
			"tests": "postman.setGlobalVariable(\"testCaseId\", \"0\");",
			"currentHelper": "normal",
			"helperAttributes": {},
			"collectionOwner": 0,
			"write": true,
			"synced": false,
			"owner": "39537",
			"collection": "00000000-0000-0000-0000-000000000008",
			"rawModeData": "<soapenv:Envelope xmlns:soapenv=\"http://schemas.xmlsoap.org/soap/envelope/\" xmlns:gim=\"http://gimpy.i3domain.inin.com\">\r\n  <soapenv:Header/>\r\n  <soapenv:Body>\r\n    <gim:UpdateTestCase>\r\n      <!--Optional:-->\r\n      <gim:testCaseXml>       \r\n                <![CDATA[         \r\n    <testcases username=\"{{gimpyUsername}}\">\r\n    <testcase codebase=\"PureCloud\" id=\"36576\" name=\"API - Get Version of Published and Unlocked Flow\" priority=\"P1\" state=\"Active\">\r\n        <description>Public API test to verify the correct behavior upon an attempt of retrieving a version of a published flow (an unlock automatically follows a publish action)</description>\r\n        <estimatedruntime>0.20</estimatedruntime>\r\n        <assumptions>The user has permission to view a flow.\r\n A flow exists with a version and is currently published.</assumptions>\r\n        <limitations> </limitations>\r\n        <notes> </notes>\r\n        <data> </data>\r\n        <type>Public API Endpoint Only</type>\r\n        <howfound>Tester Input</howfound>\r\n        <targetrelease>PureCloud 1.0GA</targetrelease>\r\n        <pscim>\r\n            <product>PureCloud</product>\r\n        </pscim>\r\n        <teststeps>\r\n            <teststep action=\"Call an endpoint to get a version of a published and unlocked flow\" expectedresult=\"A HTTP response is returned that includes the requested version of the requested flow\"/>\r\n        </teststeps>\r\n    </testcase>\r\n    </testcases>\r\n\t\t]]>\r\n      </gim:testCaseXml>\r\n    </gim:UpdateTestCase>\r\n  </soapenv:Body>\r\n</soapenv:Envelope>\r\n"
                },


		{
			"id": "00000000-0000-0000-0000-000000000029",
			"headers": "Content-Type: text/xml\nSOAPAction: http://gimpy.i3domain.inin.com/TCDBWebService/UpdateTestCase\n",
			"url": "http://gimpy.i3domain.inin.com/TCDBWebService/TCDBWebService.asmx",
			"pathVariables": {},
			"preRequestScript": "",
			"method": "POST",
			"collectionId": "00000000-0000-0000-0000-000000000008",
			"data": [],
			"dataMode": "raw",
			"name": "29",
			"description": "",
			"descriptionFormat": "html",
			"time": 1428692568969,
			"version": 2,
			"responses": [],
			"tests": "postman.setGlobalVariable(\"testCaseId\", \"0\");",
			"currentHelper": "normal",
			"helperAttributes": {},
			"collectionOwner": 0,
			"write": true,
			"synced": false,
			"owner": "39537",
			"collection": "00000000-0000-0000-0000-000000000008",
			"rawModeData": "<soapenv:Envelope xmlns:soapenv=\"http://schemas.xmlsoap.org/soap/envelope/\" xmlns:gim=\"http://gimpy.i3domain.inin.com\">\r\n  <soapenv:Header/>\r\n  <soapenv:Body>\r\n    <gim:UpdateTestCase>\r\n      <!--Optional:-->\r\n      <gim:testCaseXml>       \r\n                <![CDATA[         \r\n    <testcases username=\"{{gimpyUsername}}\">\r\n    <testcase codebase=\"PureCloud\" id=\"39552\" name=\"API - Get Version of New Flow\" priority=\"P2\" state=\"Active\">\r\n        <description>Public API test to verify the correct response upon an attempt of retrieving a version of a new flow</description>\r\n        <estimatedruntime>0.20</estimatedruntime>\r\n        <assumptions>The user has permission to view a flow.</assumptions>\r\n        <limitations> </limitations>\r\n        <notes> </notes>\r\n        <data> </data>\r\n        <type>Public API Endpoint Only</type>\r\n        <howfound>Tester Input</howfound>\r\n        <targetrelease>PureCloud 1.0GA</targetrelease>\r\n        <pscim>\r\n            <product>PureCloud</product>\r\n        </pscim>\r\n        <teststeps>\r\n            <teststep action=\"Call an endpoint to get a version of a new flow\" expectedresult=\"A HTTP response is returned indicating the no versions exist yet\"/>\r\n        </teststeps>\r\n    </testcase>\r\n    </testcases>\r\n\t\t]]>\r\n      </gim:testCaseXml>\r\n    </gim:UpdateTestCase>\r\n  </soapenv:Body>\r\n</soapenv:Envelope>\r\n"
                },


