		{
			"id": "00000000-0000-0000-0000-000000000046",
			"headers": "Content-Type: text/xml\nSOAPAction: http://gimpy.i3domain.inin.com/TCDBWebService/UpdateTestCase\n",
			"url": "http://gimpy.i3domain.inin.com/TCDBWebService/TCDBWebService.asmx",
			"pathVariables": {},
			"preRequestScript": "",
			"method": "POST",
			"collectionId": "00000000-0000-0000-0000-000000000008",
			"data": [],
			"dataMode": "raw",
			"name": "46",
			"description": "",
			"descriptionFormat": "html",
			"time": 1428692568969,
			"version": 2,
			"responses": [],
			"tests": "postman.setGlobalVariable(\"testCaseId\", \"0\");",
			"currentHelper": "normal",
			"helperAttributes": {},
			"collectionOwner": 0,
			"write": true,
			"synced": false,
			"owner": "39537",
			"collection": "00000000-0000-0000-0000-000000000008",
			"rawModeData": "<soapenv:Envelope xmlns:soapenv=\"http://schemas.xmlsoap.org/soap/envelope/\" xmlns:gim=\"http://gimpy.i3domain.inin.com\">\r\n  <soapenv:Header/>\r\n  <soapenv:Body>\r\n    <gim:UpdateTestCase>\r\n      <!--Optional:-->\r\n      <gim:testCaseXml>       \r\n                <![CDATA[         \r\n    <testcases username=\"{{gimpyUsername}}\">\r\n    <testcase codebase=\"PureCloud\" id=\"37933\" name=\"Expression Logical - (False OR False OR True)\" priority=\"P4\" state=\"Active\">\r\n        <description>Verify the correct behavior upon computing the scenario (False OR False OR True)</description>\r\n        <estimatedruntime>0.20</estimatedruntime>\r\n        <assumptions>A flow exists.</assumptions>\r\n        <limitations> </limitations>\r\n        <notes> </notes>\r\n        <data> </data>\r\n        <type>Public API Endpoint Only</type>\r\n        <howfound>Tester Input</howfound>\r\n        <targetrelease>PureCloud 1.0GA</targetrelease>\r\n        <pscim>\r\n            <product>PureCloud</product>\r\n        </pscim>\r\n        <teststeps>\r\n            <teststep action=\"Execute an expression ( ( -5 tcStep00actiongt;= -5 ) OR ( 5 tcStep00actionlt;tcStep00actiongt; 5 ) AND (!( -5 tcStep00actiongt;= -5 )) OR (!( 5 != 5 )) ) that will be reduced to (False OR False OR True)\" expectedresult=\"The result is true\"/>\r\n        </teststeps>\r\n    </testcase>\r\n    </testcases>\r\n\t\t]]>\r\n      </gim:testCaseXml>\r\n    </gim:UpdateTestCase>\r\n  </soapenv:Body>\r\n</soapenv:Envelope>\r\n"
                },

