		{
			"id": "itemIDnum",
			"headers": "Authorization: IPC {{auth-dca}}\nININ-Session: {{sess-id}}\nContent-Type: application/json\n",
			"url": "{{server_url_dca}}/api/v1/processautomation/flows/definitions/{{flow-id}}/commands/delete",
			"preRequestScript": "",
			"pathVariables": {},
			"method": "POST",
			"data": [],
			"dataMode": "raw",
			"version": 2,
			"tests": "if (responseCode.code >= 200 && responseCode.code <= 299) {\r\n        tests[\"NULL Delete Flow\"] = responseCode.code === 200;\r\n}\r\nelse {\r\n        if (responseCode.code >= 400 && responseCode.code <= 499) {\r\n                tests[\"Response Code is Incorrect Range!\"] = false;\r\n        }\r\n        if (responseCode.code >= 500 && responseCode.code <= 599) {\r\n                tests[\"Response Code is Incorrect Range!\"] = false;\r\n        }\r\n        if (responseCode.code >= 600 || responseCode.code < 200 ) {\r\n                tests[\"Response Code is Incorrect Range!\"] = false;\r\n        }\r\n}",
			"currentHelper": "normal",
			"helperAttributes": {},
			"time": 1432671455663,
			"name": "DELETE_FLOW",
			"description": "",
			"collectionId": "00000000-aaaa-0000-0000-0000000000collectionNumber",
			"responses": [],
			"synced": false,
			"rawModeData": "{\r\n    \"deleted\":\"true\"\r\n}"
		},