		{
			"id": "itemIDnum",
			"headers": "Authorization: IPC {{auth-dca}}\nININ-Session: {{sess-id}}\nContent-Type: application/json\n",
			"url": "{{server_url_dca}}/api/v1/users",
			"preRequestScript": "//var incrementUser = environment.",
			"pathVariables": {},
			"method": "POST",
			"data": [],
			"dataMode": "raw",
			"version": 2,
			"tests": "if(responseCode.code >= 200 && responseCode.code <= 299){\n    if (responseBody.length !== 0){\n        \n        var data = JSON.parse(responseBody);\n        if (data.hasOwnProperty(id)){\n            postman.setEnvironmentVariable(\"new_user\", data.id);\n            tests[\"User Successfully Created!\"]=true;\n        }\n    }\n}\nelse {\n    tests[responseBody]=false;\n}",
			"currentHelper": "normal",
			"helperAttributes": {},
			"time": 1450888353324,
			"name": "AUTH_CREATE_USER",
			"description": "",
			"collectionId": "00000000-aaaa-0000-0000-0000000000collectionNumber",
			"responses": [],
			"rawModeData": "{\r\n  \"name\": \"test_api_user\",\r\n  \"username\": \"test_api_user\",\r\n  \"title\": \"api_user\",\r\n  \"department\": \"api_user\",\r\n  \"phoneNumber\": \"13179994444\",\r\n  \"password\": \"test1234\",\r\n  \"email\": \"test_api_user@test_api_user.com\"\r\n}"
		},