		{
			"id": "itemIDnum",
			"headers": "Authorization: IPC {{auth-dca}}\nININ-Session: {{sess-id}}\n",
			"url": "{{server_url_dca}}/api/v1/processautomation/flows/definitions/{{flow-id}}/flowcache",
			"preRequestScript": "",
			"pathVariables": {},
			"method": "PUT",
			"data": [],
			"dataMode": "raw",
			"version": 2,
			"tests": "if (responseCode.code >= 200 && responseCode.code <= 299) {\n        tests[\"NULL PUT_FLOW_DEFINITION_CACHE\"] = responseCode.code === 200;\n}\nelse {\n        tests[responseBody]=false;\n        if (responseCode.code >= 400 && responseCode.code <= 499) {\n                tests[\"Response Code is Incorrect Range (400 - 499)!\"] = false;\n        }\n        if (responseCode.code >= 500 && responseCode.code <= 599) {\n                tests[\"Response Code is Incorrect Range (500 - 599)!\"] = false;\n        }\n        if (responseCode.code >= 600 || responseCode.code < 200 ) {\n                tests[\"Response Code is Incorrect Range (>= 600 || < 200) !\"] = false;\n        }\n}",
			"currentHelper": "normal",
			"helperAttributes": {},
			"time": 1450291788982,
			"name": "PUT_FLOW_DEFINITION_CACHE",
			"description": "",
			"collectionId": "00000000-aaaa-0000-0000-0000000000collectionNumber",
			"rawModeData": "{{binaryData}}"
		},