		{
			"id": "00000000-0000-0000-0000-000000000001",
			"headers": "Content-Type: text/xml\nSOAPAction: http://gimpy.i3domain.inin.com/TCDBWebService/UpdateTestCase\n",
			"url": "http://gimpy.i3domain.inin.com/TCDBWebService/TCDBWebService.asmx",
			"pathVariables": {},
			"preRequestScript": "",
			"method": "POST",
			"collectionId": "00000000-0000-0000-0000-000000000008",
			"data": [],
			"dataMode": "raw",
			"name": "1",
			"description": "",
			"descriptionFormat": "html",
			"time": 1428692568969,
			"version": 2,
			"responses": [],
			"tests": "postman.setGlobalVariable(\"testCaseId\", \"0\");",
			"currentHelper": "normal",
			"helperAttributes": {},
			"collectionOwner": 0,
			"write": true,
			"synced": false,
			"owner": "39537",
			"collection": "00000000-0000-0000-0000-000000000008",
			"rawModeData": "<soapenv:Envelope xmlns:soapenv=\"http://schemas.xmlsoap.org/soap/envelope/\" xmlns:gim=\"http://gimpy.i3domain.inin.com\">\r\n  <soapenv:Header/>\r\n  <soapenv:Body>\r\n    <gim:UpdateTestCase>\r\n      <!--Optional:-->\r\n      <gim:testCaseXml>       \r\n                <![CDATA[         \r\n    <testcases username=\"{{gimpyUsername}}\">\r\n    <testcase codebase=\"PureCloud\" id=\"36611\" name=\"API - Revoke Modify Flow Permission from User\" priority=\"P3\" state=\"Active\">\r\n        <description>Public API test to verify the correct behavior upon revoking the modify flow permission from an user</description>\r\n        <estimatedruntime>0.20</estimatedruntime>\r\n        <assumptions>The API executor is allowed to alter other user's flow permissions.\r\n A user exists whose permission to modify a flow has been granted.</assumptions>\r\n        <limitations> </limitations>\r\n        <notes> </notes>\r\n        <data> </data>\r\n        <type>Public API Endpoint Only</type>\r\n        <howfound>Tester Input</howfound>\r\n        <targetrelease>PureCloud 1.0GA</targetrelease>\r\n        <pscim>\r\n            <product>PureCloud</product>\r\n        </pscim>\r\n        <teststeps>\r\n            <teststep action=\"Call an endpoint to revoke the modify flow permission from a user\" expectedresult=\"A HTTP response is returned indicating the operation was a success\"/>\r\n        </teststeps>\r\n    </testcase>\r\n    </testcases>\r\n\t\t]]>\r\n      </gim:testCaseXml>\r\n    </gim:UpdateTestCase>\r\n  </soapenv:Body>\r\n</soapenv:Envelope>\r\n"
                },


		{
			"id": "00000000-0000-0000-0000-000000000002",
			"headers": "Content-Type: text/xml\nSOAPAction: http://gimpy.i3domain.inin.com/TCDBWebService/UpdateTestCase\n",
			"url": "http://gimpy.i3domain.inin.com/TCDBWebService/TCDBWebService.asmx",
			"pathVariables": {},
			"preRequestScript": "",
			"method": "POST",
			"collectionId": "00000000-0000-0000-0000-000000000008",
			"data": [],
			"dataMode": "raw",
			"name": "2",
			"description": "",
			"descriptionFormat": "html",
			"time": 1428692568969,
			"version": 2,
			"responses": [],
			"tests": "postman.setGlobalVariable(\"testCaseId\", \"0\");",
			"currentHelper": "normal",
			"helperAttributes": {},
			"collectionOwner": 0,
			"write": true,
			"synced": false,
			"owner": "39537",
			"collection": "00000000-0000-0000-0000-000000000008",
			"rawModeData": "<soapenv:Envelope xmlns:soapenv=\"http://schemas.xmlsoap.org/soap/envelope/\" xmlns:gim=\"http://gimpy.i3domain.inin.com\">\r\n  <soapenv:Header/>\r\n  <soapenv:Body>\r\n    <gim:UpdateTestCase>\r\n      <!--Optional:-->\r\n      <gim:testCaseXml>       \r\n                <![CDATA[         \r\n    <testcases username=\"{{gimpyUsername}}\">\r\n    <testcase codebase=\"PureCloud\" id=\"36612\" name=\"API - Revoke Modify Flow Permission from Nonexistent User\" priority=\"P3\" state=\"Active\">\r\n        <description>Public API test to verify the correct behavior upon revoking the modify flow permission from a nonexistent user</description>\r\n        <estimatedruntime>0.20</estimatedruntime>\r\n        <assumptions>The API executor is allowed to alter other user's flow permissions.</assumptions>\r\n        <limitations> </limitations>\r\n        <notes> </notes>\r\n        <data> </data>\r\n        <type>Public API Endpoint Only</type>\r\n        <howfound>Tester Input</howfound>\r\n        <targetrelease>PureCloud 1.0GA</targetrelease>\r\n        <pscim>\r\n            <product>PureCloud</product>\r\n        </pscim>\r\n        <teststeps>\r\n            <teststep action=\"Call an endpoint to revoke the modify flow permission from a user that doesn't exist\" expectedresult=\"A HTTP response is returned indicating the operation failed\"/>\r\n        </teststeps>\r\n    </testcase>\r\n    </testcases>\r\n\t\t]]>\r\n      </gim:testCaseXml>\r\n    </gim:UpdateTestCase>\r\n  </soapenv:Body>\r\n</soapenv:Envelope>\r\n"
                },


		{
			"id": "00000000-0000-0000-0000-000000000003",
			"headers": "Content-Type: text/xml\nSOAPAction: http://gimpy.i3domain.inin.com/TCDBWebService/UpdateTestCase\n",
			"url": "http://gimpy.i3domain.inin.com/TCDBWebService/TCDBWebService.asmx",
			"pathVariables": {},
			"preRequestScript": "",
			"method": "POST",
			"collectionId": "00000000-0000-0000-0000-000000000008",
			"data": [],
			"dataMode": "raw",
			"name": "3",
			"description": "",
			"descriptionFormat": "html",
			"time": 1428692568969,
			"version": 2,
			"responses": [],
			"tests": "postman.setGlobalVariable(\"testCaseId\", \"0\");",
			"currentHelper": "normal",
			"helperAttributes": {},
			"collectionOwner": 0,
			"write": true,
			"synced": false,
			"owner": "39537",
			"collection": "00000000-0000-0000-0000-000000000008",
			"rawModeData": "<soapenv:Envelope xmlns:soapenv=\"http://schemas.xmlsoap.org/soap/envelope/\" xmlns:gim=\"http://gimpy.i3domain.inin.com\">\r\n  <soapenv:Header/>\r\n  <soapenv:Body>\r\n    <gim:UpdateTestCase>\r\n      <!--Optional:-->\r\n      <gim:testCaseXml>       \r\n                <![CDATA[         \r\n    <testcases username=\"{{gimpyUsername}}\">\r\n    <testcase codebase=\"PureCloud\" id=\"36613\" name=\"API - Grant Modify Flow Permission to User\" priority=\"P3\" state=\"Active\">\r\n        <description>Public API test to verify the correct behavior upon granting the modify flow permission to an user</description>\r\n        <estimatedruntime>0.20</estimatedruntime>\r\n        <assumptions>The API executor is allowed to alter other user's flow permissions.\r\n A user exists whose permission to modify a flow has been revoked.</assumptions>\r\n        <limitations> </limitations>\r\n        <notes> </notes>\r\n        <data> </data>\r\n        <type>Public API Endpoint Only</type>\r\n        <howfound>Tester Input</howfound>\r\n        <targetrelease>PureCloud 1.0GA</targetrelease>\r\n        <pscim>\r\n            <product>PureCloud</product>\r\n        </pscim>\r\n        <teststeps>\r\n            <teststep action=\"Call an endpoint to grant the modify flow permission from a user\" expectedresult=\"A HTTP response is returned indicating the operation was a success\"/>\r\n        </teststeps>\r\n    </testcase>\r\n    </testcases>\r\n\t\t]]>\r\n      </gim:testCaseXml>\r\n    </gim:UpdateTestCase>\r\n  </soapenv:Body>\r\n</soapenv:Envelope>\r\n"
                },


		{
			"id": "00000000-0000-0000-0000-000000000004",
			"headers": "Content-Type: text/xml\nSOAPAction: http://gimpy.i3domain.inin.com/TCDBWebService/UpdateTestCase\n",
			"url": "http://gimpy.i3domain.inin.com/TCDBWebService/TCDBWebService.asmx",
			"pathVariables": {},
			"preRequestScript": "",
			"method": "POST",
			"collectionId": "00000000-0000-0000-0000-000000000008",
			"data": [],
			"dataMode": "raw",
			"name": "4",
			"description": "",
			"descriptionFormat": "html",
			"time": 1428692568969,
			"version": 2,
			"responses": [],
			"tests": "postman.setGlobalVariable(\"testCaseId\", \"0\");",
			"currentHelper": "normal",
			"helperAttributes": {},
			"collectionOwner": 0,
			"write": true,
			"synced": false,
			"owner": "39537",
			"collection": "00000000-0000-0000-0000-000000000008",
			"rawModeData": "<soapenv:Envelope xmlns:soapenv=\"http://schemas.xmlsoap.org/soap/envelope/\" xmlns:gim=\"http://gimpy.i3domain.inin.com\">\r\n  <soapenv:Header/>\r\n  <soapenv:Body>\r\n    <gim:UpdateTestCase>\r\n      <!--Optional:-->\r\n      <gim:testCaseXml>       \r\n                <![CDATA[         \r\n    <testcases username=\"{{gimpyUsername}}\">\r\n    <testcase codebase=\"PureCloud\" id=\"36614\" name=\"API - Grant Modify Flow Permission to Nonexistent User\" priority=\"P3\" state=\"Active\">\r\n        <description>Public API test to verify the correct behavior upon granting the modify flow permission to a nonexistent user</description>\r\n        <estimatedruntime>0.20</estimatedruntime>\r\n        <assumptions>The API executor is allowed to alter other user's flow permissions.</assumptions>\r\n        <limitations> </limitations>\r\n        <notes> </notes>\r\n        <data> </data>\r\n        <type>Public API Endpoint Only</type>\r\n        <howfound>Tester Input</howfound>\r\n        <targetrelease>PureCloud 1.0GA</targetrelease>\r\n        <pscim>\r\n            <product>PureCloud</product>\r\n        </pscim>\r\n        <teststeps>\r\n            <teststep action=\"Call an endpoint to grant the modify flow permission to a user that doesn't exist\" expectedresult=\"A HTTP response is returned indicating the operation failed\"/>\r\n        </teststeps>\r\n    </testcase>\r\n    </testcases>\r\n\t\t]]>\r\n      </gim:testCaseXml>\r\n    </gim:UpdateTestCase>\r\n  </soapenv:Body>\r\n</soapenv:Envelope>\r\n"
                },


		{
			"id": "00000000-0000-0000-0000-000000000005",
			"headers": "Content-Type: text/xml\nSOAPAction: http://gimpy.i3domain.inin.com/TCDBWebService/UpdateTestCase\n",
			"url": "http://gimpy.i3domain.inin.com/TCDBWebService/TCDBWebService.asmx",
			"pathVariables": {},
			"preRequestScript": "",
			"method": "POST",
			"collectionId": "00000000-0000-0000-0000-000000000008",
			"data": [],
			"dataMode": "raw",
			"name": "5",
			"description": "",
			"descriptionFormat": "html",
			"time": 1428692568969,
			"version": 2,
			"responses": [],
			"tests": "postman.setGlobalVariable(\"testCaseId\", \"0\");",
			"currentHelper": "normal",
			"helperAttributes": {},
			"collectionOwner": 0,
			"write": true,
			"synced": false,
			"owner": "39537",
			"collection": "00000000-0000-0000-0000-000000000008",
			"rawModeData": "<soapenv:Envelope xmlns:soapenv=\"http://schemas.xmlsoap.org/soap/envelope/\" xmlns:gim=\"http://gimpy.i3domain.inin.com\">\r\n  <soapenv:Header/>\r\n  <soapenv:Body>\r\n    <gim:UpdateTestCase>\r\n      <!--Optional:-->\r\n      <gim:testCaseXml>       \r\n                <![CDATA[         \r\n    <testcases username=\"{{gimpyUsername}}\">\r\n    <testcase codebase=\"PureCloud\" id=\"36615\" name=\"API - Revoke Create Flow Permission from User\" priority=\"P3\" state=\"Active\">\r\n        <description>Public API test to verify the correct behavior upon revoking the create flow permission from an user</description>\r\n        <estimatedruntime>0.20</estimatedruntime>\r\n        <assumptions>The API executor is allowed to alter other user's flow permissions.\r\n A user exists whose permission to create a flow has been granted.</assumptions>\r\n        <limitations> </limitations>\r\n        <notes> </notes>\r\n        <data> </data>\r\n        <type>Public API Endpoint Only</type>\r\n        <howfound>Tester Input</howfound>\r\n        <targetrelease>PureCloud 1.0GA</targetrelease>\r\n        <pscim>\r\n            <product>PureCloud</product>\r\n        </pscim>\r\n        <teststeps>\r\n            <teststep action=\"Call an endpoint to revoke the create flow permission from a user\" expectedresult=\"A HTTP response is returned indicating the operation was a success\"/>\r\n        </teststeps>\r\n    </testcase>\r\n    </testcases>\r\n\t\t]]>\r\n      </gim:testCaseXml>\r\n    </gim:UpdateTestCase>\r\n  </soapenv:Body>\r\n</soapenv:Envelope>\r\n"
                },


		{
			"id": "00000000-0000-0000-0000-000000000006",
			"headers": "Content-Type: text/xml\nSOAPAction: http://gimpy.i3domain.inin.com/TCDBWebService/UpdateTestCase\n",
			"url": "http://gimpy.i3domain.inin.com/TCDBWebService/TCDBWebService.asmx",
			"pathVariables": {},
			"preRequestScript": "",
			"method": "POST",
			"collectionId": "00000000-0000-0000-0000-000000000008",
			"data": [],
			"dataMode": "raw",
			"name": "6",
			"description": "",
			"descriptionFormat": "html",
			"time": 1428692568969,
			"version": 2,
			"responses": [],
			"tests": "postman.setGlobalVariable(\"testCaseId\", \"0\");",
			"currentHelper": "normal",
			"helperAttributes": {},
			"collectionOwner": 0,
			"write": true,
			"synced": false,
			"owner": "39537",
			"collection": "00000000-0000-0000-0000-000000000008",
			"rawModeData": "<soapenv:Envelope xmlns:soapenv=\"http://schemas.xmlsoap.org/soap/envelope/\" xmlns:gim=\"http://gimpy.i3domain.inin.com\">\r\n  <soapenv:Header/>\r\n  <soapenv:Body>\r\n    <gim:UpdateTestCase>\r\n      <!--Optional:-->\r\n      <gim:testCaseXml>       \r\n                <![CDATA[         \r\n    <testcases username=\"{{gimpyUsername}}\">\r\n    <testcase codebase=\"PureCloud\" id=\"36616\" name=\"API - Revoke Create Flow Permission from Nonexistent User\" priority=\"P3\" state=\"Active\">\r\n        <description>Public API test to verify the correct behavior upon revoking the create flow permission from a nonexistent user</description>\r\n        <estimatedruntime>0.20</estimatedruntime>\r\n        <assumptions>The API executor is allowed to alter other user's flow permissions.</assumptions>\r\n        <limitations> </limitations>\r\n        <notes> </notes>\r\n        <data> </data>\r\n        <type>Public API Endpoint Only</type>\r\n        <howfound>Tester Input</howfound>\r\n        <targetrelease>PureCloud 1.0GA</targetrelease>\r\n        <pscim>\r\n            <product>PureCloud</product>\r\n        </pscim>\r\n        <teststeps>\r\n            <teststep action=\"Call an endpoint to revoke the create flow permission from a user that doesn't exist\" expectedresult=\"A HTTP response is returned indicating the operation failed\"/>\r\n        </teststeps>\r\n    </testcase>\r\n    </testcases>\r\n\t\t]]>\r\n      </gim:testCaseXml>\r\n    </gim:UpdateTestCase>\r\n  </soapenv:Body>\r\n</soapenv:Envelope>\r\n"
                },


		{
			"id": "00000000-0000-0000-0000-000000000007",
			"headers": "Content-Type: text/xml\nSOAPAction: http://gimpy.i3domain.inin.com/TCDBWebService/UpdateTestCase\n",
			"url": "http://gimpy.i3domain.inin.com/TCDBWebService/TCDBWebService.asmx",
			"pathVariables": {},
			"preRequestScript": "",
			"method": "POST",
			"collectionId": "00000000-0000-0000-0000-000000000008",
			"data": [],
			"dataMode": "raw",
			"name": "7",
			"description": "",
			"descriptionFormat": "html",
			"time": 1428692568969,
			"version": 2,
			"responses": [],
			"tests": "postman.setGlobalVariable(\"testCaseId\", \"0\");",
			"currentHelper": "normal",
			"helperAttributes": {},
			"collectionOwner": 0,
			"write": true,
			"synced": false,
			"owner": "39537",
			"collection": "00000000-0000-0000-0000-000000000008",
			"rawModeData": "<soapenv:Envelope xmlns:soapenv=\"http://schemas.xmlsoap.org/soap/envelope/\" xmlns:gim=\"http://gimpy.i3domain.inin.com\">\r\n  <soapenv:Header/>\r\n  <soapenv:Body>\r\n    <gim:UpdateTestCase>\r\n      <!--Optional:-->\r\n      <gim:testCaseXml>       \r\n                <![CDATA[         \r\n    <testcases username=\"{{gimpyUsername}}\">\r\n    <testcase codebase=\"PureCloud\" id=\"36617\" name=\"API - Grant Create Flow Permission to User\" priority=\"P3\" state=\"Active\">\r\n        <description>Public API test to verify the correct behavior upon granting the Create flow permission to an user</description>\r\n        <estimatedruntime>0.20</estimatedruntime>\r\n        <assumptions>The API executor is allowed to alter other user's flow permissions.\r\n A user exists whose permission to Create a flow has been revoked.</assumptions>\r\n        <limitations> </limitations>\r\n        <notes> </notes>\r\n        <data> </data>\r\n        <type>Public API Endpoint Only</type>\r\n        <howfound>Tester Input</howfound>\r\n        <targetrelease>PureCloud 1.0GA</targetrelease>\r\n        <pscim>\r\n            <product>PureCloud</product>\r\n        </pscim>\r\n        <teststeps>\r\n            <teststep action=\"Call an endpoint to grant the Create flow permission to a user\" expectedresult=\"A HTTP response is returned indicating the operation was a success\"/>\r\n        </teststeps>\r\n    </testcase>\r\n    </testcases>\r\n\t\t]]>\r\n      </gim:testCaseXml>\r\n    </gim:UpdateTestCase>\r\n  </soapenv:Body>\r\n</soapenv:Envelope>\r\n"
                },


		{
			"id": "00000000-0000-0000-0000-000000000008",
			"headers": "Content-Type: text/xml\nSOAPAction: http://gimpy.i3domain.inin.com/TCDBWebService/UpdateTestCase\n",
			"url": "http://gimpy.i3domain.inin.com/TCDBWebService/TCDBWebService.asmx",
			"pathVariables": {},
			"preRequestScript": "",
			"method": "POST",
			"collectionId": "00000000-0000-0000-0000-000000000008",
			"data": [],
			"dataMode": "raw",
			"name": "8",
			"description": "",
			"descriptionFormat": "html",
			"time": 1428692568969,
			"version": 2,
			"responses": [],
			"tests": "postman.setGlobalVariable(\"testCaseId\", \"0\");",
			"currentHelper": "normal",
			"helperAttributes": {},
			"collectionOwner": 0,
			"write": true,
			"synced": false,
			"owner": "39537",
			"collection": "00000000-0000-0000-0000-000000000008",
			"rawModeData": "<soapenv:Envelope xmlns:soapenv=\"http://schemas.xmlsoap.org/soap/envelope/\" xmlns:gim=\"http://gimpy.i3domain.inin.com\">\r\n  <soapenv:Header/>\r\n  <soapenv:Body>\r\n    <gim:UpdateTestCase>\r\n      <!--Optional:-->\r\n      <gim:testCaseXml>       \r\n                <![CDATA[         \r\n    <testcases username=\"{{gimpyUsername}}\">\r\n    <testcase codebase=\"PureCloud\" id=\"36618\" name=\"API - Grant Create Flow Permission to Nonexistent User\" priority=\"P3\" state=\"Active\">\r\n        <description>Public API test to verify the correct behavior upon granting the Create flow permission to a nonexistent user</description>\r\n        <estimatedruntime>0.20</estimatedruntime>\r\n        <assumptions>The API executor is allowed to alter other user's flow permissions.</assumptions>\r\n        <limitations> </limitations>\r\n        <notes> </notes>\r\n        <data> </data>\r\n        <type>Public API Endpoint Only</type>\r\n        <howfound>Tester Input</howfound>\r\n        <targetrelease>PureCloud 1.0GA</targetrelease>\r\n        <pscim>\r\n            <product>PureCloud</product>\r\n        </pscim>\r\n        <teststeps>\r\n            <teststep action=\"Call an endpoint to grant the Create flow permission to a user that doesn't exist\" expectedresult=\"A HTTP response is returned indicating the operation failed\"/>\r\n        </teststeps>\r\n    </testcase>\r\n    </testcases>\r\n\t\t]]>\r\n      </gim:testCaseXml>\r\n    </gim:UpdateTestCase>\r\n  </soapenv:Body>\r\n</soapenv:Envelope>\r\n"
                },


		{
			"id": "00000000-0000-0000-0000-000000000009",
			"headers": "Content-Type: text/xml\nSOAPAction: http://gimpy.i3domain.inin.com/TCDBWebService/UpdateTestCase\n",
			"url": "http://gimpy.i3domain.inin.com/TCDBWebService/TCDBWebService.asmx",
			"pathVariables": {},
			"preRequestScript": "",
			"method": "POST",
			"collectionId": "00000000-0000-0000-0000-000000000008",
			"data": [],
			"dataMode": "raw",
			"name": "9",
			"description": "",
			"descriptionFormat": "html",
			"time": 1428692568969,
			"version": 2,
			"responses": [],
			"tests": "postman.setGlobalVariable(\"testCaseId\", \"0\");",
			"currentHelper": "normal",
			"helperAttributes": {},
			"collectionOwner": 0,
			"write": true,
			"synced": false,
			"owner": "39537",
			"collection": "00000000-0000-0000-0000-000000000008",
			"rawModeData": "<soapenv:Envelope xmlns:soapenv=\"http://schemas.xmlsoap.org/soap/envelope/\" xmlns:gim=\"http://gimpy.i3domain.inin.com\">\r\n  <soapenv:Header/>\r\n  <soapenv:Body>\r\n    <gim:UpdateTestCase>\r\n      <!--Optional:-->\r\n      <gim:testCaseXml>       \r\n                <![CDATA[         \r\n    <testcases username=\"{{gimpyUsername}}\">\r\n    <testcase codebase=\"PureCloud\" id=\"36619\" name=\"API - Revoke View Flow Permission from User\" priority=\"P3\" state=\"Active\">\r\n        <description>Public API test to verify the correct behavior upon revoking the View flow permission from an user</description>\r\n        <estimatedruntime>0.20</estimatedruntime>\r\n        <assumptions>The API executor is allowed to alter other user's flow permissions.\r\n A user exists whose permission to View a flow has been granted.</assumptions>\r\n        <limitations> </limitations>\r\n        <notes> </notes>\r\n        <data> </data>\r\n        <type>Public API Endpoint Only</type>\r\n        <howfound>Tester Input</howfound>\r\n        <targetrelease>PureCloud 1.0GA</targetrelease>\r\n        <pscim>\r\n            <product>PureCloud</product>\r\n        </pscim>\r\n        <teststeps>\r\n            <teststep action=\"Call an endpoint to revoke the View flow permission from a user\" expectedresult=\"A HTTP response is returned indicating the operation was a success\"/>\r\n        </teststeps>\r\n    </testcase>\r\n    </testcases>\r\n\t\t]]>\r\n      </gim:testCaseXml>\r\n    </gim:UpdateTestCase>\r\n  </soapenv:Body>\r\n</soapenv:Envelope>\r\n"
                },


		{
			"id": "00000000-0000-0000-0000-000000000010",
			"headers": "Content-Type: text/xml\nSOAPAction: http://gimpy.i3domain.inin.com/TCDBWebService/UpdateTestCase\n",
			"url": "http://gimpy.i3domain.inin.com/TCDBWebService/TCDBWebService.asmx",
			"pathVariables": {},
			"preRequestScript": "",
			"method": "POST",
			"collectionId": "00000000-0000-0000-0000-000000000008",
			"data": [],
			"dataMode": "raw",
			"name": "10",
			"description": "",
			"descriptionFormat": "html",
			"time": 1428692568969,
			"version": 2,
			"responses": [],
			"tests": "postman.setGlobalVariable(\"testCaseId\", \"0\");",
			"currentHelper": "normal",
			"helperAttributes": {},
			"collectionOwner": 0,
			"write": true,
			"synced": false,
			"owner": "39537",
			"collection": "00000000-0000-0000-0000-000000000008",
			"rawModeData": "<soapenv:Envelope xmlns:soapenv=\"http://schemas.xmlsoap.org/soap/envelope/\" xmlns:gim=\"http://gimpy.i3domain.inin.com\">\r\n  <soapenv:Header/>\r\n  <soapenv:Body>\r\n    <gim:UpdateTestCase>\r\n      <!--Optional:-->\r\n      <gim:testCaseXml>       \r\n                <![CDATA[         \r\n    <testcases username=\"{{gimpyUsername}}\">\r\n    <testcase codebase=\"PureCloud\" id=\"36620\" name=\"API - Revoke View Flow Permission from Nonexistent User\" priority=\"P3\" state=\"Active\">\r\n        <description>Public API test to verify the correct behavior upon revoking the View flow permission from a nonexistent user</description>\r\n        <estimatedruntime>0.20</estimatedruntime>\r\n        <assumptions>The API executor is allowed to alter other user's flow permissions.</assumptions>\r\n        <limitations> </limitations>\r\n        <notes> </notes>\r\n        <data> </data>\r\n        <type>Public API Endpoint Only</type>\r\n        <howfound>Tester Input</howfound>\r\n        <targetrelease>PureCloud 1.0GA</targetrelease>\r\n        <pscim>\r\n            <product>PureCloud</product>\r\n        </pscim>\r\n        <teststeps>\r\n            <teststep action=\"Call an endpoint to revoke the View flow permission from a user that doesn't exist\" expectedresult=\"A HTTP response is returned indicating the operation failed\"/>\r\n        </teststeps>\r\n    </testcase>\r\n    </testcases>\r\n\t\t]]>\r\n      </gim:testCaseXml>\r\n    </gim:UpdateTestCase>\r\n  </soapenv:Body>\r\n</soapenv:Envelope>\r\n"
                },


		{
			"id": "00000000-0000-0000-0000-000000000011",
			"headers": "Content-Type: text/xml\nSOAPAction: http://gimpy.i3domain.inin.com/TCDBWebService/UpdateTestCase\n",
			"url": "http://gimpy.i3domain.inin.com/TCDBWebService/TCDBWebService.asmx",
			"pathVariables": {},
			"preRequestScript": "",
			"method": "POST",
			"collectionId": "00000000-0000-0000-0000-000000000008",
			"data": [],
			"dataMode": "raw",
			"name": "11",
			"description": "",
			"descriptionFormat": "html",
			"time": 1428692568969,
			"version": 2,
			"responses": [],
			"tests": "postman.setGlobalVariable(\"testCaseId\", \"0\");",
			"currentHelper": "normal",
			"helperAttributes": {},
			"collectionOwner": 0,
			"write": true,
			"synced": false,
			"owner": "39537",
			"collection": "00000000-0000-0000-0000-000000000008",
			"rawModeData": "<soapenv:Envelope xmlns:soapenv=\"http://schemas.xmlsoap.org/soap/envelope/\" xmlns:gim=\"http://gimpy.i3domain.inin.com\">\r\n  <soapenv:Header/>\r\n  <soapenv:Body>\r\n    <gim:UpdateTestCase>\r\n      <!--Optional:-->\r\n      <gim:testCaseXml>       \r\n                <![CDATA[         \r\n    <testcases username=\"{{gimpyUsername}}\">\r\n    <testcase codebase=\"PureCloud\" id=\"36621\" name=\"API - Grant View Flow Permission to User\" priority=\"P3\" state=\"Active\">\r\n        <description>Public API test to verify the correct behavior upon granting the View flow permission to an user</description>\r\n        <estimatedruntime>0.20</estimatedruntime>\r\n        <assumptions>The API executor is allowed to alter other user's flow permissions.\r\n A user exists whose permission to View a flow has been revoked.</assumptions>\r\n        <limitations> </limitations>\r\n        <notes> </notes>\r\n        <data> </data>\r\n        <type>Public API Endpoint Only</type>\r\n        <howfound>Tester Input</howfound>\r\n        <targetrelease>PureCloud 1.0GA</targetrelease>\r\n        <pscim>\r\n            <product>PureCloud</product>\r\n        </pscim>\r\n        <teststeps>\r\n            <teststep action=\"Call an endpoint to grant the View flow permission to a user\" expectedresult=\"A HTTP response is returned indicating the operation was a success\"/>\r\n        </teststeps>\r\n    </testcase>\r\n    </testcases>\r\n\t\t]]>\r\n      </gim:testCaseXml>\r\n    </gim:UpdateTestCase>\r\n  </soapenv:Body>\r\n</soapenv:Envelope>\r\n"
                },


		{
			"id": "00000000-0000-0000-0000-000000000012",
			"headers": "Content-Type: text/xml\nSOAPAction: http://gimpy.i3domain.inin.com/TCDBWebService/UpdateTestCase\n",
			"url": "http://gimpy.i3domain.inin.com/TCDBWebService/TCDBWebService.asmx",
			"pathVariables": {},
			"preRequestScript": "",
			"method": "POST",
			"collectionId": "00000000-0000-0000-0000-000000000008",
			"data": [],
			"dataMode": "raw",
			"name": "12",
			"description": "",
			"descriptionFormat": "html",
			"time": 1428692568969,
			"version": 2,
			"responses": [],
			"tests": "postman.setGlobalVariable(\"testCaseId\", \"0\");",
			"currentHelper": "normal",
			"helperAttributes": {},
			"collectionOwner": 0,
			"write": true,
			"synced": false,
			"owner": "39537",
			"collection": "00000000-0000-0000-0000-000000000008",
			"rawModeData": "<soapenv:Envelope xmlns:soapenv=\"http://schemas.xmlsoap.org/soap/envelope/\" xmlns:gim=\"http://gimpy.i3domain.inin.com\">\r\n  <soapenv:Header/>\r\n  <soapenv:Body>\r\n    <gim:UpdateTestCase>\r\n      <!--Optional:-->\r\n      <gim:testCaseXml>       \r\n                <![CDATA[         \r\n    <testcases username=\"{{gimpyUsername}}\">\r\n    <testcase codebase=\"PureCloud\" id=\"36622\" name=\"API - Grant View Flow Permission to Nonexistent User\" priority=\"P3\" state=\"Active\">\r\n        <description>Public API test to verify the correct behavior upon granting the View flow permission to a nonexistent user</description>\r\n        <estimatedruntime>0.20</estimatedruntime>\r\n        <assumptions>The API executor is allowed to alter other user's flow permissions.</assumptions>\r\n        <limitations> </limitations>\r\n        <notes> </notes>\r\n        <data> </data>\r\n        <type>Public API Endpoint Only</type>\r\n        <howfound>Tester Input</howfound>\r\n        <targetrelease>PureCloud 1.0GA</targetrelease>\r\n        <pscim>\r\n            <product>PureCloud</product>\r\n        </pscim>\r\n        <teststeps>\r\n            <teststep action=\"Call an endpoint to grant the View flow permission to a user that doesn't exist\" expectedresult=\"A HTTP response is returned indicating the operation failed\"/>\r\n        </teststeps>\r\n    </testcase>\r\n    </testcases>\r\n\t\t]]>\r\n      </gim:testCaseXml>\r\n    </gim:UpdateTestCase>\r\n  </soapenv:Body>\r\n</soapenv:Envelope>\r\n"
                },


		{
			"id": "00000000-0000-0000-0000-000000000013",
			"headers": "Content-Type: text/xml\nSOAPAction: http://gimpy.i3domain.inin.com/TCDBWebService/UpdateTestCase\n",
			"url": "http://gimpy.i3domain.inin.com/TCDBWebService/TCDBWebService.asmx",
			"pathVariables": {},
			"preRequestScript": "",
			"method": "POST",
			"collectionId": "00000000-0000-0000-0000-000000000008",
			"data": [],
			"dataMode": "raw",
			"name": "13",
			"description": "",
			"descriptionFormat": "html",
			"time": 1428692568969,
			"version": 2,
			"responses": [],
			"tests": "postman.setGlobalVariable(\"testCaseId\", \"0\");",
			"currentHelper": "normal",
			"helperAttributes": {},
			"collectionOwner": 0,
			"write": true,
			"synced": false,
			"owner": "39537",
			"collection": "00000000-0000-0000-0000-000000000008",
			"rawModeData": "<soapenv:Envelope xmlns:soapenv=\"http://schemas.xmlsoap.org/soap/envelope/\" xmlns:gim=\"http://gimpy.i3domain.inin.com\">\r\n  <soapenv:Header/>\r\n  <soapenv:Body>\r\n    <gim:UpdateTestCase>\r\n      <!--Optional:-->\r\n      <gim:testCaseXml>       \r\n                <![CDATA[         \r\n    <testcases username=\"{{gimpyUsername}}\">\r\n    <testcase codebase=\"PureCloud\" id=\"36623\" name=\"API - Revoke Launch Flow Permission from User\" priority=\"P3\" state=\"Active\">\r\n        <description>Public API test to verify the correct behavior upon revoking the Launch flow permission from an user</description>\r\n        <estimatedruntime>0.20</estimatedruntime>\r\n        <assumptions>The API executor is allowed to alter other user's flow permissions.\r\n A user exists whose permission to Launch a flow has been granted.</assumptions>\r\n        <limitations> </limitations>\r\n        <notes> </notes>\r\n        <data> </data>\r\n        <type>Public API Endpoint Only</type>\r\n        <howfound>Tester Input</howfound>\r\n        <targetrelease>PureCloud 1.0GA</targetrelease>\r\n        <pscim>\r\n            <product>PureCloud</product>\r\n        </pscim>\r\n        <teststeps>\r\n            <teststep action=\"Call an endpoint to revoke the Launch flow permission from a user\" expectedresult=\"A HTTP response is returned indicating the operation was a success\"/>\r\n        </teststeps>\r\n    </testcase>\r\n    </testcases>\r\n\t\t]]>\r\n      </gim:testCaseXml>\r\n    </gim:UpdateTestCase>\r\n  </soapenv:Body>\r\n</soapenv:Envelope>\r\n"
                },


		{
			"id": "00000000-0000-0000-0000-000000000014",
			"headers": "Content-Type: text/xml\nSOAPAction: http://gimpy.i3domain.inin.com/TCDBWebService/UpdateTestCase\n",
			"url": "http://gimpy.i3domain.inin.com/TCDBWebService/TCDBWebService.asmx",
			"pathVariables": {},
			"preRequestScript": "",
			"method": "POST",
			"collectionId": "00000000-0000-0000-0000-000000000008",
			"data": [],
			"dataMode": "raw",
			"name": "14",
			"description": "",
			"descriptionFormat": "html",
			"time": 1428692568969,
			"version": 2,
			"responses": [],
			"tests": "postman.setGlobalVariable(\"testCaseId\", \"0\");",
			"currentHelper": "normal",
			"helperAttributes": {},
			"collectionOwner": 0,
			"write": true,
			"synced": false,
			"owner": "39537",
			"collection": "00000000-0000-0000-0000-000000000008",
			"rawModeData": "<soapenv:Envelope xmlns:soapenv=\"http://schemas.xmlsoap.org/soap/envelope/\" xmlns:gim=\"http://gimpy.i3domain.inin.com\">\r\n  <soapenv:Header/>\r\n  <soapenv:Body>\r\n    <gim:UpdateTestCase>\r\n      <!--Optional:-->\r\n      <gim:testCaseXml>       \r\n                <![CDATA[         \r\n    <testcases username=\"{{gimpyUsername}}\">\r\n    <testcase codebase=\"PureCloud\" id=\"36624\" name=\"API - Revoke Launch Flow Permission from Nonexistent User\" priority=\"P3\" state=\"Active\">\r\n        <description>Public API test to verify the correct behavior upon revoking the Launch flow permission from a nonexistent user</description>\r\n        <estimatedruntime>0.20</estimatedruntime>\r\n        <assumptions>The API executor is allowed to alter other user's flow permissions.</assumptions>\r\n        <limitations> </limitations>\r\n        <notes> </notes>\r\n        <data> </data>\r\n        <type>Public API Endpoint Only</type>\r\n        <howfound>Tester Input</howfound>\r\n        <targetrelease>PureCloud 1.0GA</targetrelease>\r\n        <pscim>\r\n            <product>PureCloud</product>\r\n        </pscim>\r\n        <teststeps>\r\n            <teststep action=\"Call an endpoint to revoke the Launch flow permission from a user that doesn't exist\" expectedresult=\"A HTTP response is returned indicating the operation failed\"/>\r\n        </teststeps>\r\n    </testcase>\r\n    </testcases>\r\n\t\t]]>\r\n      </gim:testCaseXml>\r\n    </gim:UpdateTestCase>\r\n  </soapenv:Body>\r\n</soapenv:Envelope>\r\n"
                },


		{
			"id": "00000000-0000-0000-0000-000000000015",
			"headers": "Content-Type: text/xml\nSOAPAction: http://gimpy.i3domain.inin.com/TCDBWebService/UpdateTestCase\n",
			"url": "http://gimpy.i3domain.inin.com/TCDBWebService/TCDBWebService.asmx",
			"pathVariables": {},
			"preRequestScript": "",
			"method": "POST",
			"collectionId": "00000000-0000-0000-0000-000000000008",
			"data": [],
			"dataMode": "raw",
			"name": "15",
			"description": "",
			"descriptionFormat": "html",
			"time": 1428692568969,
			"version": 2,
			"responses": [],
			"tests": "postman.setGlobalVariable(\"testCaseId\", \"0\");",
			"currentHelper": "normal",
			"helperAttributes": {},
			"collectionOwner": 0,
			"write": true,
			"synced": false,
			"owner": "39537",
			"collection": "00000000-0000-0000-0000-000000000008",
			"rawModeData": "<soapenv:Envelope xmlns:soapenv=\"http://schemas.xmlsoap.org/soap/envelope/\" xmlns:gim=\"http://gimpy.i3domain.inin.com\">\r\n  <soapenv:Header/>\r\n  <soapenv:Body>\r\n    <gim:UpdateTestCase>\r\n      <!--Optional:-->\r\n      <gim:testCaseXml>       \r\n                <![CDATA[         \r\n    <testcases username=\"{{gimpyUsername}}\">\r\n    <testcase codebase=\"PureCloud\" id=\"36625\" name=\"API - Grant Launch Flow Permission to User\" priority=\"P3\" state=\"Active\">\r\n        <description>Public API test to verify the correct behavior upon granting the Launch flow permission to an user</description>\r\n        <estimatedruntime>0.20</estimatedruntime>\r\n        <assumptions>The API executor is allowed to alter other user's flow permissions.\r\n A user exists whose permission to Launch a flow has been revoked.</assumptions>\r\n        <limitations> </limitations>\r\n        <notes> </notes>\r\n        <data> </data>\r\n        <type>Public API Endpoint Only</type>\r\n        <howfound>Tester Input</howfound>\r\n        <targetrelease>PureCloud 1.0GA</targetrelease>\r\n        <pscim>\r\n            <product>PureCloud</product>\r\n        </pscim>\r\n        <teststeps>\r\n            <teststep action=\"Call an endpoint to grant the Launch flow permission to a user\" expectedresult=\"A HTTP response is returned indicating the operation was a success\"/>\r\n        </teststeps>\r\n    </testcase>\r\n    </testcases>\r\n\t\t]]>\r\n      </gim:testCaseXml>\r\n    </gim:UpdateTestCase>\r\n  </soapenv:Body>\r\n</soapenv:Envelope>\r\n"
                },


		{
			"id": "00000000-0000-0000-0000-000000000016",
			"headers": "Content-Type: text/xml\nSOAPAction: http://gimpy.i3domain.inin.com/TCDBWebService/UpdateTestCase\n",
			"url": "http://gimpy.i3domain.inin.com/TCDBWebService/TCDBWebService.asmx",
			"pathVariables": {},
			"preRequestScript": "",
			"method": "POST",
			"collectionId": "00000000-0000-0000-0000-000000000008",
			"data": [],
			"dataMode": "raw",
			"name": "16",
			"description": "",
			"descriptionFormat": "html",
			"time": 1428692568969,
			"version": 2,
			"responses": [],
			"tests": "postman.setGlobalVariable(\"testCaseId\", \"0\");",
			"currentHelper": "normal",
			"helperAttributes": {},
			"collectionOwner": 0,
			"write": true,
			"synced": false,
			"owner": "39537",
			"collection": "00000000-0000-0000-0000-000000000008",
			"rawModeData": "<soapenv:Envelope xmlns:soapenv=\"http://schemas.xmlsoap.org/soap/envelope/\" xmlns:gim=\"http://gimpy.i3domain.inin.com\">\r\n  <soapenv:Header/>\r\n  <soapenv:Body>\r\n    <gim:UpdateTestCase>\r\n      <!--Optional:-->\r\n      <gim:testCaseXml>       \r\n                <![CDATA[         \r\n    <testcases username=\"{{gimpyUsername}}\">\r\n    <testcase codebase=\"PureCloud\" id=\"36626\" name=\"API - Grant Launch Flow Permission to Nonexistent User\" priority=\"P3\" state=\"Active\">\r\n        <description>Public API test to verify the correct behavior upon granting the Launch flow permission to a nonexistent user</description>\r\n        <estimatedruntime>0.20</estimatedruntime>\r\n        <assumptions>The API executor is allowed to alter other user's flow permissions.</assumptions>\r\n        <limitations> </limitations>\r\n        <notes> </notes>\r\n        <data> </data>\r\n        <type>Public API Endpoint Only</type>\r\n        <howfound>Tester Input</howfound>\r\n        <targetrelease>PureCloud 1.0GA</targetrelease>\r\n        <pscim>\r\n            <product>PureCloud</product>\r\n        </pscim>\r\n        <teststeps>\r\n            <teststep action=\"Call an endpoint to grant the Launch flow permission to a user that doesn't exist\" expectedresult=\"A HTTP response is returned indicating the operation failed\"/>\r\n        </teststeps>\r\n    </testcase>\r\n    </testcases>\r\n\t\t]]>\r\n      </gim:testCaseXml>\r\n    </gim:UpdateTestCase>\r\n  </soapenv:Body>\r\n</soapenv:Envelope>\r\n"
                },


		{
			"id": "00000000-0000-0000-0000-000000000017",
			"headers": "Content-Type: text/xml\nSOAPAction: http://gimpy.i3domain.inin.com/TCDBWebService/UpdateTestCase\n",
			"url": "http://gimpy.i3domain.inin.com/TCDBWebService/TCDBWebService.asmx",
			"pathVariables": {},
			"preRequestScript": "",
			"method": "POST",
			"collectionId": "00000000-0000-0000-0000-000000000008",
			"data": [],
			"dataMode": "raw",
			"name": "17",
			"description": "",
			"descriptionFormat": "html",
			"time": 1428692568969,
			"version": 2,
			"responses": [],
			"tests": "postman.setGlobalVariable(\"testCaseId\", \"0\");",
			"currentHelper": "normal",
			"helperAttributes": {},
			"collectionOwner": 0,
			"write": true,
			"synced": false,
			"owner": "39537",
			"collection": "00000000-0000-0000-0000-000000000008",
			"rawModeData": "<soapenv:Envelope xmlns:soapenv=\"http://schemas.xmlsoap.org/soap/envelope/\" xmlns:gim=\"http://gimpy.i3domain.inin.com\">\r\n  <soapenv:Header/>\r\n  <soapenv:Body>\r\n    <gim:UpdateTestCase>\r\n      <!--Optional:-->\r\n      <gim:testCaseXml>       \r\n                <![CDATA[         \r\n    <testcases username=\"{{gimpyUsername}}\">\r\n    <testcase codebase=\"PureCloud\" id=\"36627\" name=\"API - User is Forbidden to Modify Flow\" priority=\"P1\" state=\"Active\">\r\n        <description>Public API test to verify the correct behavior upon modifying a flow as a user who has been forbidden from doing so.</description>\r\n        <estimatedruntime>0.20</estimatedruntime>\r\n        <assumptions>A user exists whose permission to modify a flow has been revoked.</assumptions>\r\n        <limitations> </limitations>\r\n        <notes> </notes>\r\n        <data> </data>\r\n        <type>Public API Endpoint Only</type>\r\n        <howfound>Tester Input</howfound>\r\n        <targetrelease>PureCloud 1.0GA</targetrelease>\r\n        <pscim>\r\n            <product>PureCloud</product>\r\n        </pscim>\r\n        <teststeps>\r\n            <teststep action=\"Call an endpoint to modify a flow as a user whose modify permission has been revoked\" expectedresult=\"A HTTP response is returned indicating the operation was forbidden\"/>\r\n        </teststeps>\r\n    </testcase>\r\n    </testcases>\r\n\t\t]]>\r\n      </gim:testCaseXml>\r\n    </gim:UpdateTestCase>\r\n  </soapenv:Body>\r\n</soapenv:Envelope>\r\n"
                },


		{
			"id": "00000000-0000-0000-0000-000000000018",
			"headers": "Content-Type: text/xml\nSOAPAction: http://gimpy.i3domain.inin.com/TCDBWebService/UpdateTestCase\n",
			"url": "http://gimpy.i3domain.inin.com/TCDBWebService/TCDBWebService.asmx",
			"pathVariables": {},
			"preRequestScript": "",
			"method": "POST",
			"collectionId": "00000000-0000-0000-0000-000000000008",
			"data": [],
			"dataMode": "raw",
			"name": "18",
			"description": "",
			"descriptionFormat": "html",
			"time": 1428692568969,
			"version": 2,
			"responses": [],
			"tests": "postman.setGlobalVariable(\"testCaseId\", \"0\");",
			"currentHelper": "normal",
			"helperAttributes": {},
			"collectionOwner": 0,
			"write": true,
			"synced": false,
			"owner": "39537",
			"collection": "00000000-0000-0000-0000-000000000008",
			"rawModeData": "<soapenv:Envelope xmlns:soapenv=\"http://schemas.xmlsoap.org/soap/envelope/\" xmlns:gim=\"http://gimpy.i3domain.inin.com\">\r\n  <soapenv:Header/>\r\n  <soapenv:Body>\r\n    <gim:UpdateTestCase>\r\n      <!--Optional:-->\r\n      <gim:testCaseXml>       \r\n                <![CDATA[         \r\n    <testcases username=\"{{gimpyUsername}}\">\r\n    <testcase codebase=\"PureCloud\" id=\"36628\" name=\"API - User is Allowed to Modify Flow\" priority=\"P1\" state=\"Active\">\r\n        <description>Public API test to verify the correct behavior upon modifying a flow as a user who has been granted permission to do so.</description>\r\n        <estimatedruntime>0.20</estimatedruntime>\r\n        <assumptions>A user exists whose permission to modify a flow has been granted.</assumptions>\r\n        <limitations> </limitations>\r\n        <notes> </notes>\r\n        <data> </data>\r\n        <type>Public API Endpoint Only</type>\r\n        <howfound>Tester Input</howfound>\r\n        <targetrelease>PureCloud 1.0GA</targetrelease>\r\n        <pscim>\r\n            <product>PureCloud</product>\r\n        </pscim>\r\n        <teststeps>\r\n            <teststep action=\"Call an endpoint to modify a flow as a user whose modify permission has been granted\" expectedresult=\"A HTTP response is returned indicating the operation was successful\"/>\r\n        </teststeps>\r\n    </testcase>\r\n    </testcases>\r\n\t\t]]>\r\n      </gim:testCaseXml>\r\n    </gim:UpdateTestCase>\r\n  </soapenv:Body>\r\n</soapenv:Envelope>\r\n"
                },


		{
			"id": "00000000-0000-0000-0000-000000000019",
			"headers": "Content-Type: text/xml\nSOAPAction: http://gimpy.i3domain.inin.com/TCDBWebService/UpdateTestCase\n",
			"url": "http://gimpy.i3domain.inin.com/TCDBWebService/TCDBWebService.asmx",
			"pathVariables": {},
			"preRequestScript": "",
			"method": "POST",
			"collectionId": "00000000-0000-0000-0000-000000000008",
			"data": [],
			"dataMode": "raw",
			"name": "19",
			"description": "",
			"descriptionFormat": "html",
			"time": 1428692568969,
			"version": 2,
			"responses": [],
			"tests": "postman.setGlobalVariable(\"testCaseId\", \"0\");",
			"currentHelper": "normal",
			"helperAttributes": {},
			"collectionOwner": 0,
			"write": true,
			"synced": false,
			"owner": "39537",
			"collection": "00000000-0000-0000-0000-000000000008",
			"rawModeData": "<soapenv:Envelope xmlns:soapenv=\"http://schemas.xmlsoap.org/soap/envelope/\" xmlns:gim=\"http://gimpy.i3domain.inin.com\">\r\n  <soapenv:Header/>\r\n  <soapenv:Body>\r\n    <gim:UpdateTestCase>\r\n      <!--Optional:-->\r\n      <gim:testCaseXml>       \r\n                <![CDATA[         \r\n    <testcases username=\"{{gimpyUsername}}\">\r\n    <testcase codebase=\"PureCloud\" id=\"36629\" name=\"API - User is Forbidden to Create Flow\" priority=\"P1\" state=\"Active\">\r\n        <description>Public API test to verify the correct behavior upon creating a flow as a user who has been forbidden from doing so.</description>\r\n        <estimatedruntime>0.20</estimatedruntime>\r\n        <assumptions>A user exists whose permission to create a flow has been revoked.</assumptions>\r\n        <limitations> </limitations>\r\n        <notes> </notes>\r\n        <data> </data>\r\n        <type>Public API Endpoint Only</type>\r\n        <howfound>Tester Input</howfound>\r\n        <targetrelease>PureCloud 1.0GA</targetrelease>\r\n        <pscim>\r\n            <product>PureCloud</product>\r\n        </pscim>\r\n        <teststeps>\r\n            <teststep action=\"Call an endpoint to create a flow as a user whose create permission has been revoked \" expectedresult=\"A HTTP response is returned indicating the operation was forbidden\"/>\r\n        </teststeps>\r\n    </testcase>\r\n    </testcases>\r\n\t\t]]>\r\n      </gim:testCaseXml>\r\n    </gim:UpdateTestCase>\r\n  </soapenv:Body>\r\n</soapenv:Envelope>\r\n"
                },


		{
			"id": "00000000-0000-0000-0000-000000000020",
			"headers": "Content-Type: text/xml\nSOAPAction: http://gimpy.i3domain.inin.com/TCDBWebService/UpdateTestCase\n",
			"url": "http://gimpy.i3domain.inin.com/TCDBWebService/TCDBWebService.asmx",
			"pathVariables": {},
			"preRequestScript": "",
			"method": "POST",
			"collectionId": "00000000-0000-0000-0000-000000000008",
			"data": [],
			"dataMode": "raw",
			"name": "20",
			"description": "",
			"descriptionFormat": "html",
			"time": 1428692568969,
			"version": 2,
			"responses": [],
			"tests": "postman.setGlobalVariable(\"testCaseId\", \"0\");",
			"currentHelper": "normal",
			"helperAttributes": {},
			"collectionOwner": 0,
			"write": true,
			"synced": false,
			"owner": "39537",
			"collection": "00000000-0000-0000-0000-000000000008",
			"rawModeData": "<soapenv:Envelope xmlns:soapenv=\"http://schemas.xmlsoap.org/soap/envelope/\" xmlns:gim=\"http://gimpy.i3domain.inin.com\">\r\n  <soapenv:Header/>\r\n  <soapenv:Body>\r\n    <gim:UpdateTestCase>\r\n      <!--Optional:-->\r\n      <gim:testCaseXml>       \r\n                <![CDATA[         \r\n    <testcases username=\"{{gimpyUsername}}\">\r\n    <testcase codebase=\"PureCloud\" id=\"36630\" name=\"API - User is Allowed to Create Flow\" priority=\"P1\" state=\"Active\">\r\n        <description>Public API test to verify the correct behavior upon creating a flow as a user who has been granted permission to do so.</description>\r\n        <estimatedruntime>0.20</estimatedruntime>\r\n        <assumptions>A user exists whose permission to create a flow has been granted.</assumptions>\r\n        <limitations> </limitations>\r\n        <notes> </notes>\r\n        <data> </data>\r\n        <type>Public API Endpoint Only</type>\r\n        <howfound>Tester Input</howfound>\r\n        <targetrelease>PureCloud 1.0GA</targetrelease>\r\n        <pscim>\r\n            <product>PureCloud</product>\r\n        </pscim>\r\n        <teststeps>\r\n            <teststep action=\"Call an endpoint to create a flow as a user whose create permission has been granted\" expectedresult=\"A HTTP response is returned indicating the operation was successful\"/>\r\n        </teststeps>\r\n    </testcase>\r\n    </testcases>\r\n\t\t]]>\r\n      </gim:testCaseXml>\r\n    </gim:UpdateTestCase>\r\n  </soapenv:Body>\r\n</soapenv:Envelope>\r\n"
                },


		{
			"id": "00000000-0000-0000-0000-000000000021",
			"headers": "Content-Type: text/xml\nSOAPAction: http://gimpy.i3domain.inin.com/TCDBWebService/UpdateTestCase\n",
			"url": "http://gimpy.i3domain.inin.com/TCDBWebService/TCDBWebService.asmx",
			"pathVariables": {},
			"preRequestScript": "",
			"method": "POST",
			"collectionId": "00000000-0000-0000-0000-000000000008",
			"data": [],
			"dataMode": "raw",
			"name": "21",
			"description": "",
			"descriptionFormat": "html",
			"time": 1428692568969,
			"version": 2,
			"responses": [],
			"tests": "postman.setGlobalVariable(\"testCaseId\", \"0\");",
			"currentHelper": "normal",
			"helperAttributes": {},
			"collectionOwner": 0,
			"write": true,
			"synced": false,
			"owner": "39537",
			"collection": "00000000-0000-0000-0000-000000000008",
			"rawModeData": "<soapenv:Envelope xmlns:soapenv=\"http://schemas.xmlsoap.org/soap/envelope/\" xmlns:gim=\"http://gimpy.i3domain.inin.com\">\r\n  <soapenv:Header/>\r\n  <soapenv:Body>\r\n    <gim:UpdateTestCase>\r\n      <!--Optional:-->\r\n      <gim:testCaseXml>       \r\n                <![CDATA[         \r\n    <testcases username=\"{{gimpyUsername}}\">\r\n    <testcase codebase=\"PureCloud\" id=\"36631\" name=\"API - User is Forbidden to View Flow\" priority=\"P1\" state=\"Active\">\r\n        <description>Public API test to verify the correct behavior upon viewing a flow as a user who has been forbidden from doing so.</description>\r\n        <estimatedruntime>0.20</estimatedruntime>\r\n        <assumptions>A user exists whose permission to view a flow has been revoked.</assumptions>\r\n        <limitations> </limitations>\r\n        <notes> </notes>\r\n        <data> </data>\r\n        <type>Public API Endpoint Only</type>\r\n        <howfound>Tester Input</howfound>\r\n        <targetrelease>PureCloud 1.0GA</targetrelease>\r\n        <pscim>\r\n            <product>PureCloud</product>\r\n        </pscim>\r\n        <teststeps>\r\n            <teststep action=\"Call an endpoint to view a flow as a user whose view permission has been revoked \" expectedresult=\"A HTTP response is returned indicating the operation was forbidden\"/>\r\n        </teststeps>\r\n    </testcase>\r\n    </testcases>\r\n\t\t]]>\r\n      </gim:testCaseXml>\r\n    </gim:UpdateTestCase>\r\n  </soapenv:Body>\r\n</soapenv:Envelope>\r\n"
                },


		{
			"id": "00000000-0000-0000-0000-000000000022",
			"headers": "Content-Type: text/xml\nSOAPAction: http://gimpy.i3domain.inin.com/TCDBWebService/UpdateTestCase\n",
			"url": "http://gimpy.i3domain.inin.com/TCDBWebService/TCDBWebService.asmx",
			"pathVariables": {},
			"preRequestScript": "",
			"method": "POST",
			"collectionId": "00000000-0000-0000-0000-000000000008",
			"data": [],
			"dataMode": "raw",
			"name": "22",
			"description": "",
			"descriptionFormat": "html",
			"time": 1428692568969,
			"version": 2,
			"responses": [],
			"tests": "postman.setGlobalVariable(\"testCaseId\", \"0\");",
			"currentHelper": "normal",
			"helperAttributes": {},
			"collectionOwner": 0,
			"write": true,
			"synced": false,
			"owner": "39537",
			"collection": "00000000-0000-0000-0000-000000000008",
			"rawModeData": "<soapenv:Envelope xmlns:soapenv=\"http://schemas.xmlsoap.org/soap/envelope/\" xmlns:gim=\"http://gimpy.i3domain.inin.com\">\r\n  <soapenv:Header/>\r\n  <soapenv:Body>\r\n    <gim:UpdateTestCase>\r\n      <!--Optional:-->\r\n      <gim:testCaseXml>       \r\n                <![CDATA[         \r\n    <testcases username=\"{{gimpyUsername}}\">\r\n    <testcase codebase=\"PureCloud\" id=\"36632\" name=\"API - User is Allowed to View Flow\" priority=\"P1\" state=\"Active\">\r\n        <description>Public API test to verify the correct behavior upon viewing a flow as a user who has been granted permission to do so.</description>\r\n        <estimatedruntime>0.20</estimatedruntime>\r\n        <assumptions>A user exists whose permission to view a flow has been granted.</assumptions>\r\n        <limitations> </limitations>\r\n        <notes> </notes>\r\n        <data> </data>\r\n        <type>Public API Endpoint Only</type>\r\n        <howfound>Tester Input</howfound>\r\n        <targetrelease>PureCloud 1.0GA</targetrelease>\r\n        <pscim>\r\n            <product>PureCloud</product>\r\n        </pscim>\r\n        <teststeps>\r\n            <teststep action=\"Call an endpoint to view a flow as a user whose view permission has been granted\" expectedresult=\"A HTTP response is returned indicating the operation was successful\"/>\r\n        </teststeps>\r\n    </testcase>\r\n    </testcases>\r\n\t\t]]>\r\n      </gim:testCaseXml>\r\n    </gim:UpdateTestCase>\r\n  </soapenv:Body>\r\n</soapenv:Envelope>\r\n"
                },


		{
			"id": "00000000-0000-0000-0000-000000000023",
			"headers": "Content-Type: text/xml\nSOAPAction: http://gimpy.i3domain.inin.com/TCDBWebService/UpdateTestCase\n",
			"url": "http://gimpy.i3domain.inin.com/TCDBWebService/TCDBWebService.asmx",
			"pathVariables": {},
			"preRequestScript": "",
			"method": "POST",
			"collectionId": "00000000-0000-0000-0000-000000000008",
			"data": [],
			"dataMode": "raw",
			"name": "23",
			"description": "",
			"descriptionFormat": "html",
			"time": 1428692568969,
			"version": 2,
			"responses": [],
			"tests": "postman.setGlobalVariable(\"testCaseId\", \"0\");",
			"currentHelper": "normal",
			"helperAttributes": {},
			"collectionOwner": 0,
			"write": true,
			"synced": false,
			"owner": "39537",
			"collection": "00000000-0000-0000-0000-000000000008",
			"rawModeData": "<soapenv:Envelope xmlns:soapenv=\"http://schemas.xmlsoap.org/soap/envelope/\" xmlns:gim=\"http://gimpy.i3domain.inin.com\">\r\n  <soapenv:Header/>\r\n  <soapenv:Body>\r\n    <gim:UpdateTestCase>\r\n      <!--Optional:-->\r\n      <gim:testCaseXml>       \r\n                <![CDATA[         \r\n    <testcases username=\"{{gimpyUsername}}\">\r\n    <testcase codebase=\"PureCloud\" id=\"36633\" name=\"API - User is Forbidden to Launch Flow\" priority=\"P1\" state=\"Active\">\r\n        <description>Public API test to verify the correct behavior upon launching a flow as a user who has been forbidden from doing so.</description>\r\n        <estimatedruntime>0.20</estimatedruntime>\r\n        <assumptions>A user exists whose permission to launch a flow has been revoked.</assumptions>\r\n        <limitations> </limitations>\r\n        <notes> </notes>\r\n        <data> </data>\r\n        <type>Public API Endpoint Only</type>\r\n        <howfound>Tester Input</howfound>\r\n        <targetrelease>PureCloud 1.0GA</targetrelease>\r\n        <pscim>\r\n            <product>PureCloud</product>\r\n        </pscim>\r\n        <teststeps>\r\n            <teststep action=\"Call an endpoint to launch a flow as a user whose launch permission has been revoked \" expectedresult=\"A HTTP response is returned indicating the operation was forbidden\"/>\r\n        </teststeps>\r\n    </testcase>\r\n    </testcases>\r\n\t\t]]>\r\n      </gim:testCaseXml>\r\n    </gim:UpdateTestCase>\r\n  </soapenv:Body>\r\n</soapenv:Envelope>\r\n"
                },


		{
			"id": "00000000-0000-0000-0000-000000000024",
			"headers": "Content-Type: text/xml\nSOAPAction: http://gimpy.i3domain.inin.com/TCDBWebService/UpdateTestCase\n",
			"url": "http://gimpy.i3domain.inin.com/TCDBWebService/TCDBWebService.asmx",
			"pathVariables": {},
			"preRequestScript": "",
			"method": "POST",
			"collectionId": "00000000-0000-0000-0000-000000000008",
			"data": [],
			"dataMode": "raw",
			"name": "24",
			"description": "",
			"descriptionFormat": "html",
			"time": 1428692568969,
			"version": 2,
			"responses": [],
			"tests": "postman.setGlobalVariable(\"testCaseId\", \"0\");",
			"currentHelper": "normal",
			"helperAttributes": {},
			"collectionOwner": 0,
			"write": true,
			"synced": false,
			"owner": "39537",
			"collection": "00000000-0000-0000-0000-000000000008",
			"rawModeData": "<soapenv:Envelope xmlns:soapenv=\"http://schemas.xmlsoap.org/soap/envelope/\" xmlns:gim=\"http://gimpy.i3domain.inin.com\">\r\n  <soapenv:Header/>\r\n  <soapenv:Body>\r\n    <gim:UpdateTestCase>\r\n      <!--Optional:-->\r\n      <gim:testCaseXml>       \r\n                <![CDATA[         \r\n    <testcases username=\"{{gimpyUsername}}\">\r\n    <testcase codebase=\"PureCloud\" id=\"36634\" name=\"API - User is Allowed to Launch Flow\" priority=\"P1\" state=\"Active\">\r\n        <description>Public API test to verify the correct behavior upon launching a flow as a user who has been granted permission to do so.</description>\r\n        <estimatedruntime>0.20</estimatedruntime>\r\n        <assumptions>A user exists whose permission to launch a flow has been granted.</assumptions>\r\n        <limitations> </limitations>\r\n        <notes> </notes>\r\n        <data> </data>\r\n        <type>Public API Endpoint Only</type>\r\n        <howfound>Tester Input</howfound>\r\n        <targetrelease>PureCloud 1.0GA</targetrelease>\r\n        <pscim>\r\n            <product>PureCloud</product>\r\n        </pscim>\r\n        <teststeps>\r\n            <teststep action=\"Call an endpoint to launch a flow as a user whose launch permission has been granted\" expectedresult=\"A HTTP response is returned indicating the operation was successful\"/>\r\n        </teststeps>\r\n    </testcase>\r\n    </testcases>\r\n\t\t]]>\r\n      </gim:testCaseXml>\r\n    </gim:UpdateTestCase>\r\n  </soapenv:Body>\r\n</soapenv:Envelope>\r\n"
                },


