		{
			"id": "itemIDnum",
			"headers": "Authorization: IPC {{auth-dca}}\nININ-Session: {{sess-id}}\nContent-Type: application/json\n",
			"url": "http://configuration.us-east-1.inindca.com/configurations/v1/organizations/8a3a828a-5e49-4cc5-a59b-627a1e36f2f6/users/{{userId_to_delete}}",
			"preRequestScript": "postman.setEnvironmentVariable(\"userId_to_delete\", environment.new_user);",
			"pathVariables": {},
			"method": "DELETE",
			"data": [],
			"dataMode": "raw",
			"version": 2,
			"tests": "if(responseCode.code >= 200 && responseCode.code <= 299){\n    tests[\"User Successfully Deleted!\"]=true;\n}\nelse {\n    tests[responseBody]=false;\n}",
			"currentHelper": "normal",
			"helperAttributes": {},
			"time": 1450888408027,
			"name": "AUTH_DELETE_USER",
			"description": "",
			"collectionId": "00000000-aaaa-0000-0000-0000000000collectionNumber",
			"responses": [],
			"rawModeData": ""
		},