		{
			"id": "itemIDnum",
			"headers": "Authorization: IPC {{auth-dca}}\nININ-Session: {{sess-id}}\nContent-Type: application/json\n",
			"url": "{{server_url_dca}}/api/v1/processautomation/reports/flow/search",
			"preRequestScript": "",
			"pathVariables": {},
			"method": "POST",
			"data": [],
			"dataMode": "raw",
			"version": 2,
			"tests": "if (responseCode.code >= 200 && responseCode.code <= 299) {\r\n    if(responseBody.length > 0) {\r\n        tests[\"Search Report - Results Found\"] = true;\r\n    }\r\n}\r\nelse {\r\n    tests[\"Search Report - 0 Results\"] = false;\r\n}",
			"currentHelper": "normal",
			"helperAttributes": {},
			"time": 1444065147620,
			"name": "SEARCH_FLOW_INSTANCE_REPORTS",
			"description": "",
			"collectionId": "00000000-aaaa-0000-0000-0000000000collectionNumber",
			"responses": [],
			"rawModeData": "{\r\n    \"filters\": [\r\n    {\r\n        \"name\": \"flowExecId\",\r\n        \"type\": \"STRING\",\r\n        \"operator\": \"EQUALS\",\r\n        \"values\": [\r\n            \"{{instance_id}}\"\r\n        ]\r\n    }\r\n    ]\r\n}"
		},