{
	"id": "00000000-aaaa-0000-0000-0000000000collectionNumber",
	"name": "collectionName",
	"description": "",
	"order": [
		collectionString
                "00000000-0000-0000-0000-000000000001",
                "00000000-a12a-0000-0000-000000000007",

	],
	"folders": [],
	"timestamp": 1430491610102,
	"synced": false,
	"owner": "39537",
	"sharedWithTeam": false,
	"subscribed": false,
	"remoteLink": "",
	"public": false,
	"write": true,
	"hasRequests": true,
	"requests": [