		{
			"id": "itemIDnum",
			"headers": "Authorization: IPC {{auth-dca}}\nININ-Session: {{sess-id}}\nContent-Type: application/json\n",
			"url": "{{server_url_dca}}/api/v1/contentmanagement/workspaces/{{current_workspace}}",
			"preRequestScript": "",
			"pathVariables": {},
			"method": "DELETE",
			"data": [],
			"dataMode": "params",
			"version": 2,
			"tests": "if (responseCode.code == 200){\n    \n    tests[\"NULL Delete Workspace\"]=true;\n    \n}\nelse{\n    \n    tests[\"NULL Delete Workspace\"]=false;\n    \n}",
			"currentHelper": "normal",
			"helperAttributes": {},
			"time": 1441825967972,
			"name": "CM_DEL_Workspace",
			"description": "",
			"collectionId": "00000000-aaaa-0000-0000-0000000000collectionNumber",
			"responses": []
		},