		{
			"id": "itemIDnum",
			"headers": "Authorization: IPC {{auth-dca}}\nININ-Session: {{sess-id}}\n",
			"url": "{{server_url_dca}}/api/v1/processautomation/flows/definitions/{{flow-id}}/versions/{{flow-version}}",
			"preRequestScript": "",
			"pathVariables": {},
			"method": "GET",
			"data": [],
			"dataMode": "params",
			"version": 2,
			"tests": "",
			"currentHelper": "normal",
			"helperAttributes": {},
			"time": 1429293925638,
			"name": "GET_FLOW_DEFINITION_VERSION",
			"description": "",
			"collectionId": "00000000-aaaa-0000-0000-0000000000collectionNumber",
			"responses": [],
			"synced": false
		},