	],
	"folders": [],
	"timestamp": 1430491610102,
	"synced": false,
	"owner": "39537",
	"sharedWithTeam": false,
	"subscribed": false,
	"remoteLink": "",
	"public": false,
	"write": true,
	"hasRequests": true,
	"requests": [