		{
			"id": "00000000-0000-0000-0000-000000000001",
			"headers": "Content-Type: text/xml\nSOAPAction: http://gimpy.i3domain.inin.com/TCDBWebService/UpdateTestCase\n",
			"url": "http://gimpy.i3domain.inin.com/TCDBWebService/TCDBWebService.asmx",
			"pathVariables": {},
			"preRequestScript": "",
			"method": "POST",
			"collectionId": "00000000-0000-0000-0000-000000000008",
			"data": [],
			"dataMode": "raw",
			"name": "1",
			"description": "",
			"descriptionFormat": "html",
			"time": 1428692568969,
			"version": 2,
			"responses": [],
			"tests": "postman.setGlobalVariable(\"testCaseId\", \"0\");",
			"currentHelper": "normal",
			"helperAttributes": {},
			"collectionOwner": 0,
			"write": true,
			"synced": false,
			"owner": "39537",
			"collection": "00000000-0000-0000-0000-000000000008",
			"rawModeData": "<soapenv:Envelope xmlns:soapenv=\"http://schemas.xmlsoap.org/soap/envelope/\" xmlns:gim=\"http://gimpy.i3domain.inin.com\">\r\n  <soapenv:Header/>\r\n  <soapenv:Body>\r\n    <gim:UpdateTestCase>\r\n      <!--Optional:-->\r\n      <gim:testCaseXml>       \r\n                <![CDATA[         \r\n    <testcases username=\"{{gimpyUsername}}\">\r\n    <testcase codebase=\"PureCloud\" id=\"36709\" name=\"API - Get All Completed Flows by Base Flow\" priority=\"P3\" state=\"Active\">\r\n        <description>Public API test to verify the correct behavior upon an attempt of retrieving a list of all completed flows of a specified definition, regardless of version.</description>\r\n        <estimatedruntime>0.20</estimatedruntime>\r\n        <assumptions>The user has permission to view flows.\r\n More than one completed flow of the same definition exists.</assumptions>\r\n        <limitations> </limitations>\r\n        <notes> </notes>\r\n        <data> </data>\r\n        <type>Public API Endpoint Only</type>\r\n        <howfound>Tester Input</howfound>\r\n        <targetrelease>PureCloud 1.0GA</targetrelease>\r\n        <pscim>\r\n            <product>PureCloud</product>\r\n        </pscim>\r\n        <teststeps>\r\n            <teststep action=\"Call an endpoint to get all launched flows by base flow that has been completed\" expectedresult=\"A HTTP response is returned with a body that contains all completed instances of the specified flow definition\"/>\r\n        </teststeps>\r\n    </testcase>\r\n    </testcases>\r\n\t\t]]>\r\n      </gim:testCaseXml>\r\n    </gim:UpdateTestCase>\r\n  </soapenv:Body>\r\n</soapenv:Envelope>\r\n"
                },


		{
			"id": "00000000-0000-0000-0000-000000000002",
			"headers": "Content-Type: text/xml\nSOAPAction: http://gimpy.i3domain.inin.com/TCDBWebService/UpdateTestCase\n",
			"url": "http://gimpy.i3domain.inin.com/TCDBWebService/TCDBWebService.asmx",
			"pathVariables": {},
			"preRequestScript": "",
			"method": "POST",
			"collectionId": "00000000-0000-0000-0000-000000000008",
			"data": [],
			"dataMode": "raw",
			"name": "2",
			"description": "",
			"descriptionFormat": "html",
			"time": 1428692568969,
			"version": 2,
			"responses": [],
			"tests": "postman.setGlobalVariable(\"testCaseId\", \"0\");",
			"currentHelper": "normal",
			"helperAttributes": {},
			"collectionOwner": 0,
			"write": true,
			"synced": false,
			"owner": "39537",
			"collection": "00000000-0000-0000-0000-000000000008",
			"rawModeData": "<soapenv:Envelope xmlns:soapenv=\"http://schemas.xmlsoap.org/soap/envelope/\" xmlns:gim=\"http://gimpy.i3domain.inin.com\">\r\n  <soapenv:Header/>\r\n  <soapenv:Body>\r\n    <gim:UpdateTestCase>\r\n      <!--Optional:-->\r\n      <gim:testCaseXml>       \r\n                <![CDATA[         \r\n    <testcases username=\"{{gimpyUsername}}\">\r\n    <testcase codebase=\"PureCloud\" id=\"36710\" name=\"API - Get All Running Flows by Base Flow\" priority=\"P3\" state=\"Active\">\r\n        <description>Public API test to verify the correct behavior upon an attempt of retrieving a list of all running flows of a specified definition, regardless of version.</description>\r\n        <estimatedruntime>0.20</estimatedruntime>\r\n        <assumptions>The user has permission to view flows.\r\n More than one running flow of the same definition exists.</assumptions>\r\n        <limitations> </limitations>\r\n        <notes> </notes>\r\n        <data> </data>\r\n        <type>Public API Endpoint Only</type>\r\n        <howfound>Tester Input</howfound>\r\n        <targetrelease>PureCloud 1.0GA</targetrelease>\r\n        <pscim>\r\n            <product>PureCloud</product>\r\n        </pscim>\r\n        <teststeps>\r\n            <teststep action=\"Call an endpoint to get all launched flows by base flow that is running \" expectedresult=\"A HTTP response is returned with a body that contains all running instances of the specified flow definition\"/>\r\n        </teststeps>\r\n    </testcase>\r\n    </testcases>\r\n\t\t]]>\r\n      </gim:testCaseXml>\r\n    </gim:UpdateTestCase>\r\n  </soapenv:Body>\r\n</soapenv:Envelope>\r\n"
                },


		{
			"id": "00000000-0000-0000-0000-000000000003",
			"headers": "Content-Type: text/xml\nSOAPAction: http://gimpy.i3domain.inin.com/TCDBWebService/UpdateTestCase\n",
			"url": "http://gimpy.i3domain.inin.com/TCDBWebService/TCDBWebService.asmx",
			"pathVariables": {},
			"preRequestScript": "",
			"method": "POST",
			"collectionId": "00000000-0000-0000-0000-000000000008",
			"data": [],
			"dataMode": "raw",
			"name": "3",
			"description": "",
			"descriptionFormat": "html",
			"time": 1428692568969,
			"version": 2,
			"responses": [],
			"tests": "postman.setGlobalVariable(\"testCaseId\", \"0\");",
			"currentHelper": "normal",
			"helperAttributes": {},
			"collectionOwner": 0,
			"write": true,
			"synced": false,
			"owner": "39537",
			"collection": "00000000-0000-0000-0000-000000000008",
			"rawModeData": "<soapenv:Envelope xmlns:soapenv=\"http://schemas.xmlsoap.org/soap/envelope/\" xmlns:gim=\"http://gimpy.i3domain.inin.com\">\r\n  <soapenv:Header/>\r\n  <soapenv:Body>\r\n    <gim:UpdateTestCase>\r\n      <!--Optional:-->\r\n      <gim:testCaseXml>       \r\n                <![CDATA[         \r\n    <testcases username=\"{{gimpyUsername}}\">\r\n    <testcase codebase=\"PureCloud\" id=\"36711\" name=\"API - Get All Canceled Flows by Base Flow\" priority=\"P3\" state=\"Active\">\r\n        <description>Public API test to verify the correct behavior upon an attempt of retrieving a list of all canceled flows of a specified definition, regardless of version.</description>\r\n        <estimatedruntime>0.20</estimatedruntime>\r\n        <assumptions>The user has permission to view flows.\r\n More than one canceled flow of the same definition exists.</assumptions>\r\n        <limitations> </limitations>\r\n        <notes> </notes>\r\n        <data> </data>\r\n        <type>Public API Endpoint Only</type>\r\n        <howfound>Tester Input</howfound>\r\n        <targetrelease>PureCloud 1.0GA</targetrelease>\r\n        <pscim>\r\n            <product>PureCloud</product>\r\n        </pscim>\r\n        <teststeps>\r\n            <teststep action=\"Call an endpoint to get all launched flows by base flow that has been canceled\" expectedresult=\"A HTTP response is returned with a body that contains all canceled instances of the specified flow definition\"/>\r\n        </teststeps>\r\n    </testcase>\r\n    </testcases>\r\n\t\t]]>\r\n      </gim:testCaseXml>\r\n    </gim:UpdateTestCase>\r\n  </soapenv:Body>\r\n</soapenv:Envelope>\r\n"
                },


		{
			"id": "00000000-0000-0000-0000-000000000004",
			"headers": "Content-Type: text/xml\nSOAPAction: http://gimpy.i3domain.inin.com/TCDBWebService/UpdateTestCase\n",
			"url": "http://gimpy.i3domain.inin.com/TCDBWebService/TCDBWebService.asmx",
			"pathVariables": {},
			"preRequestScript": "",
			"method": "POST",
			"collectionId": "00000000-0000-0000-0000-000000000008",
			"data": [],
			"dataMode": "raw",
			"name": "4",
			"description": "",
			"descriptionFormat": "html",
			"time": 1428692568969,
			"version": 2,
			"responses": [],
			"tests": "postman.setGlobalVariable(\"testCaseId\", \"0\");",
			"currentHelper": "normal",
			"helperAttributes": {},
			"collectionOwner": 0,
			"write": true,
			"synced": false,
			"owner": "39537",
			"collection": "00000000-0000-0000-0000-000000000008",
			"rawModeData": "<soapenv:Envelope xmlns:soapenv=\"http://schemas.xmlsoap.org/soap/envelope/\" xmlns:gim=\"http://gimpy.i3domain.inin.com\">\r\n  <soapenv:Header/>\r\n  <soapenv:Body>\r\n    <gim:UpdateTestCase>\r\n      <!--Optional:-->\r\n      <gim:testCaseXml>       \r\n                <![CDATA[         \r\n    <testcases username=\"{{gimpyUsername}}\">\r\n    <testcase codebase=\"PureCloud\" id=\"36712\" name=\"API - Get All Flows in Error by Base Flow\" priority=\"P3\" state=\"Active\">\r\n        <description>Public API test to verify the correct behavior upon an attempt of retrieving a list of all flows in error of a specified definition, regardless of version.</description>\r\n        <estimatedruntime>0.20</estimatedruntime>\r\n        <assumptions>The user has permission to view flows.\r\n More than one flow in error of the same definition exists.</assumptions>\r\n        <limitations> </limitations>\r\n        <notes> </notes>\r\n        <data> </data>\r\n        <type>Public API Endpoint Only</type>\r\n        <howfound>Tester Input</howfound>\r\n        <targetrelease>PureCloud 1.0GA</targetrelease>\r\n        <pscim>\r\n            <product>PureCloud</product>\r\n        </pscim>\r\n        <teststeps>\r\n            <teststep action=\"Call an endpoint to get all launched flows by base flow that has gone to error\" expectedresult=\"A HTTP response is returned with a body that contains all instances in error of the specified flow definition\"/>\r\n        </teststeps>\r\n    </testcase>\r\n    </testcases>\r\n\t\t]]>\r\n      </gim:testCaseXml>\r\n    </gim:UpdateTestCase>\r\n  </soapenv:Body>\r\n</soapenv:Envelope>\r\n"
                },


		{
			"id": "00000000-0000-0000-0000-000000000005",
			"headers": "Content-Type: text/xml\nSOAPAction: http://gimpy.i3domain.inin.com/TCDBWebService/UpdateTestCase\n",
			"url": "http://gimpy.i3domain.inin.com/TCDBWebService/TCDBWebService.asmx",
			"pathVariables": {},
			"preRequestScript": "",
			"method": "POST",
			"collectionId": "00000000-0000-0000-0000-000000000008",
			"data": [],
			"dataMode": "raw",
			"name": "5",
			"description": "",
			"descriptionFormat": "html",
			"time": 1428692568969,
			"version": 2,
			"responses": [],
			"tests": "postman.setGlobalVariable(\"testCaseId\", \"0\");",
			"currentHelper": "normal",
			"helperAttributes": {},
			"collectionOwner": 0,
			"write": true,
			"synced": false,
			"owner": "39537",
			"collection": "00000000-0000-0000-0000-000000000008",
			"rawModeData": "<soapenv:Envelope xmlns:soapenv=\"http://schemas.xmlsoap.org/soap/envelope/\" xmlns:gim=\"http://gimpy.i3domain.inin.com\">\r\n  <soapenv:Header/>\r\n  <soapenv:Body>\r\n    <gim:UpdateTestCase>\r\n      <!--Optional:-->\r\n      <gim:testCaseXml>       \r\n                <![CDATA[         \r\n    <testcases username=\"{{gimpyUsername}}\">\r\n    <testcase codebase=\"PureCloud\" id=\"36713\" name=\"API - Get All Completed Flows by Version\" priority=\"P2\" state=\"Active\">\r\n        <description>Public API test to verify the correct behavior upon an attempt of retrieving a list of all completed flows of a specified version of a specified definition.</description>\r\n        <estimatedruntime>0.20</estimatedruntime>\r\n        <assumptions>The user has permission to view flows.\r\n An even distribution of at least two versions and four completed flows of the same definition exists.</assumptions>\r\n        <limitations> </limitations>\r\n        <notes> </notes>\r\n        <data> </data>\r\n        <type>Public API Endpoint Only</type>\r\n        <howfound>Tester Input</howfound>\r\n        <targetrelease>PureCloud 1.0GA</targetrelease>\r\n        <pscim>\r\n            <product>PureCloud</product>\r\n        </pscim>\r\n        <teststeps>\r\n            <teststep action=\"Call an endpoint to get all launched flows by version that has been completed\" expectedresult=\"A HTTP response is returned with a body that contains all completed instances of the specified version of the specified flow definition\"/>\r\n        </teststeps>\r\n    </testcase>\r\n    </testcases>\r\n\t\t]]>\r\n      </gim:testCaseXml>\r\n    </gim:UpdateTestCase>\r\n  </soapenv:Body>\r\n</soapenv:Envelope>\r\n"
                },


		{
			"id": "00000000-0000-0000-0000-000000000006",
			"headers": "Content-Type: text/xml\nSOAPAction: http://gimpy.i3domain.inin.com/TCDBWebService/UpdateTestCase\n",
			"url": "http://gimpy.i3domain.inin.com/TCDBWebService/TCDBWebService.asmx",
			"pathVariables": {},
			"preRequestScript": "",
			"method": "POST",
			"collectionId": "00000000-0000-0000-0000-000000000008",
			"data": [],
			"dataMode": "raw",
			"name": "6",
			"description": "",
			"descriptionFormat": "html",
			"time": 1428692568969,
			"version": 2,
			"responses": [],
			"tests": "postman.setGlobalVariable(\"testCaseId\", \"0\");",
			"currentHelper": "normal",
			"helperAttributes": {},
			"collectionOwner": 0,
			"write": true,
			"synced": false,
			"owner": "39537",
			"collection": "00000000-0000-0000-0000-000000000008",
			"rawModeData": "<soapenv:Envelope xmlns:soapenv=\"http://schemas.xmlsoap.org/soap/envelope/\" xmlns:gim=\"http://gimpy.i3domain.inin.com\">\r\n  <soapenv:Header/>\r\n  <soapenv:Body>\r\n    <gim:UpdateTestCase>\r\n      <!--Optional:-->\r\n      <gim:testCaseXml>       \r\n                <![CDATA[         \r\n    <testcases username=\"{{gimpyUsername}}\">\r\n    <testcase codebase=\"PureCloud\" id=\"36714\" name=\"API - Get All Running Flows by Version\" priority=\"P2\" state=\"Active\">\r\n        <description>Public API test to verify the correct behavior upon an attempt of retrieving a list of all running flows of a specified version of a specified definition.</description>\r\n        <estimatedruntime>0.20</estimatedruntime>\r\n        <assumptions>The user has permission to view flows.\r\n An even distribution of at least two versions and four running flows of the same definition exists.</assumptions>\r\n        <limitations> </limitations>\r\n        <notes> </notes>\r\n        <data> </data>\r\n        <type>Public API Endpoint Only</type>\r\n        <howfound>Tester Input</howfound>\r\n        <targetrelease>PureCloud 1.0GA</targetrelease>\r\n        <pscim>\r\n            <product>PureCloud</product>\r\n        </pscim>\r\n        <teststeps>\r\n            <teststep action=\"Call an endpoint to get all launched flows by version that is running\" expectedresult=\"A HTTP response is returned with a body that contains all running instances of the specified version of the specified flow definition\"/>\r\n        </teststeps>\r\n    </testcase>\r\n    </testcases>\r\n\t\t]]>\r\n      </gim:testCaseXml>\r\n    </gim:UpdateTestCase>\r\n  </soapenv:Body>\r\n</soapenv:Envelope>\r\n"
                },


		{
			"id": "00000000-0000-0000-0000-000000000007",
			"headers": "Content-Type: text/xml\nSOAPAction: http://gimpy.i3domain.inin.com/TCDBWebService/UpdateTestCase\n",
			"url": "http://gimpy.i3domain.inin.com/TCDBWebService/TCDBWebService.asmx",
			"pathVariables": {},
			"preRequestScript": "",
			"method": "POST",
			"collectionId": "00000000-0000-0000-0000-000000000008",
			"data": [],
			"dataMode": "raw",
			"name": "7",
			"description": "",
			"descriptionFormat": "html",
			"time": 1428692568969,
			"version": 2,
			"responses": [],
			"tests": "postman.setGlobalVariable(\"testCaseId\", \"0\");",
			"currentHelper": "normal",
			"helperAttributes": {},
			"collectionOwner": 0,
			"write": true,
			"synced": false,
			"owner": "39537",
			"collection": "00000000-0000-0000-0000-000000000008",
			"rawModeData": "<soapenv:Envelope xmlns:soapenv=\"http://schemas.xmlsoap.org/soap/envelope/\" xmlns:gim=\"http://gimpy.i3domain.inin.com\">\r\n  <soapenv:Header/>\r\n  <soapenv:Body>\r\n    <gim:UpdateTestCase>\r\n      <!--Optional:-->\r\n      <gim:testCaseXml>       \r\n                <![CDATA[         \r\n    <testcases username=\"{{gimpyUsername}}\">\r\n    <testcase codebase=\"PureCloud\" id=\"36716\" name=\"API - Get All Canceled Flows by Version\" priority=\"P2\" state=\"Active\">\r\n        <description>Public API test to verify the correct behavior upon an attempt of retrieving a list of all canceled flows of a specified version of a specified definition.</description>\r\n        <estimatedruntime>0.20</estimatedruntime>\r\n        <assumptions>The user has permission to view flows.\r\n An even distribution of at least two versions and four canceled flows of the same definition exists.</assumptions>\r\n        <limitations> </limitations>\r\n        <notes> </notes>\r\n        <data> </data>\r\n        <type>Public API Endpoint Only</type>\r\n        <howfound>Tester Input</howfound>\r\n        <targetrelease>PureCloud 1.0GA</targetrelease>\r\n        <pscim>\r\n            <product>PureCloud</product>\r\n        </pscim>\r\n        <teststeps>\r\n            <teststep action=\"Call an endpoint to get all launched flows by version that has been canceled\" expectedresult=\"A HTTP response is returned with a body that contains all canceled instances of the specified version of the specified flow definition\"/>\r\n        </teststeps>\r\n    </testcase>\r\n    </testcases>\r\n\t\t]]>\r\n      </gim:testCaseXml>\r\n    </gim:UpdateTestCase>\r\n  </soapenv:Body>\r\n</soapenv:Envelope>\r\n"
                },


		{
			"id": "00000000-0000-0000-0000-000000000008",
			"headers": "Content-Type: text/xml\nSOAPAction: http://gimpy.i3domain.inin.com/TCDBWebService/UpdateTestCase\n",
			"url": "http://gimpy.i3domain.inin.com/TCDBWebService/TCDBWebService.asmx",
			"pathVariables": {},
			"preRequestScript": "",
			"method": "POST",
			"collectionId": "00000000-0000-0000-0000-000000000008",
			"data": [],
			"dataMode": "raw",
			"name": "8",
			"description": "",
			"descriptionFormat": "html",
			"time": 1428692568969,
			"version": 2,
			"responses": [],
			"tests": "postman.setGlobalVariable(\"testCaseId\", \"0\");",
			"currentHelper": "normal",
			"helperAttributes": {},
			"collectionOwner": 0,
			"write": true,
			"synced": false,
			"owner": "39537",
			"collection": "00000000-0000-0000-0000-000000000008",
			"rawModeData": "<soapenv:Envelope xmlns:soapenv=\"http://schemas.xmlsoap.org/soap/envelope/\" xmlns:gim=\"http://gimpy.i3domain.inin.com\">\r\n  <soapenv:Header/>\r\n  <soapenv:Body>\r\n    <gim:UpdateTestCase>\r\n      <!--Optional:-->\r\n      <gim:testCaseXml>       \r\n                <![CDATA[         \r\n    <testcases username=\"{{gimpyUsername}}\">\r\n    <testcase codebase=\"PureCloud\" id=\"36717\" name=\"API - Get All Flows in Error by Version\" priority=\"P2\" state=\"Active\">\r\n        <description>Public API test to verify the correct behavior upon an attempt of retrieving a list of all flows in error of a specified version of a specified definition.</description>\r\n        <estimatedruntime>0.20</estimatedruntime>\r\n        <assumptions>The user has permission to view flows.\r\n An even distribution of at least two versions and four flows in error of the same definition exists.</assumptions>\r\n        <limitations> </limitations>\r\n        <notes> </notes>\r\n        <data> </data>\r\n        <type>Public API Endpoint Only</type>\r\n        <howfound>Tester Input</howfound>\r\n        <targetrelease>PureCloud 1.0GA</targetrelease>\r\n        <pscim>\r\n            <product>PureCloud</product>\r\n        </pscim>\r\n        <teststeps>\r\n            <teststep action=\"Call an endpoint to get all launched flows by version that has gone to error\" expectedresult=\"A HTTP response is returned with a body that contains all instances in error of the specified version of the specified flow definition\"/>\r\n        </teststeps>\r\n    </testcase>\r\n    </testcases>\r\n\t\t]]>\r\n      </gim:testCaseXml>\r\n    </gim:UpdateTestCase>\r\n  </soapenv:Body>\r\n</soapenv:Envelope>\r\n"
                },


		{
			"id": "00000000-0000-0000-0000-000000000009",
			"headers": "Content-Type: text/xml\nSOAPAction: http://gimpy.i3domain.inin.com/TCDBWebService/UpdateTestCase\n",
			"url": "http://gimpy.i3domain.inin.com/TCDBWebService/TCDBWebService.asmx",
			"pathVariables": {},
			"preRequestScript": "",
			"method": "POST",
			"collectionId": "00000000-0000-0000-0000-000000000008",
			"data": [],
			"dataMode": "raw",
			"name": "9",
			"description": "",
			"descriptionFormat": "html",
			"time": 1428692568969,
			"version": 2,
			"responses": [],
			"tests": "postman.setGlobalVariable(\"testCaseId\", \"0\");",
			"currentHelper": "normal",
			"helperAttributes": {},
			"collectionOwner": 0,
			"write": true,
			"synced": false,
			"owner": "39537",
			"collection": "00000000-0000-0000-0000-000000000008",
			"rawModeData": "<soapenv:Envelope xmlns:soapenv=\"http://schemas.xmlsoap.org/soap/envelope/\" xmlns:gim=\"http://gimpy.i3domain.inin.com\">\r\n  <soapenv:Header/>\r\n  <soapenv:Body>\r\n    <gim:UpdateTestCase>\r\n      <!--Optional:-->\r\n      <gim:testCaseXml>       \r\n                <![CDATA[         \r\n    <testcases username=\"{{gimpyUsername}}\">\r\n    <testcase codebase=\"PureCloud\" id=\"36718\" name=\"API - Get Completed Flow by ID\" priority=\"P2\" state=\"Active\">\r\n        <description>Public API test to verify the correct behavior upon an attempt of retrieving a completed flow by ID</description>\r\n        <estimatedruntime>0.20</estimatedruntime>\r\n        <assumptions>The user has permission to view a flow.\r\n A completed flow exists.</assumptions>\r\n        <limitations> </limitations>\r\n        <notes> </notes>\r\n        <data> </data>\r\n        <type>Public API Endpoint Only</type>\r\n        <howfound>Tester Input</howfound>\r\n        <targetrelease>PureCloud 1.0GA</targetrelease>\r\n        <pscim>\r\n            <product>PureCloud</product>\r\n        </pscim>\r\n        <teststeps>\r\n            <teststep action=\"Call an endpoint to get a launched flow by ID that has been completed\" expectedresult=\"A HTTP response is returned with a body that contains the specified Flow ID which has been completed\"/>\r\n        </teststeps>\r\n    </testcase>\r\n    </testcases>\r\n\t\t]]>\r\n      </gim:testCaseXml>\r\n    </gim:UpdateTestCase>\r\n  </soapenv:Body>\r\n</soapenv:Envelope>\r\n"
                },


		{
			"id": "00000000-0000-0000-0000-000000000010",
			"headers": "Content-Type: text/xml\nSOAPAction: http://gimpy.i3domain.inin.com/TCDBWebService/UpdateTestCase\n",
			"url": "http://gimpy.i3domain.inin.com/TCDBWebService/TCDBWebService.asmx",
			"pathVariables": {},
			"preRequestScript": "",
			"method": "POST",
			"collectionId": "00000000-0000-0000-0000-000000000008",
			"data": [],
			"dataMode": "raw",
			"name": "10",
			"description": "",
			"descriptionFormat": "html",
			"time": 1428692568969,
			"version": 2,
			"responses": [],
			"tests": "postman.setGlobalVariable(\"testCaseId\", \"0\");",
			"currentHelper": "normal",
			"helperAttributes": {},
			"collectionOwner": 0,
			"write": true,
			"synced": false,
			"owner": "39537",
			"collection": "00000000-0000-0000-0000-000000000008",
			"rawModeData": "<soapenv:Envelope xmlns:soapenv=\"http://schemas.xmlsoap.org/soap/envelope/\" xmlns:gim=\"http://gimpy.i3domain.inin.com\">\r\n  <soapenv:Header/>\r\n  <soapenv:Body>\r\n    <gim:UpdateTestCase>\r\n      <!--Optional:-->\r\n      <gim:testCaseXml>       \r\n                <![CDATA[         \r\n    <testcases username=\"{{gimpyUsername}}\">\r\n    <testcase codebase=\"PureCloud\" id=\"36719\" name=\"API - Get Running Flow by ID\" priority=\"P2\" state=\"Active\">\r\n        <description>Public API test to verify the correct behavior upon an attempt of retrieving a running flow by ID</description>\r\n        <estimatedruntime>0.20</estimatedruntime>\r\n        <assumptions>The user has permission to view a flow.\r\n A running flow exists.</assumptions>\r\n        <limitations> </limitations>\r\n        <notes> </notes>\r\n        <data> </data>\r\n        <type>Public API Endpoint Only</type>\r\n        <howfound>Tester Input</howfound>\r\n        <targetrelease>PureCloud 1.0GA</targetrelease>\r\n        <pscim>\r\n            <product>PureCloud</product>\r\n        </pscim>\r\n        <teststeps>\r\n            <teststep action=\"Call an endpoint to get a launched flow by ID that is running\" expectedresult=\"A HTTP response is returned with a body that contains the specified Flow ID which is running\"/>\r\n        </teststeps>\r\n    </testcase>\r\n    </testcases>\r\n\t\t]]>\r\n      </gim:testCaseXml>\r\n    </gim:UpdateTestCase>\r\n  </soapenv:Body>\r\n</soapenv:Envelope>\r\n"
                },


		{
			"id": "00000000-0000-0000-0000-000000000011",
			"headers": "Content-Type: text/xml\nSOAPAction: http://gimpy.i3domain.inin.com/TCDBWebService/UpdateTestCase\n",
			"url": "http://gimpy.i3domain.inin.com/TCDBWebService/TCDBWebService.asmx",
			"pathVariables": {},
			"preRequestScript": "",
			"method": "POST",
			"collectionId": "00000000-0000-0000-0000-000000000008",
			"data": [],
			"dataMode": "raw",
			"name": "11",
			"description": "",
			"descriptionFormat": "html",
			"time": 1428692568969,
			"version": 2,
			"responses": [],
			"tests": "postman.setGlobalVariable(\"testCaseId\", \"0\");",
			"currentHelper": "normal",
			"helperAttributes": {},
			"collectionOwner": 0,
			"write": true,
			"synced": false,
			"owner": "39537",
			"collection": "00000000-0000-0000-0000-000000000008",
			"rawModeData": "<soapenv:Envelope xmlns:soapenv=\"http://schemas.xmlsoap.org/soap/envelope/\" xmlns:gim=\"http://gimpy.i3domain.inin.com\">\r\n  <soapenv:Header/>\r\n  <soapenv:Body>\r\n    <gim:UpdateTestCase>\r\n      <!--Optional:-->\r\n      <gim:testCaseXml>       \r\n                <![CDATA[         \r\n    <testcases username=\"{{gimpyUsername}}\">\r\n    <testcase codebase=\"PureCloud\" id=\"36720\" name=\"API - Get Canceled Flow by ID\" priority=\"P2\" state=\"Active\">\r\n        <description>Public API test to verify the correct behavior upon an attempt of retrieving a canceled flow by ID</description>\r\n        <estimatedruntime>0.20</estimatedruntime>\r\n        <assumptions>The user has permission to view a flow.\r\n A canceled flow exists.</assumptions>\r\n        <limitations> </limitations>\r\n        <notes> </notes>\r\n        <data> </data>\r\n        <type>Public API Endpoint Only</type>\r\n        <howfound>Tester Input</howfound>\r\n        <targetrelease>PureCloud 1.0GA</targetrelease>\r\n        <pscim>\r\n            <product>PureCloud</product>\r\n        </pscim>\r\n        <teststeps>\r\n            <teststep action=\"Call an endpoint to get a launched flow by ID that has been canceled \" expectedresult=\"A HTTP response is returned with a body that contains the specified Flow ID which has been canceled\"/>\r\n        </teststeps>\r\n    </testcase>\r\n    </testcases>\r\n\t\t]]>\r\n      </gim:testCaseXml>\r\n    </gim:UpdateTestCase>\r\n  </soapenv:Body>\r\n</soapenv:Envelope>\r\n"
                },


		{
			"id": "00000000-0000-0000-0000-000000000012",
			"headers": "Content-Type: text/xml\nSOAPAction: http://gimpy.i3domain.inin.com/TCDBWebService/UpdateTestCase\n",
			"url": "http://gimpy.i3domain.inin.com/TCDBWebService/TCDBWebService.asmx",
			"pathVariables": {},
			"preRequestScript": "",
			"method": "POST",
			"collectionId": "00000000-0000-0000-0000-000000000008",
			"data": [],
			"dataMode": "raw",
			"name": "12",
			"description": "",
			"descriptionFormat": "html",
			"time": 1428692568969,
			"version": 2,
			"responses": [],
			"tests": "postman.setGlobalVariable(\"testCaseId\", \"0\");",
			"currentHelper": "normal",
			"helperAttributes": {},
			"collectionOwner": 0,
			"write": true,
			"synced": false,
			"owner": "39537",
			"collection": "00000000-0000-0000-0000-000000000008",
			"rawModeData": "<soapenv:Envelope xmlns:soapenv=\"http://schemas.xmlsoap.org/soap/envelope/\" xmlns:gim=\"http://gimpy.i3domain.inin.com\">\r\n  <soapenv:Header/>\r\n  <soapenv:Body>\r\n    <gim:UpdateTestCase>\r\n      <!--Optional:-->\r\n      <gim:testCaseXml>       \r\n                <![CDATA[         \r\n    <testcases username=\"{{gimpyUsername}}\">\r\n    <testcase codebase=\"PureCloud\" id=\"36721\" name=\"API - Get Flow in Error by ID\" priority=\"P2\" state=\"Active\">\r\n        <description>Public API test to verify the correct behavior upon an attempt of retrieving a flow in error by ID</description>\r\n        <estimatedruntime>0.20</estimatedruntime>\r\n        <assumptions>The user has permission to view a flow.\r\n A flow in error exists.</assumptions>\r\n        <limitations> </limitations>\r\n        <notes> </notes>\r\n        <data> </data>\r\n        <type>Public API Endpoint Only</type>\r\n        <howfound>Tester Input</howfound>\r\n        <targetrelease>PureCloud 1.0GA</targetrelease>\r\n        <pscim>\r\n            <product>PureCloud</product>\r\n        </pscim>\r\n        <teststeps>\r\n            <teststep action=\"Call an endpoint to get a launched flow by ID that has gone to error\" expectedresult=\"A HTTP response is returned with a body that contains the specified Flow ID which has gone to error\"/>\r\n        </teststeps>\r\n    </testcase>\r\n    </testcases>\r\n\t\t]]>\r\n      </gim:testCaseXml>\r\n    </gim:UpdateTestCase>\r\n  </soapenv:Body>\r\n</soapenv:Envelope>\r\n"
                },


		{
			"id": "00000000-0000-0000-0000-000000000013",
			"headers": "Content-Type: text/xml\nSOAPAction: http://gimpy.i3domain.inin.com/TCDBWebService/UpdateTestCase\n",
			"url": "http://gimpy.i3domain.inin.com/TCDBWebService/TCDBWebService.asmx",
			"pathVariables": {},
			"preRequestScript": "",
			"method": "POST",
			"collectionId": "00000000-0000-0000-0000-000000000008",
			"data": [],
			"dataMode": "raw",
			"name": "13",
			"description": "",
			"descriptionFormat": "html",
			"time": 1428692568969,
			"version": 2,
			"responses": [],
			"tests": "postman.setGlobalVariable(\"testCaseId\", \"0\");",
			"currentHelper": "normal",
			"helperAttributes": {},
			"collectionOwner": 0,
			"write": true,
			"synced": false,
			"owner": "39537",
			"collection": "00000000-0000-0000-0000-000000000008",
			"rawModeData": "<soapenv:Envelope xmlns:soapenv=\"http://schemas.xmlsoap.org/soap/envelope/\" xmlns:gim=\"http://gimpy.i3domain.inin.com\">\r\n  <soapenv:Header/>\r\n  <soapenv:Body>\r\n    <gim:UpdateTestCase>\r\n      <!--Optional:-->\r\n      <gim:testCaseXml>       \r\n                <![CDATA[         \r\n    <testcases username=\"{{gimpyUsername}}\">\r\n    <testcase codebase=\"PureCloud\" id=\"36722\" name=\"API - Get Subset of Running Flows and Sort Ascending by Launching User\" priority=\"P3\" state=\"Active\">\r\n        <description>Public API test to verify the correct behavior upon an attempt of retrieving a subset of running flows and sorting ascending by user who launched the flow</description>\r\n        <estimatedruntime>0.20</estimatedruntime>\r\n        <assumptions>The user has permission to view a flow.\r\n More than five running flows exists.\r\n More than one user who launched a flow exists.</assumptions>\r\n        <limitations> </limitations>\r\n        <notes> </notes>\r\n        <data> </data>\r\n        <type>Public API Endpoint Only</type>\r\n        <howfound>Tester Input</howfound>\r\n        <targetrelease>PureCloud 1.0GA</targetrelease>\r\n        <pscim>\r\n            <product>PureCloud</product>\r\n        </pscim>\r\n        <teststeps>\r\n            <teststep action=\"Call an endpoint to get all running flows limit 5 per page, sort by user who launched the flow ascending\" expectedresult=\"A HTTP response is returned with a body that contains all running flows, 5 per page, sorted ascending by the launching user\"/>\r\n        </teststeps>\r\n    </testcase>\r\n    </testcases>\r\n\t\t]]>\r\n      </gim:testCaseXml>\r\n    </gim:UpdateTestCase>\r\n  </soapenv:Body>\r\n</soapenv:Envelope>\r\n"
                },


		{
			"id": "00000000-0000-0000-0000-000000000014",
			"headers": "Content-Type: text/xml\nSOAPAction: http://gimpy.i3domain.inin.com/TCDBWebService/UpdateTestCase\n",
			"url": "http://gimpy.i3domain.inin.com/TCDBWebService/TCDBWebService.asmx",
			"pathVariables": {},
			"preRequestScript": "",
			"method": "POST",
			"collectionId": "00000000-0000-0000-0000-000000000008",
			"data": [],
			"dataMode": "raw",
			"name": "14",
			"description": "",
			"descriptionFormat": "html",
			"time": 1428692568969,
			"version": 2,
			"responses": [],
			"tests": "postman.setGlobalVariable(\"testCaseId\", \"0\");",
			"currentHelper": "normal",
			"helperAttributes": {},
			"collectionOwner": 0,
			"write": true,
			"synced": false,
			"owner": "39537",
			"collection": "00000000-0000-0000-0000-000000000008",
			"rawModeData": "<soapenv:Envelope xmlns:soapenv=\"http://schemas.xmlsoap.org/soap/envelope/\" xmlns:gim=\"http://gimpy.i3domain.inin.com\">\r\n  <soapenv:Header/>\r\n  <soapenv:Body>\r\n    <gim:UpdateTestCase>\r\n      <!--Optional:-->\r\n      <gim:testCaseXml>       \r\n                <![CDATA[         \r\n    <testcases username=\"{{gimpyUsername}}\">\r\n    <testcase codebase=\"PureCloud\" id=\"36723\" name=\"API - Get Subset of Cancelled Flows and Sort Ascending by Launching User\" priority=\"P3\" state=\"Active\">\r\n        <description>Public API test to verify the correct behavior upon an attempt of retrieving a subset of cancelled flows and sorting ascending by user who launched the flow</description>\r\n        <estimatedruntime>0.20</estimatedruntime>\r\n        <assumptions>The user has permission to view a flow.\r\n More than five cancelled flows exists.\r\n More than one user who launched a flow exists.</assumptions>\r\n        <limitations> </limitations>\r\n        <notes> </notes>\r\n        <data> </data>\r\n        <type>Public API Endpoint Only</type>\r\n        <howfound>Tester Input</howfound>\r\n        <targetrelease>PureCloud 1.0GA</targetrelease>\r\n        <pscim>\r\n            <product>PureCloud</product>\r\n        </pscim>\r\n        <teststeps>\r\n            <teststep action=\"Call an endpoint to get all cancelled flows limit 5 per page, sort by user who launched the flow ascending\" expectedresult=\"A HTTP response is returned with a body that contains all cancelled flows, 5 per page, sorted ascending by the launching user\"/>\r\n        </teststeps>\r\n    </testcase>\r\n    </testcases>\r\n\t\t]]>\r\n      </gim:testCaseXml>\r\n    </gim:UpdateTestCase>\r\n  </soapenv:Body>\r\n</soapenv:Envelope>\r\n"
                },


		{
			"id": "00000000-0000-0000-0000-000000000015",
			"headers": "Content-Type: text/xml\nSOAPAction: http://gimpy.i3domain.inin.com/TCDBWebService/UpdateTestCase\n",
			"url": "http://gimpy.i3domain.inin.com/TCDBWebService/TCDBWebService.asmx",
			"pathVariables": {},
			"preRequestScript": "",
			"method": "POST",
			"collectionId": "00000000-0000-0000-0000-000000000008",
			"data": [],
			"dataMode": "raw",
			"name": "15",
			"description": "",
			"descriptionFormat": "html",
			"time": 1428692568969,
			"version": 2,
			"responses": [],
			"tests": "postman.setGlobalVariable(\"testCaseId\", \"0\");",
			"currentHelper": "normal",
			"helperAttributes": {},
			"collectionOwner": 0,
			"write": true,
			"synced": false,
			"owner": "39537",
			"collection": "00000000-0000-0000-0000-000000000008",
			"rawModeData": "<soapenv:Envelope xmlns:soapenv=\"http://schemas.xmlsoap.org/soap/envelope/\" xmlns:gim=\"http://gimpy.i3domain.inin.com\">\r\n  <soapenv:Header/>\r\n  <soapenv:Body>\r\n    <gim:UpdateTestCase>\r\n      <!--Optional:-->\r\n      <gim:testCaseXml>       \r\n                <![CDATA[         \r\n    <testcases username=\"{{gimpyUsername}}\">\r\n    <testcase codebase=\"PureCloud\" id=\"36724\" name=\"API - Get Subset of Flows in Error and Sort Ascending by Launching User\" priority=\"P3\" state=\"Active\">\r\n        <description>Public API test to verify the correct behavior upon an attempt of retrieving a subset of flows in error and sorting ascending by user who launched the flow</description>\r\n        <estimatedruntime>0.20</estimatedruntime>\r\n        <assumptions>The user has permission to view a flow.\r\n More than five flows in error exists.\r\n More than one user who launched a flow exists.</assumptions>\r\n        <limitations> </limitations>\r\n        <notes> </notes>\r\n        <data> </data>\r\n        <type>Public API Endpoint Only</type>\r\n        <howfound>Tester Input</howfound>\r\n        <targetrelease>PureCloud 1.0GA</targetrelease>\r\n        <pscim>\r\n            <product>PureCloud</product>\r\n        </pscim>\r\n        <teststeps>\r\n            <teststep action=\"Call an endpoint to get all flow in error limit 5 per page, sort by user who launched the flow ascending\" expectedresult=\"A HTTP response is returned with a body that contains all flows in error, 5 per page, sorted ascending by the launching user\"/>\r\n        </teststeps>\r\n    </testcase>\r\n    </testcases>\r\n\t\t]]>\r\n      </gim:testCaseXml>\r\n    </gim:UpdateTestCase>\r\n  </soapenv:Body>\r\n</soapenv:Envelope>\r\n"
                },


		{
			"id": "00000000-0000-0000-0000-000000000016",
			"headers": "Content-Type: text/xml\nSOAPAction: http://gimpy.i3domain.inin.com/TCDBWebService/UpdateTestCase\n",
			"url": "http://gimpy.i3domain.inin.com/TCDBWebService/TCDBWebService.asmx",
			"pathVariables": {},
			"preRequestScript": "",
			"method": "POST",
			"collectionId": "00000000-0000-0000-0000-000000000008",
			"data": [],
			"dataMode": "raw",
			"name": "16",
			"description": "",
			"descriptionFormat": "html",
			"time": 1428692568969,
			"version": 2,
			"responses": [],
			"tests": "postman.setGlobalVariable(\"testCaseId\", \"0\");",
			"currentHelper": "normal",
			"helperAttributes": {},
			"collectionOwner": 0,
			"write": true,
			"synced": false,
			"owner": "39537",
			"collection": "00000000-0000-0000-0000-000000000008",
			"rawModeData": "<soapenv:Envelope xmlns:soapenv=\"http://schemas.xmlsoap.org/soap/envelope/\" xmlns:gim=\"http://gimpy.i3domain.inin.com\">\r\n  <soapenv:Header/>\r\n  <soapenv:Body>\r\n    <gim:UpdateTestCase>\r\n      <!--Optional:-->\r\n      <gim:testCaseXml>       \r\n                <![CDATA[         \r\n    <testcases username=\"{{gimpyUsername}}\">\r\n    <testcase codebase=\"PureCloud\" id=\"36725\" name=\"API - Get Subset of Completed Flows and Sort Ascending by Launching User\" priority=\"P3\" state=\"Active\">\r\n        <description>Public API test to verify the correct behavior upon an attempt of retrieving a subset of completed flows and sorting ascending by user who launched the flow</description>\r\n        <estimatedruntime>0.20</estimatedruntime>\r\n        <assumptions>The user has permission to view a flow.\r\n More than five completed flows exists.\r\n More than one user who launched a flow exists.</assumptions>\r\n        <limitations> </limitations>\r\n        <notes> </notes>\r\n        <data> </data>\r\n        <type>Public API Endpoint Only</type>\r\n        <howfound>Tester Input</howfound>\r\n        <targetrelease>PureCloud 1.0GA</targetrelease>\r\n        <pscim>\r\n            <product>PureCloud</product>\r\n        </pscim>\r\n        <teststeps>\r\n            <teststep action=\"Call an endpoint to get all completed flows limit 5 per page, sort by user who launched the flow ascending\" expectedresult=\"A HTTP response is returned with a body that contains all completed flows, 5 per page, sorted ascending by the launching user\"/>\r\n        </teststeps>\r\n    </testcase>\r\n    </testcases>\r\n\t\t]]>\r\n      </gim:testCaseXml>\r\n    </gim:UpdateTestCase>\r\n  </soapenv:Body>\r\n</soapenv:Envelope>\r\n"
                },


		{
			"id": "00000000-0000-0000-0000-000000000017",
			"headers": "Content-Type: text/xml\nSOAPAction: http://gimpy.i3domain.inin.com/TCDBWebService/UpdateTestCase\n",
			"url": "http://gimpy.i3domain.inin.com/TCDBWebService/TCDBWebService.asmx",
			"pathVariables": {},
			"preRequestScript": "",
			"method": "POST",
			"collectionId": "00000000-0000-0000-0000-000000000008",
			"data": [],
			"dataMode": "raw",
			"name": "17",
			"description": "",
			"descriptionFormat": "html",
			"time": 1428692568969,
			"version": 2,
			"responses": [],
			"tests": "postman.setGlobalVariable(\"testCaseId\", \"0\");",
			"currentHelper": "normal",
			"helperAttributes": {},
			"collectionOwner": 0,
			"write": true,
			"synced": false,
			"owner": "39537",
			"collection": "00000000-0000-0000-0000-000000000008",
			"rawModeData": "<soapenv:Envelope xmlns:soapenv=\"http://schemas.xmlsoap.org/soap/envelope/\" xmlns:gim=\"http://gimpy.i3domain.inin.com\">\r\n  <soapenv:Header/>\r\n  <soapenv:Body>\r\n    <gim:UpdateTestCase>\r\n      <!--Optional:-->\r\n      <gim:testCaseXml>       \r\n                <![CDATA[         \r\n    <testcases username=\"{{gimpyUsername}}\">\r\n    <testcase codebase=\"PureCloud\" id=\"36726\" name=\"API - Get Subset of Running Flows and Sort Descending by Launching User\" priority=\"P3\" state=\"Active\">\r\n        <description>Public API test to verify the correct behavior upon an attempt of retrieving a subset of running flows and sorting descending by user who launched the flow</description>\r\n        <estimatedruntime>0.20</estimatedruntime>\r\n        <assumptions>The user has permission to view a flow.\r\n More than five running flows exists.\r\n More than one user who launched a flow exists.</assumptions>\r\n        <limitations> </limitations>\r\n        <notes> </notes>\r\n        <data> </data>\r\n        <type>Public API Endpoint Only</type>\r\n        <howfound>Tester Input</howfound>\r\n        <targetrelease>PureCloud 1.0GA</targetrelease>\r\n        <pscim>\r\n            <product>PureCloud</product>\r\n        </pscim>\r\n        <teststeps>\r\n            <teststep action=\"Call an endpoint to get all running flows limit 5 per page, sort by user who launched the flow descending\" expectedresult=\"A HTTP response is returned with a body that contains all running flows, 5 per page, sorted descending by the launching user\"/>\r\n        </teststeps>\r\n    </testcase>\r\n    </testcases>\r\n\t\t]]>\r\n      </gim:testCaseXml>\r\n    </gim:UpdateTestCase>\r\n  </soapenv:Body>\r\n</soapenv:Envelope>\r\n"
                },


		{
			"id": "00000000-0000-0000-0000-000000000018",
			"headers": "Content-Type: text/xml\nSOAPAction: http://gimpy.i3domain.inin.com/TCDBWebService/UpdateTestCase\n",
			"url": "http://gimpy.i3domain.inin.com/TCDBWebService/TCDBWebService.asmx",
			"pathVariables": {},
			"preRequestScript": "",
			"method": "POST",
			"collectionId": "00000000-0000-0000-0000-000000000008",
			"data": [],
			"dataMode": "raw",
			"name": "18",
			"description": "",
			"descriptionFormat": "html",
			"time": 1428692568969,
			"version": 2,
			"responses": [],
			"tests": "postman.setGlobalVariable(\"testCaseId\", \"0\");",
			"currentHelper": "normal",
			"helperAttributes": {},
			"collectionOwner": 0,
			"write": true,
			"synced": false,
			"owner": "39537",
			"collection": "00000000-0000-0000-0000-000000000008",
			"rawModeData": "<soapenv:Envelope xmlns:soapenv=\"http://schemas.xmlsoap.org/soap/envelope/\" xmlns:gim=\"http://gimpy.i3domain.inin.com\">\r\n  <soapenv:Header/>\r\n  <soapenv:Body>\r\n    <gim:UpdateTestCase>\r\n      <!--Optional:-->\r\n      <gim:testCaseXml>       \r\n                <![CDATA[         \r\n    <testcases username=\"{{gimpyUsername}}\">\r\n    <testcase codebase=\"PureCloud\" id=\"36727\" name=\"API - Get Subset of Cancelled Flows and Sort Descending by Launching User\" priority=\"P3\" state=\"Active\">\r\n        <description>Public API test to verify the correct behavior upon an attempt of retrieving a subset of cancelled flows and sorting descending by user who launched the flow</description>\r\n        <estimatedruntime>0.20</estimatedruntime>\r\n        <assumptions>The user has permission to view a flow.\r\n More than five cancelled flows exists.\r\n More than one user who launched a flow exists.</assumptions>\r\n        <limitations> </limitations>\r\n        <notes> </notes>\r\n        <data> </data>\r\n        <type>Public API Endpoint Only</type>\r\n        <howfound>Tester Input</howfound>\r\n        <targetrelease>PureCloud 1.0GA</targetrelease>\r\n        <pscim>\r\n            <product>PureCloud</product>\r\n        </pscim>\r\n        <teststeps>\r\n            <teststep action=\"Call an endpoint to get all cancelled flows limit 5 per page, sort by user who launched the flow descending\" expectedresult=\"A HTTP response is returned with a body that contains all cancelled flows, 5 per page, sorted descending by the launching user\"/>\r\n        </teststeps>\r\n    </testcase>\r\n    </testcases>\r\n\t\t]]>\r\n      </gim:testCaseXml>\r\n    </gim:UpdateTestCase>\r\n  </soapenv:Body>\r\n</soapenv:Envelope>\r\n"
                },


		{
			"id": "00000000-0000-0000-0000-000000000019",
			"headers": "Content-Type: text/xml\nSOAPAction: http://gimpy.i3domain.inin.com/TCDBWebService/UpdateTestCase\n",
			"url": "http://gimpy.i3domain.inin.com/TCDBWebService/TCDBWebService.asmx",
			"pathVariables": {},
			"preRequestScript": "",
			"method": "POST",
			"collectionId": "00000000-0000-0000-0000-000000000008",
			"data": [],
			"dataMode": "raw",
			"name": "19",
			"description": "",
			"descriptionFormat": "html",
			"time": 1428692568969,
			"version": 2,
			"responses": [],
			"tests": "postman.setGlobalVariable(\"testCaseId\", \"0\");",
			"currentHelper": "normal",
			"helperAttributes": {},
			"collectionOwner": 0,
			"write": true,
			"synced": false,
			"owner": "39537",
			"collection": "00000000-0000-0000-0000-000000000008",
			"rawModeData": "<soapenv:Envelope xmlns:soapenv=\"http://schemas.xmlsoap.org/soap/envelope/\" xmlns:gim=\"http://gimpy.i3domain.inin.com\">\r\n  <soapenv:Header/>\r\n  <soapenv:Body>\r\n    <gim:UpdateTestCase>\r\n      <!--Optional:-->\r\n      <gim:testCaseXml>       \r\n                <![CDATA[         \r\n    <testcases username=\"{{gimpyUsername}}\">\r\n    <testcase codebase=\"PureCloud\" id=\"36728\" name=\"API - Get Subset of Flows in Error and Sort Descending by Launching User\" priority=\"P3\" state=\"Active\">\r\n        <description>Public API test to verify the correct behavior upon an attempt of retrieving a subset of flows in error and sorting descending by user who launched the flow</description>\r\n        <estimatedruntime>0.20</estimatedruntime>\r\n        <assumptions>The user has permission to view a flow.\r\n More than five flows in error exists.\r\n More than one user who launched a flow exists.</assumptions>\r\n        <limitations> </limitations>\r\n        <notes> </notes>\r\n        <data> </data>\r\n        <type>Public API Endpoint Only</type>\r\n        <howfound>Tester Input</howfound>\r\n        <targetrelease>PureCloud 1.0GA</targetrelease>\r\n        <pscim>\r\n            <product>PureCloud</product>\r\n        </pscim>\r\n        <teststeps>\r\n            <teststep action=\"Call an endpoint to get all flow in error limit 5 per page, sort by user who launched the flow descending\" expectedresult=\"A HTTP response is returned with a body that contains all flows in error, 5 per page, sorted descending by the launching user\"/>\r\n        </teststeps>\r\n    </testcase>\r\n    </testcases>\r\n\t\t]]>\r\n      </gim:testCaseXml>\r\n    </gim:UpdateTestCase>\r\n  </soapenv:Body>\r\n</soapenv:Envelope>\r\n"
                },


		{
			"id": "00000000-0000-0000-0000-000000000020",
			"headers": "Content-Type: text/xml\nSOAPAction: http://gimpy.i3domain.inin.com/TCDBWebService/UpdateTestCase\n",
			"url": "http://gimpy.i3domain.inin.com/TCDBWebService/TCDBWebService.asmx",
			"pathVariables": {},
			"preRequestScript": "",
			"method": "POST",
			"collectionId": "00000000-0000-0000-0000-000000000008",
			"data": [],
			"dataMode": "raw",
			"name": "20",
			"description": "",
			"descriptionFormat": "html",
			"time": 1428692568969,
			"version": 2,
			"responses": [],
			"tests": "postman.setGlobalVariable(\"testCaseId\", \"0\");",
			"currentHelper": "normal",
			"helperAttributes": {},
			"collectionOwner": 0,
			"write": true,
			"synced": false,
			"owner": "39537",
			"collection": "00000000-0000-0000-0000-000000000008",
			"rawModeData": "<soapenv:Envelope xmlns:soapenv=\"http://schemas.xmlsoap.org/soap/envelope/\" xmlns:gim=\"http://gimpy.i3domain.inin.com\">\r\n  <soapenv:Header/>\r\n  <soapenv:Body>\r\n    <gim:UpdateTestCase>\r\n      <!--Optional:-->\r\n      <gim:testCaseXml>       \r\n                <![CDATA[         \r\n    <testcases username=\"{{gimpyUsername}}\">\r\n    <testcase codebase=\"PureCloud\" id=\"36729\" name=\"API - Get Subset of Completed Flows and Sort Descending by Launching User\" priority=\"P3\" state=\"Active\">\r\n        <description>Public API test to verify the correct behavior upon an attempt of retrieving a subset of completed flows and sorting descending by user who launched the flow</description>\r\n        <estimatedruntime>0.20</estimatedruntime>\r\n        <assumptions>The user has permission to view a flow.\r\n More than five completed flows exists.\r\n More than one user who launched a flow exists.</assumptions>\r\n        <limitations> </limitations>\r\n        <notes> </notes>\r\n        <data> </data>\r\n        <type>Public API Endpoint Only</type>\r\n        <howfound>Tester Input</howfound>\r\n        <targetrelease>PureCloud 1.0GA</targetrelease>\r\n        <pscim>\r\n            <product>PureCloud</product>\r\n        </pscim>\r\n        <teststeps>\r\n            <teststep action=\"Call an endpoint to get all completed flows limit 5 per page, sort by user who launched the flow descending\" expectedresult=\"A HTTP response is returned with a body that contains all completed flows, 5 per page, sorted descending by the launching user\"/>\r\n        </teststeps>\r\n    </testcase>\r\n    </testcases>\r\n\t\t]]>\r\n      </gim:testCaseXml>\r\n    </gim:UpdateTestCase>\r\n  </soapenv:Body>\r\n</soapenv:Envelope>\r\n"
                },


		{
			"id": "00000000-0000-0000-0000-000000000021",
			"headers": "Content-Type: text/xml\nSOAPAction: http://gimpy.i3domain.inin.com/TCDBWebService/UpdateTestCase\n",
			"url": "http://gimpy.i3domain.inin.com/TCDBWebService/TCDBWebService.asmx",
			"pathVariables": {},
			"preRequestScript": "",
			"method": "POST",
			"collectionId": "00000000-0000-0000-0000-000000000008",
			"data": [],
			"dataMode": "raw",
			"name": "21",
			"description": "",
			"descriptionFormat": "html",
			"time": 1428692568969,
			"version": 2,
			"responses": [],
			"tests": "postman.setGlobalVariable(\"testCaseId\", \"0\");",
			"currentHelper": "normal",
			"helperAttributes": {},
			"collectionOwner": 0,
			"write": true,
			"synced": false,
			"owner": "39537",
			"collection": "00000000-0000-0000-0000-000000000008",
			"rawModeData": "<soapenv:Envelope xmlns:soapenv=\"http://schemas.xmlsoap.org/soap/envelope/\" xmlns:gim=\"http://gimpy.i3domain.inin.com\">\r\n  <soapenv:Header/>\r\n  <soapenv:Body>\r\n    <gim:UpdateTestCase>\r\n      <!--Optional:-->\r\n      <gim:testCaseXml>       \r\n                <![CDATA[         \r\n    <testcases username=\"{{gimpyUsername}}\">\r\n    <testcase codebase=\"PureCloud\" id=\"36730\" name=\"API - Get Subset of Running Flows and Sort Ascending by Flow Name\" priority=\"P3\" state=\"Active\">\r\n        <description>Public API test to verify the correct behavior upon an attempt of retrieving a subset of running flows and sorting ascending by flow name</description>\r\n        <estimatedruntime>0.20</estimatedruntime>\r\n        <assumptions>The user has permission to view a flow.\r\n More than five running flows of different definitions exists.</assumptions>\r\n        <limitations> </limitations>\r\n        <notes> </notes>\r\n        <data> </data>\r\n        <type>Public API Endpoint Only</type>\r\n        <howfound>Tester Input</howfound>\r\n        <targetrelease>PureCloud 1.0GA</targetrelease>\r\n        <pscim>\r\n            <product>PureCloud</product>\r\n        </pscim>\r\n        <teststeps>\r\n            <teststep action=\"Call an endpoint to get all running flows limit 5 per page, sort by flow name ascending\" expectedresult=\"A HTTP response is returned with a body that contains all running flows, 5 per page, sorted ascending by flow name\"/>\r\n        </teststeps>\r\n    </testcase>\r\n    </testcases>\r\n\t\t]]>\r\n      </gim:testCaseXml>\r\n    </gim:UpdateTestCase>\r\n  </soapenv:Body>\r\n</soapenv:Envelope>\r\n"
                },


		{
			"id": "00000000-0000-0000-0000-000000000022",
			"headers": "Content-Type: text/xml\nSOAPAction: http://gimpy.i3domain.inin.com/TCDBWebService/UpdateTestCase\n",
			"url": "http://gimpy.i3domain.inin.com/TCDBWebService/TCDBWebService.asmx",
			"pathVariables": {},
			"preRequestScript": "",
			"method": "POST",
			"collectionId": "00000000-0000-0000-0000-000000000008",
			"data": [],
			"dataMode": "raw",
			"name": "22",
			"description": "",
			"descriptionFormat": "html",
			"time": 1428692568969,
			"version": 2,
			"responses": [],
			"tests": "postman.setGlobalVariable(\"testCaseId\", \"0\");",
			"currentHelper": "normal",
			"helperAttributes": {},
			"collectionOwner": 0,
			"write": true,
			"synced": false,
			"owner": "39537",
			"collection": "00000000-0000-0000-0000-000000000008",
			"rawModeData": "<soapenv:Envelope xmlns:soapenv=\"http://schemas.xmlsoap.org/soap/envelope/\" xmlns:gim=\"http://gimpy.i3domain.inin.com\">\r\n  <soapenv:Header/>\r\n  <soapenv:Body>\r\n    <gim:UpdateTestCase>\r\n      <!--Optional:-->\r\n      <gim:testCaseXml>       \r\n                <![CDATA[         \r\n    <testcases username=\"{{gimpyUsername}}\">\r\n    <testcase codebase=\"PureCloud\" id=\"36731\" name=\"API - Get Subset of Cancelled Flows and Sort Ascending by Flow Name\" priority=\"P3\" state=\"Active\">\r\n        <description>Public API test to verify the correct behavior upon an attempt of retrieving a subset of cancelled flows and sorting ascending by flow name</description>\r\n        <estimatedruntime>0.20</estimatedruntime>\r\n        <assumptions>The user has permission to view a flow.\r\n More than five cancelled flows of different definitions exists.</assumptions>\r\n        <limitations> </limitations>\r\n        <notes> </notes>\r\n        <data> </data>\r\n        <type>Public API Endpoint Only</type>\r\n        <howfound>Tester Input</howfound>\r\n        <targetrelease>PureCloud 1.0GA</targetrelease>\r\n        <pscim>\r\n            <product>PureCloud</product>\r\n        </pscim>\r\n        <teststeps>\r\n            <teststep action=\"Call an endpoint to get all cancelled flows limit 5 per page, sort by flow name ascending\" expectedresult=\"A HTTP response is returned with a body that contains all cancelled flows, 5 per page, sorted ascending by flow name\"/>\r\n        </teststeps>\r\n    </testcase>\r\n    </testcases>\r\n\t\t]]>\r\n      </gim:testCaseXml>\r\n    </gim:UpdateTestCase>\r\n  </soapenv:Body>\r\n</soapenv:Envelope>\r\n"
                },


		{
			"id": "00000000-0000-0000-0000-000000000023",
			"headers": "Content-Type: text/xml\nSOAPAction: http://gimpy.i3domain.inin.com/TCDBWebService/UpdateTestCase\n",
			"url": "http://gimpy.i3domain.inin.com/TCDBWebService/TCDBWebService.asmx",
			"pathVariables": {},
			"preRequestScript": "",
			"method": "POST",
			"collectionId": "00000000-0000-0000-0000-000000000008",
			"data": [],
			"dataMode": "raw",
			"name": "23",
			"description": "",
			"descriptionFormat": "html",
			"time": 1428692568969,
			"version": 2,
			"responses": [],
			"tests": "postman.setGlobalVariable(\"testCaseId\", \"0\");",
			"currentHelper": "normal",
			"helperAttributes": {},
			"collectionOwner": 0,
			"write": true,
			"synced": false,
			"owner": "39537",
			"collection": "00000000-0000-0000-0000-000000000008",
			"rawModeData": "<soapenv:Envelope xmlns:soapenv=\"http://schemas.xmlsoap.org/soap/envelope/\" xmlns:gim=\"http://gimpy.i3domain.inin.com\">\r\n  <soapenv:Header/>\r\n  <soapenv:Body>\r\n    <gim:UpdateTestCase>\r\n      <!--Optional:-->\r\n      <gim:testCaseXml>       \r\n                <![CDATA[         \r\n    <testcases username=\"{{gimpyUsername}}\">\r\n    <testcase codebase=\"PureCloud\" id=\"36732\" name=\"API - Get Subset of Flows in Error and Sort Ascending by Flow Name\" priority=\"P3\" state=\"Active\">\r\n        <description>Public API test to verify the correct behavior upon an attempt of retrieving a subset of flows in error and sorting ascending by flow name</description>\r\n        <estimatedruntime>0.20</estimatedruntime>\r\n        <assumptions>The user has permission to view a flow.\r\n More than five flows in error of different definitions exists.</assumptions>\r\n        <limitations> </limitations>\r\n        <notes> </notes>\r\n        <data> </data>\r\n        <type>Public API Endpoint Only</type>\r\n        <howfound>Tester Input</howfound>\r\n        <targetrelease>PureCloud 1.0GA</targetrelease>\r\n        <pscim>\r\n            <product>PureCloud</product>\r\n        </pscim>\r\n        <teststeps>\r\n            <teststep action=\"Call an endpoint to get all flow in error limit 5 per page, sort by flow name ascending\" expectedresult=\"A HTTP response is returned with a body that contains all flows in error, 5 per page, sorted ascending by flow name\"/>\r\n        </teststeps>\r\n    </testcase>\r\n    </testcases>\r\n\t\t]]>\r\n      </gim:testCaseXml>\r\n    </gim:UpdateTestCase>\r\n  </soapenv:Body>\r\n</soapenv:Envelope>\r\n"
                },


		{
			"id": "00000000-0000-0000-0000-000000000024",
			"headers": "Content-Type: text/xml\nSOAPAction: http://gimpy.i3domain.inin.com/TCDBWebService/UpdateTestCase\n",
			"url": "http://gimpy.i3domain.inin.com/TCDBWebService/TCDBWebService.asmx",
			"pathVariables": {},
			"preRequestScript": "",
			"method": "POST",
			"collectionId": "00000000-0000-0000-0000-000000000008",
			"data": [],
			"dataMode": "raw",
			"name": "24",
			"description": "",
			"descriptionFormat": "html",
			"time": 1428692568969,
			"version": 2,
			"responses": [],
			"tests": "postman.setGlobalVariable(\"testCaseId\", \"0\");",
			"currentHelper": "normal",
			"helperAttributes": {},
			"collectionOwner": 0,
			"write": true,
			"synced": false,
			"owner": "39537",
			"collection": "00000000-0000-0000-0000-000000000008",
			"rawModeData": "<soapenv:Envelope xmlns:soapenv=\"http://schemas.xmlsoap.org/soap/envelope/\" xmlns:gim=\"http://gimpy.i3domain.inin.com\">\r\n  <soapenv:Header/>\r\n  <soapenv:Body>\r\n    <gim:UpdateTestCase>\r\n      <!--Optional:-->\r\n      <gim:testCaseXml>       \r\n                <![CDATA[         \r\n    <testcases username=\"{{gimpyUsername}}\">\r\n    <testcase codebase=\"PureCloud\" id=\"36733\" name=\"API - Get Subset of Completed Flows and Sort Ascending by Flow Name\" priority=\"P3\" state=\"Active\">\r\n        <description>Public API test to verify the correct behavior upon an attempt of retrieving a subset of completed flows and sorting ascending by flow name</description>\r\n        <estimatedruntime>0.20</estimatedruntime>\r\n        <assumptions>The user has permission to view a flow.\r\n More than five completed flows of different definitions exists.</assumptions>\r\n        <limitations> </limitations>\r\n        <notes> </notes>\r\n        <data> </data>\r\n        <type>Public API Endpoint Only</type>\r\n        <howfound>Tester Input</howfound>\r\n        <targetrelease>PureCloud 1.0GA</targetrelease>\r\n        <pscim>\r\n            <product>PureCloud</product>\r\n        </pscim>\r\n        <teststeps>\r\n            <teststep action=\"Call an endpoint to get all completed flows limit 5 per page, sort by flow name ascending\" expectedresult=\"A HTTP response is returned with a body that contains all completed flows, 5 per page, sorted ascending by flow name\"/>\r\n        </teststeps>\r\n    </testcase>\r\n    </testcases>\r\n\t\t]]>\r\n      </gim:testCaseXml>\r\n    </gim:UpdateTestCase>\r\n  </soapenv:Body>\r\n</soapenv:Envelope>\r\n"
                },


		{
			"id": "00000000-0000-0000-0000-000000000025",
			"headers": "Content-Type: text/xml\nSOAPAction: http://gimpy.i3domain.inin.com/TCDBWebService/UpdateTestCase\n",
			"url": "http://gimpy.i3domain.inin.com/TCDBWebService/TCDBWebService.asmx",
			"pathVariables": {},
			"preRequestScript": "",
			"method": "POST",
			"collectionId": "00000000-0000-0000-0000-000000000008",
			"data": [],
			"dataMode": "raw",
			"name": "25",
			"description": "",
			"descriptionFormat": "html",
			"time": 1428692568969,
			"version": 2,
			"responses": [],
			"tests": "postman.setGlobalVariable(\"testCaseId\", \"0\");",
			"currentHelper": "normal",
			"helperAttributes": {},
			"collectionOwner": 0,
			"write": true,
			"synced": false,
			"owner": "39537",
			"collection": "00000000-0000-0000-0000-000000000008",
			"rawModeData": "<soapenv:Envelope xmlns:soapenv=\"http://schemas.xmlsoap.org/soap/envelope/\" xmlns:gim=\"http://gimpy.i3domain.inin.com\">\r\n  <soapenv:Header/>\r\n  <soapenv:Body>\r\n    <gim:UpdateTestCase>\r\n      <!--Optional:-->\r\n      <gim:testCaseXml>       \r\n                <![CDATA[         \r\n    <testcases username=\"{{gimpyUsername}}\">\r\n    <testcase codebase=\"PureCloud\" id=\"36734\" name=\"API - Get Subset of Running Flows and Sort Descending by Flow Name\" priority=\"P3\" state=\"Active\">\r\n        <description>Public API test to verify the correct behavior upon an attempt of retrieving a subset of running flows and sorting descending by flow name</description>\r\n        <estimatedruntime>0.20</estimatedruntime>\r\n        <assumptions>The user has permission to view a flow.\r\n More than five running flows of different definitions exists.</assumptions>\r\n        <limitations> </limitations>\r\n        <notes> </notes>\r\n        <data> </data>\r\n        <type>Public API Endpoint Only</type>\r\n        <howfound>Tester Input</howfound>\r\n        <targetrelease>PureCloud 1.0GA</targetrelease>\r\n        <pscim>\r\n            <product>PureCloud</product>\r\n        </pscim>\r\n        <teststeps>\r\n            <teststep action=\"Call an endpoint to get all running flows limit 5 per page, sort by flow name descending   \" expectedresult=\"A HTTP response is returned with a body that contains all running flows, 5 per page, sorted descending by flow name\"/>\r\n        </teststeps>\r\n    </testcase>\r\n    </testcases>\r\n\t\t]]>\r\n      </gim:testCaseXml>\r\n    </gim:UpdateTestCase>\r\n  </soapenv:Body>\r\n</soapenv:Envelope>\r\n"
                },


		{
			"id": "00000000-0000-0000-0000-000000000026",
			"headers": "Content-Type: text/xml\nSOAPAction: http://gimpy.i3domain.inin.com/TCDBWebService/UpdateTestCase\n",
			"url": "http://gimpy.i3domain.inin.com/TCDBWebService/TCDBWebService.asmx",
			"pathVariables": {},
			"preRequestScript": "",
			"method": "POST",
			"collectionId": "00000000-0000-0000-0000-000000000008",
			"data": [],
			"dataMode": "raw",
			"name": "26",
			"description": "",
			"descriptionFormat": "html",
			"time": 1428692568969,
			"version": 2,
			"responses": [],
			"tests": "postman.setGlobalVariable(\"testCaseId\", \"0\");",
			"currentHelper": "normal",
			"helperAttributes": {},
			"collectionOwner": 0,
			"write": true,
			"synced": false,
			"owner": "39537",
			"collection": "00000000-0000-0000-0000-000000000008",
			"rawModeData": "<soapenv:Envelope xmlns:soapenv=\"http://schemas.xmlsoap.org/soap/envelope/\" xmlns:gim=\"http://gimpy.i3domain.inin.com\">\r\n  <soapenv:Header/>\r\n  <soapenv:Body>\r\n    <gim:UpdateTestCase>\r\n      <!--Optional:-->\r\n      <gim:testCaseXml>       \r\n                <![CDATA[         \r\n    <testcases username=\"{{gimpyUsername}}\">\r\n    <testcase codebase=\"PureCloud\" id=\"36735\" name=\"API - Get Subset of Cancelled Flows and Sort Descending by Flow Name\" priority=\"P3\" state=\"Active\">\r\n        <description>Public API test to verify the correct behavior upon an attempt of retrieving a subset of cancelled flows and sorting descending by flow name</description>\r\n        <estimatedruntime>0.20</estimatedruntime>\r\n        <assumptions>The user has permission to view a flow.\r\n More than five cancelled flows of different definitions exists.</assumptions>\r\n        <limitations> </limitations>\r\n        <notes> </notes>\r\n        <data> </data>\r\n        <type>Public API Endpoint Only</type>\r\n        <howfound>Tester Input</howfound>\r\n        <targetrelease>PureCloud 1.0GA</targetrelease>\r\n        <pscim>\r\n            <product>PureCloud</product>\r\n        </pscim>\r\n        <teststeps>\r\n            <teststep action=\"Call an endpoint to get all cancelled flows limit 5 per page, sort by flow name descending\" expectedresult=\"A HTTP response is returned with a body that contains all cancelled flows, 5 per page, sorted descending by flow name\"/>\r\n        </teststeps>\r\n    </testcase>\r\n    </testcases>\r\n\t\t]]>\r\n      </gim:testCaseXml>\r\n    </gim:UpdateTestCase>\r\n  </soapenv:Body>\r\n</soapenv:Envelope>\r\n"
                },


		{
			"id": "00000000-0000-0000-0000-000000000027",
			"headers": "Content-Type: text/xml\nSOAPAction: http://gimpy.i3domain.inin.com/TCDBWebService/UpdateTestCase\n",
			"url": "http://gimpy.i3domain.inin.com/TCDBWebService/TCDBWebService.asmx",
			"pathVariables": {},
			"preRequestScript": "",
			"method": "POST",
			"collectionId": "00000000-0000-0000-0000-000000000008",
			"data": [],
			"dataMode": "raw",
			"name": "27",
			"description": "",
			"descriptionFormat": "html",
			"time": 1428692568969,
			"version": 2,
			"responses": [],
			"tests": "postman.setGlobalVariable(\"testCaseId\", \"0\");",
			"currentHelper": "normal",
			"helperAttributes": {},
			"collectionOwner": 0,
			"write": true,
			"synced": false,
			"owner": "39537",
			"collection": "00000000-0000-0000-0000-000000000008",
			"rawModeData": "<soapenv:Envelope xmlns:soapenv=\"http://schemas.xmlsoap.org/soap/envelope/\" xmlns:gim=\"http://gimpy.i3domain.inin.com\">\r\n  <soapenv:Header/>\r\n  <soapenv:Body>\r\n    <gim:UpdateTestCase>\r\n      <!--Optional:-->\r\n      <gim:testCaseXml>       \r\n                <![CDATA[         \r\n    <testcases username=\"{{gimpyUsername}}\">\r\n    <testcase codebase=\"PureCloud\" id=\"36736\" name=\"API - Get Subset of Flows in Error and Sort Descending by Flow Name\" priority=\"P3\" state=\"Active\">\r\n        <description>Public API test to verify the correct behavior upon an attempt of retrieving a subset of flows in error and sorting descending by flow name</description>\r\n        <estimatedruntime>0.20</estimatedruntime>\r\n        <assumptions>The user has permission to view a flow.\r\n More than five flows in error of different definitions exists.</assumptions>\r\n        <limitations> </limitations>\r\n        <notes> </notes>\r\n        <data> </data>\r\n        <type>Public API Endpoint Only</type>\r\n        <howfound>Tester Input</howfound>\r\n        <targetrelease>PureCloud 1.0GA</targetrelease>\r\n        <pscim>\r\n            <product>PureCloud</product>\r\n        </pscim>\r\n        <teststeps>\r\n            <teststep action=\"Call an endpoint to get all flow in error limit 5 per page, sort by flow name descending\" expectedresult=\"A HTTP response is returned with a body that contains all flows in error, 5 per page, sorted descending by flow name\"/>\r\n        </teststeps>\r\n    </testcase>\r\n    </testcases>\r\n\t\t]]>\r\n      </gim:testCaseXml>\r\n    </gim:UpdateTestCase>\r\n  </soapenv:Body>\r\n</soapenv:Envelope>\r\n"
                },


		{
			"id": "00000000-0000-0000-0000-000000000028",
			"headers": "Content-Type: text/xml\nSOAPAction: http://gimpy.i3domain.inin.com/TCDBWebService/UpdateTestCase\n",
			"url": "http://gimpy.i3domain.inin.com/TCDBWebService/TCDBWebService.asmx",
			"pathVariables": {},
			"preRequestScript": "",
			"method": "POST",
			"collectionId": "00000000-0000-0000-0000-000000000008",
			"data": [],
			"dataMode": "raw",
			"name": "28",
			"description": "",
			"descriptionFormat": "html",
			"time": 1428692568969,
			"version": 2,
			"responses": [],
			"tests": "postman.setGlobalVariable(\"testCaseId\", \"0\");",
			"currentHelper": "normal",
			"helperAttributes": {},
			"collectionOwner": 0,
			"write": true,
			"synced": false,
			"owner": "39537",
			"collection": "00000000-0000-0000-0000-000000000008",
			"rawModeData": "<soapenv:Envelope xmlns:soapenv=\"http://schemas.xmlsoap.org/soap/envelope/\" xmlns:gim=\"http://gimpy.i3domain.inin.com\">\r\n  <soapenv:Header/>\r\n  <soapenv:Body>\r\n    <gim:UpdateTestCase>\r\n      <!--Optional:-->\r\n      <gim:testCaseXml>       \r\n                <![CDATA[         \r\n    <testcases username=\"{{gimpyUsername}}\">\r\n    <testcase codebase=\"PureCloud\" id=\"36737\" name=\"API - Get Subset of Completed Flows and Sort Descending by Flow Name\" priority=\"P3\" state=\"Active\">\r\n        <description>Public API test to verify the correct behavior upon an attempt of retrieving a subset of completed flows and sorting descending by flow name</description>\r\n        <estimatedruntime>0.20</estimatedruntime>\r\n        <assumptions>The user has permission to view a flow.\r\n More than five completed flows of different definitions exists.</assumptions>\r\n        <limitations> </limitations>\r\n        <notes> </notes>\r\n        <data> </data>\r\n        <type>Public API Endpoint Only</type>\r\n        <howfound>Tester Input</howfound>\r\n        <targetrelease>PureCloud 1.0GA</targetrelease>\r\n        <pscim>\r\n            <product>PureCloud</product>\r\n        </pscim>\r\n        <teststeps>\r\n            <teststep action=\"Call an endpoint to get all completed flows limit 5 per page, sort by flow name descending \" expectedresult=\"A HTTP response is returned with a body that contains all completed flows, 5 per page, sorted descending by flow name    \"/>\r\n        </teststeps>\r\n    </testcase>\r\n    </testcases>\r\n\t\t]]>\r\n      </gim:testCaseXml>\r\n    </gim:UpdateTestCase>\r\n  </soapenv:Body>\r\n</soapenv:Envelope>\r\n"
                },


		{
			"id": "00000000-0000-0000-0000-000000000029",
			"headers": "Content-Type: text/xml\nSOAPAction: http://gimpy.i3domain.inin.com/TCDBWebService/UpdateTestCase\n",
			"url": "http://gimpy.i3domain.inin.com/TCDBWebService/TCDBWebService.asmx",
			"pathVariables": {},
			"preRequestScript": "",
			"method": "POST",
			"collectionId": "00000000-0000-0000-0000-000000000008",
			"data": [],
			"dataMode": "raw",
			"name": "29",
			"description": "",
			"descriptionFormat": "html",
			"time": 1428692568969,
			"version": 2,
			"responses": [],
			"tests": "postman.setGlobalVariable(\"testCaseId\", \"0\");",
			"currentHelper": "normal",
			"helperAttributes": {},
			"collectionOwner": 0,
			"write": true,
			"synced": false,
			"owner": "39537",
			"collection": "00000000-0000-0000-0000-000000000008",
			"rawModeData": "<soapenv:Envelope xmlns:soapenv=\"http://schemas.xmlsoap.org/soap/envelope/\" xmlns:gim=\"http://gimpy.i3domain.inin.com\">\r\n  <soapenv:Header/>\r\n  <soapenv:Body>\r\n    <gim:UpdateTestCase>\r\n      <!--Optional:-->\r\n      <gim:testCaseXml>       \r\n                <![CDATA[         \r\n    <testcases username=\"{{gimpyUsername}}\">\r\n    <testcase codebase=\"PureCloud\" id=\"36738\" name=\"API - Get Subset of Running Flows and Sort Ascending by flow launch Date.Time\" priority=\"P1\" state=\"Active\">\r\n        <description>Public API test to verify the correct behavior upon an attempt of retrieving a subset of running flows and sorting ascending by flow launch Date.Time</description>\r\n        <estimatedruntime>0.20</estimatedruntime>\r\n        <assumptions>The user has permission to view a flow.\r\n More than five running flows exist.</assumptions>\r\n        <limitations> </limitations>\r\n        <notes> </notes>\r\n        <data> </data>\r\n        <type>Public API Endpoint Only</type>\r\n        <howfound>Tester Input</howfound>\r\n        <targetrelease>PureCloud 1.0GA</targetrelease>\r\n        <pscim>\r\n            <product>PureCloud</product>\r\n        </pscim>\r\n        <teststeps>\r\n            <teststep action=\"Call an endpoint to get all running flows limit 5 per page, sort by flow launch Date.Time ascending \" expectedresult=\"A HTTP response is returned with a body that contains all running flows, 5 per page, sorted ascending by Date.Time\"/>\r\n        </teststeps>\r\n    </testcase>\r\n    </testcases>\r\n\t\t]]>\r\n      </gim:testCaseXml>\r\n    </gim:UpdateTestCase>\r\n  </soapenv:Body>\r\n</soapenv:Envelope>\r\n"
                },


		{
			"id": "00000000-0000-0000-0000-000000000030",
			"headers": "Content-Type: text/xml\nSOAPAction: http://gimpy.i3domain.inin.com/TCDBWebService/UpdateTestCase\n",
			"url": "http://gimpy.i3domain.inin.com/TCDBWebService/TCDBWebService.asmx",
			"pathVariables": {},
			"preRequestScript": "",
			"method": "POST",
			"collectionId": "00000000-0000-0000-0000-000000000008",
			"data": [],
			"dataMode": "raw",
			"name": "30",
			"description": "",
			"descriptionFormat": "html",
			"time": 1428692568969,
			"version": 2,
			"responses": [],
			"tests": "postman.setGlobalVariable(\"testCaseId\", \"0\");",
			"currentHelper": "normal",
			"helperAttributes": {},
			"collectionOwner": 0,
			"write": true,
			"synced": false,
			"owner": "39537",
			"collection": "00000000-0000-0000-0000-000000000008",
			"rawModeData": "<soapenv:Envelope xmlns:soapenv=\"http://schemas.xmlsoap.org/soap/envelope/\" xmlns:gim=\"http://gimpy.i3domain.inin.com\">\r\n  <soapenv:Header/>\r\n  <soapenv:Body>\r\n    <gim:UpdateTestCase>\r\n      <!--Optional:-->\r\n      <gim:testCaseXml>       \r\n                <![CDATA[         \r\n    <testcases username=\"{{gimpyUsername}}\">\r\n    <testcase codebase=\"PureCloud\" id=\"36739\" name=\"API - Get Subset of Cancelled Flows and Sort Ascending by flow launch Date.Time\" priority=\"P1\" state=\"Active\">\r\n        <description>Public API test to verify the correct behavior upon an attempt of retrieving a subset of cancelled flows and sorting ascending by flow launch Date.Time</description>\r\n        <estimatedruntime>0.20</estimatedruntime>\r\n        <assumptions>The user has permission to view a flow.\r\n More than five cancelled flows exist.</assumptions>\r\n        <limitations> </limitations>\r\n        <notes> </notes>\r\n        <data> </data>\r\n        <type>Public API Endpoint Only</type>\r\n        <howfound>Tester Input</howfound>\r\n        <targetrelease>PureCloud 1.0GA</targetrelease>\r\n        <pscim>\r\n            <product>PureCloud</product>\r\n        </pscim>\r\n        <teststeps>\r\n            <teststep action=\"Call an endpoint to get all cancelled flows limit 5 per page, sort by flow launch Date.Time ascending \" expectedresult=\"A HTTP response is returned with a body that contains all cancelled flows, 5 per page, sorted ascending by Date.Time\"/>\r\n        </teststeps>\r\n    </testcase>\r\n    </testcases>\r\n\t\t]]>\r\n      </gim:testCaseXml>\r\n    </gim:UpdateTestCase>\r\n  </soapenv:Body>\r\n</soapenv:Envelope>\r\n"
                },


		{
			"id": "00000000-0000-0000-0000-000000000031",
			"headers": "Content-Type: text/xml\nSOAPAction: http://gimpy.i3domain.inin.com/TCDBWebService/UpdateTestCase\n",
			"url": "http://gimpy.i3domain.inin.com/TCDBWebService/TCDBWebService.asmx",
			"pathVariables": {},
			"preRequestScript": "",
			"method": "POST",
			"collectionId": "00000000-0000-0000-0000-000000000008",
			"data": [],
			"dataMode": "raw",
			"name": "31",
			"description": "",
			"descriptionFormat": "html",
			"time": 1428692568969,
			"version": 2,
			"responses": [],
			"tests": "postman.setGlobalVariable(\"testCaseId\", \"0\");",
			"currentHelper": "normal",
			"helperAttributes": {},
			"collectionOwner": 0,
			"write": true,
			"synced": false,
			"owner": "39537",
			"collection": "00000000-0000-0000-0000-000000000008",
			"rawModeData": "<soapenv:Envelope xmlns:soapenv=\"http://schemas.xmlsoap.org/soap/envelope/\" xmlns:gim=\"http://gimpy.i3domain.inin.com\">\r\n  <soapenv:Header/>\r\n  <soapenv:Body>\r\n    <gim:UpdateTestCase>\r\n      <!--Optional:-->\r\n      <gim:testCaseXml>       \r\n                <![CDATA[         \r\n    <testcases username=\"{{gimpyUsername}}\">\r\n    <testcase codebase=\"PureCloud\" id=\"36740\" name=\"API - Get Subset of Flows in Error and Sort Ascending by flow launch Date.Time\" priority=\"P1\" state=\"Active\">\r\n        <description>Public API test to verify the correct behavior upon an attempt of retrieving a subset of flows in error and sorting ascending by flow launch Date.Time</description>\r\n        <estimatedruntime>0.20</estimatedruntime>\r\n        <assumptions>The user has permission to view a flow.\r\n More than five flows in error exist.</assumptions>\r\n        <limitations> </limitations>\r\n        <notes> </notes>\r\n        <data> </data>\r\n        <type>Public API Endpoint Only</type>\r\n        <howfound>Tester Input</howfound>\r\n        <targetrelease>PureCloud 1.0GA</targetrelease>\r\n        <pscim>\r\n            <product>PureCloud</product>\r\n        </pscim>\r\n        <teststeps>\r\n            <teststep action=\"Call an endpoint to get all flow in error limit 5 per page, sort by flow launch Date.Time ascending \" expectedresult=\"A HTTP response is returned with a body that contains all flows in error, 5 per page, sorted ascending by Date.Time\"/>\r\n        </teststeps>\r\n    </testcase>\r\n    </testcases>\r\n\t\t]]>\r\n      </gim:testCaseXml>\r\n    </gim:UpdateTestCase>\r\n  </soapenv:Body>\r\n</soapenv:Envelope>\r\n"
                },


		{
			"id": "00000000-0000-0000-0000-000000000032",
			"headers": "Content-Type: text/xml\nSOAPAction: http://gimpy.i3domain.inin.com/TCDBWebService/UpdateTestCase\n",
			"url": "http://gimpy.i3domain.inin.com/TCDBWebService/TCDBWebService.asmx",
			"pathVariables": {},
			"preRequestScript": "",
			"method": "POST",
			"collectionId": "00000000-0000-0000-0000-000000000008",
			"data": [],
			"dataMode": "raw",
			"name": "32",
			"description": "",
			"descriptionFormat": "html",
			"time": 1428692568969,
			"version": 2,
			"responses": [],
			"tests": "postman.setGlobalVariable(\"testCaseId\", \"0\");",
			"currentHelper": "normal",
			"helperAttributes": {},
			"collectionOwner": 0,
			"write": true,
			"synced": false,
			"owner": "39537",
			"collection": "00000000-0000-0000-0000-000000000008",
			"rawModeData": "<soapenv:Envelope xmlns:soapenv=\"http://schemas.xmlsoap.org/soap/envelope/\" xmlns:gim=\"http://gimpy.i3domain.inin.com\">\r\n  <soapenv:Header/>\r\n  <soapenv:Body>\r\n    <gim:UpdateTestCase>\r\n      <!--Optional:-->\r\n      <gim:testCaseXml>       \r\n                <![CDATA[         \r\n    <testcases username=\"{{gimpyUsername}}\">\r\n    <testcase codebase=\"PureCloud\" id=\"36741\" name=\"API - Get Subset of Completed Flows and Sort Ascending by flow launch Date.Time\" priority=\"P1\" state=\"Active\">\r\n        <description>Public API test to verify the correct behavior upon an attempt of retrieving a subset of completed flows and sorting ascending by flow launch Date.Time</description>\r\n        <estimatedruntime>0.20</estimatedruntime>\r\n        <assumptions>The user has permission to view a flow.\r\n More than five completed flows exist.</assumptions>\r\n        <limitations> </limitations>\r\n        <notes> </notes>\r\n        <data> </data>\r\n        <type>Public API Endpoint Only</type>\r\n        <howfound>Tester Input</howfound>\r\n        <targetrelease>PureCloud 1.0GA</targetrelease>\r\n        <pscim>\r\n            <product>PureCloud</product>\r\n        </pscim>\r\n        <teststeps>\r\n            <teststep action=\"Call an endpoint to get all completed flows limit 5 per page, sort by flow launch Date.Time ascending\" expectedresult=\"A HTTP response is returned with a body that contains all completed flows, 5 per page, sorted ascending by Date.Time\"/>\r\n        </teststeps>\r\n    </testcase>\r\n    </testcases>\r\n\t\t]]>\r\n      </gim:testCaseXml>\r\n    </gim:UpdateTestCase>\r\n  </soapenv:Body>\r\n</soapenv:Envelope>\r\n"
                },


		{
			"id": "00000000-0000-0000-0000-000000000033",
			"headers": "Content-Type: text/xml\nSOAPAction: http://gimpy.i3domain.inin.com/TCDBWebService/UpdateTestCase\n",
			"url": "http://gimpy.i3domain.inin.com/TCDBWebService/TCDBWebService.asmx",
			"pathVariables": {},
			"preRequestScript": "",
			"method": "POST",
			"collectionId": "00000000-0000-0000-0000-000000000008",
			"data": [],
			"dataMode": "raw",
			"name": "33",
			"description": "",
			"descriptionFormat": "html",
			"time": 1428692568969,
			"version": 2,
			"responses": [],
			"tests": "postman.setGlobalVariable(\"testCaseId\", \"0\");",
			"currentHelper": "normal",
			"helperAttributes": {},
			"collectionOwner": 0,
			"write": true,
			"synced": false,
			"owner": "39537",
			"collection": "00000000-0000-0000-0000-000000000008",
			"rawModeData": "<soapenv:Envelope xmlns:soapenv=\"http://schemas.xmlsoap.org/soap/envelope/\" xmlns:gim=\"http://gimpy.i3domain.inin.com\">\r\n  <soapenv:Header/>\r\n  <soapenv:Body>\r\n    <gim:UpdateTestCase>\r\n      <!--Optional:-->\r\n      <gim:testCaseXml>       \r\n                <![CDATA[         \r\n    <testcases username=\"{{gimpyUsername}}\">\r\n    <testcase codebase=\"PureCloud\" id=\"36742\" name=\"API - Get Subset of Running Flows and Sort Descending by flow launch Date.Time\" priority=\"P3\" state=\"Active\">\r\n        <description>Public API test to verify the correct behavior upon an attempt of retrieving a subset of running flows and sorting descending by flow launch Date.Time</description>\r\n        <estimatedruntime>0.20</estimatedruntime>\r\n        <assumptions>The user has permission to view a flow.\r\n More than five running flows exist.</assumptions>\r\n        <limitations> </limitations>\r\n        <notes> </notes>\r\n        <data> </data>\r\n        <type>Public API Endpoint Only</type>\r\n        <howfound>Tester Input</howfound>\r\n        <targetrelease>PureCloud 1.0GA</targetrelease>\r\n        <pscim>\r\n            <product>PureCloud</product>\r\n        </pscim>\r\n        <teststeps>\r\n            <teststep action=\"Call an endpoint to get all running flows limit 5 per page, sort by flow launch Date.Time descending  \" expectedresult=\"A HTTP response is returned with a body that contains all running flows, 5 per page, sorted descending by Date.Time\"/>\r\n        </teststeps>\r\n    </testcase>\r\n    </testcases>\r\n\t\t]]>\r\n      </gim:testCaseXml>\r\n    </gim:UpdateTestCase>\r\n  </soapenv:Body>\r\n</soapenv:Envelope>\r\n"
                },


		{
			"id": "00000000-0000-0000-0000-000000000034",
			"headers": "Content-Type: text/xml\nSOAPAction: http://gimpy.i3domain.inin.com/TCDBWebService/UpdateTestCase\n",
			"url": "http://gimpy.i3domain.inin.com/TCDBWebService/TCDBWebService.asmx",
			"pathVariables": {},
			"preRequestScript": "",
			"method": "POST",
			"collectionId": "00000000-0000-0000-0000-000000000008",
			"data": [],
			"dataMode": "raw",
			"name": "34",
			"description": "",
			"descriptionFormat": "html",
			"time": 1428692568969,
			"version": 2,
			"responses": [],
			"tests": "postman.setGlobalVariable(\"testCaseId\", \"0\");",
			"currentHelper": "normal",
			"helperAttributes": {},
			"collectionOwner": 0,
			"write": true,
			"synced": false,
			"owner": "39537",
			"collection": "00000000-0000-0000-0000-000000000008",
			"rawModeData": "<soapenv:Envelope xmlns:soapenv=\"http://schemas.xmlsoap.org/soap/envelope/\" xmlns:gim=\"http://gimpy.i3domain.inin.com\">\r\n  <soapenv:Header/>\r\n  <soapenv:Body>\r\n    <gim:UpdateTestCase>\r\n      <!--Optional:-->\r\n      <gim:testCaseXml>       \r\n                <![CDATA[         \r\n    <testcases username=\"{{gimpyUsername}}\">\r\n    <testcase codebase=\"PureCloud\" id=\"36743\" name=\"API - Get Subset of Cancelled Flows and Sort Descending by flow launch Date.Time\" priority=\"P3\" state=\"Active\">\r\n        <description>Public API test to verify the correct behavior upon an attempt of retrieving a subset of cancelled flows and sorting descending by flow launch Date.Time</description>\r\n        <estimatedruntime>0.20</estimatedruntime>\r\n        <assumptions>The user has permission to view a flow.\r\n More than five cancelled flows exist.</assumptions>\r\n        <limitations> </limitations>\r\n        <notes> </notes>\r\n        <data> </data>\r\n        <type>Public API Endpoint Only</type>\r\n        <howfound>Tester Input</howfound>\r\n        <targetrelease>PureCloud 1.0GA</targetrelease>\r\n        <pscim>\r\n            <product>PureCloud</product>\r\n        </pscim>\r\n        <teststeps>\r\n            <teststep action=\"Call an endpoint to get all cancelled flows limit 5 per page, sort by flow launch Date.Time descending\" expectedresult=\"A HTTP response is returned with a body that contains all cancelled flows, 5 per page, sorted descending by Date.Time\"/>\r\n        </teststeps>\r\n    </testcase>\r\n    </testcases>\r\n\t\t]]>\r\n      </gim:testCaseXml>\r\n    </gim:UpdateTestCase>\r\n  </soapenv:Body>\r\n</soapenv:Envelope>\r\n"
                },


		{
			"id": "00000000-0000-0000-0000-000000000035",
			"headers": "Content-Type: text/xml\nSOAPAction: http://gimpy.i3domain.inin.com/TCDBWebService/UpdateTestCase\n",
			"url": "http://gimpy.i3domain.inin.com/TCDBWebService/TCDBWebService.asmx",
			"pathVariables": {},
			"preRequestScript": "",
			"method": "POST",
			"collectionId": "00000000-0000-0000-0000-000000000008",
			"data": [],
			"dataMode": "raw",
			"name": "35",
			"description": "",
			"descriptionFormat": "html",
			"time": 1428692568969,
			"version": 2,
			"responses": [],
			"tests": "postman.setGlobalVariable(\"testCaseId\", \"0\");",
			"currentHelper": "normal",
			"helperAttributes": {},
			"collectionOwner": 0,
			"write": true,
			"synced": false,
			"owner": "39537",
			"collection": "00000000-0000-0000-0000-000000000008",
			"rawModeData": "<soapenv:Envelope xmlns:soapenv=\"http://schemas.xmlsoap.org/soap/envelope/\" xmlns:gim=\"http://gimpy.i3domain.inin.com\">\r\n  <soapenv:Header/>\r\n  <soapenv:Body>\r\n    <gim:UpdateTestCase>\r\n      <!--Optional:-->\r\n      <gim:testCaseXml>       \r\n                <![CDATA[         \r\n    <testcases username=\"{{gimpyUsername}}\">\r\n    <testcase codebase=\"PureCloud\" id=\"36744\" name=\"API - Get Subset of Flows in Error and Sort Descending by flow launch Date.Time\" priority=\"P3\" state=\"Active\">\r\n        <description>Public API test to verify the correct behavior upon an attempt of retrieving a subset of flows in error and sorting descending by flow launch Date.Time</description>\r\n        <estimatedruntime>0.20</estimatedruntime>\r\n        <assumptions>The user has permission to view a flow.\r\n More than five flows in error exist.</assumptions>\r\n        <limitations> </limitations>\r\n        <notes> </notes>\r\n        <data> </data>\r\n        <type>Public API Endpoint Only</type>\r\n        <howfound>Tester Input</howfound>\r\n        <targetrelease>PureCloud 1.0GA</targetrelease>\r\n        <pscim>\r\n            <product>PureCloud</product>\r\n        </pscim>\r\n        <teststeps>\r\n            <teststep action=\"Call an endpoint to get all flow in error limit 5 per page, sort by flow launch Date.Time descending\" expectedresult=\"A HTTP response is returned with a body that contains all flows in error, 5 per page, sorted descending by Date.Time\"/>\r\n        </teststeps>\r\n    </testcase>\r\n    </testcases>\r\n\t\t]]>\r\n      </gim:testCaseXml>\r\n    </gim:UpdateTestCase>\r\n  </soapenv:Body>\r\n</soapenv:Envelope>\r\n"
                },


		{
			"id": "00000000-0000-0000-0000-000000000036",
			"headers": "Content-Type: text/xml\nSOAPAction: http://gimpy.i3domain.inin.com/TCDBWebService/UpdateTestCase\n",
			"url": "http://gimpy.i3domain.inin.com/TCDBWebService/TCDBWebService.asmx",
			"pathVariables": {},
			"preRequestScript": "",
			"method": "POST",
			"collectionId": "00000000-0000-0000-0000-000000000008",
			"data": [],
			"dataMode": "raw",
			"name": "36",
			"description": "",
			"descriptionFormat": "html",
			"time": 1428692568969,
			"version": 2,
			"responses": [],
			"tests": "postman.setGlobalVariable(\"testCaseId\", \"0\");",
			"currentHelper": "normal",
			"helperAttributes": {},
			"collectionOwner": 0,
			"write": true,
			"synced": false,
			"owner": "39537",
			"collection": "00000000-0000-0000-0000-000000000008",
			"rawModeData": "<soapenv:Envelope xmlns:soapenv=\"http://schemas.xmlsoap.org/soap/envelope/\" xmlns:gim=\"http://gimpy.i3domain.inin.com\">\r\n  <soapenv:Header/>\r\n  <soapenv:Body>\r\n    <gim:UpdateTestCase>\r\n      <!--Optional:-->\r\n      <gim:testCaseXml>       \r\n                <![CDATA[         \r\n    <testcases username=\"{{gimpyUsername}}\">\r\n    <testcase codebase=\"PureCloud\" id=\"36745\" name=\"API - Get Subset of Completed Flows and Sort Descending by flow launch Date.Time\" priority=\"P3\" state=\"Active\">\r\n        <description>Public API test to verify the correct behavior upon an attempt of retrieving a subset of completed flows and sorting descending by flow launch Date.Time</description>\r\n        <estimatedruntime>0.20</estimatedruntime>\r\n        <assumptions>The user has permission to view a flow.\r\n More than five completed flows exist.</assumptions>\r\n        <limitations> </limitations>\r\n        <notes> </notes>\r\n        <data> </data>\r\n        <type>Public API Endpoint Only</type>\r\n        <howfound>Tester Input</howfound>\r\n        <targetrelease>PureCloud 1.0GA</targetrelease>\r\n        <pscim>\r\n            <product>PureCloud</product>\r\n        </pscim>\r\n        <teststeps>\r\n            <teststep action=\"Call an endpoint to get all completed flows limit 5 per page, sort by flow launch Date.Time descending\" expectedresult=\"A HTTP response is returned with a body that contains all completed flows, 5 per page, sorted descending by Date.Time\"/>\r\n        </teststeps>\r\n    </testcase>\r\n    </testcases>\r\n\t\t]]>\r\n      </gim:testCaseXml>\r\n    </gim:UpdateTestCase>\r\n  </soapenv:Body>\r\n</soapenv:Envelope>\r\n"
                },


