|TASKS|
3000
3003
3191
3192
3193

|PERFORMANCE|
3187
3188
3189
3190
3250
3251
3252
3253

|HISTORY|
3195
3196
3197
3198
3199
3200
3201

|DESIGNER_HOME_PAGE|
3328
3329
3330
3380
3418

|DESIGNER_EDITOR|
3374
3375
3376
3377
3378
3379
3422

|QUEUES|
3419
3420
3421

|NO_PERMISSION|
3467
3468
3469
3470
3471
3476
3477

|FULL_LIST|
3000
3003
3187
3188
3189
3190
3191
3192
3193
3195
3196
3197
3198
3199
3200
3201
3250
3251
3252
3253
3328
3329
3330
3374
3375
3376
3377
3378
3379
3380
3418
3419
3420
3421
3422
3467
3468
3469
3470
3471
3476
3477