		{
			"id": "00000000-0000-0000-0000-000000000001",
			"headers": "Content-Type: text/xml\nSOAPAction: http://gimpy.i3domain.inin.com/TCDBWebService/CreateInactiveTestCase\n",
			"url": "http://gimpy.i3domain.inin.com/TCDBWebService/TCDBWebService.asmx",
			"pathVariables": {},
			"preRequestScript": "",
			"method": "POST",
			"collectionId": "00000000-0000-0000-0000-000000000007",
			"data": [],
			"dataMode": "raw",
			"name": "1",
			"description": "",
			"descriptionFormat": "html",
			"time": 1428691633073,
			"version": 2,
			"responses": [],
			"tests": "var jsonObject = xmlToJson(responseBody);\nvar importResult = JSON.stringify(jsonObject);\nvar match = importResult.match(/testcaseid.+\\:\\\\\\\"(\\d+).+imported/);\npostman.setGlobalVariable( \"testCaseId\", match[1]);\nconsole.log(\"Test Case Number Imported \" + match[1]);",
			"currentHelper": "normal",
			"helperAttributes": {},
			"collectionOwner": 0,
			"write": true,
			"synced": false,
			"owner": "39537",
			"collection": "00000000-0000-0000-0000-000000000007",
			"rawModeData": "<soapenv:Envelope xmlns:soapenv=\"http://schemas.xmlsoap.org/soap/envelope/\" xmlns:gim=\"http://gimpy.i3domain.inin.com\">\r\n  <soapenv:Header/>\r\n  <soapenv:Body>\r\n    <gim:CreateInactiveTestCase>\r\n      <!--Optional:-->\r\n      <gim:testCaseXml>       \r\n                <![CDATA[         \r\n    <testcases username=\"{{gimpyUsername}}\">\r\n    <testcase codebase=\"PureCloud\" id=\"{{testCaseId}}\" name=\"API - Get List of Work Items Belonging To Running Flow\" priority=\"P1\" state=\"Inactive\">\r\n        <description>Verify the correct behavior upon retrieving a list of all Work Items belonging to a specified flow that is running</description>\r\n        <estimatedruntime>0.20</estimatedruntime>\r\n        <assumptions>A running flow exists that has at least one Work Item associated with it.</assumptions>\r\n        <limitations> </limitations>\r\n        <notes> </notes>\r\n        <data> </data>\r\n        <type>Public API Endpoint Only</type>\r\n        <howfound>Tester Input</howfound>\r\n        <targetrelease>PureCloud 1.0GA</targetrelease>\r\n        <pscim>\r\n            <product>PureCloud</product>\r\n        </pscim>\r\n        <teststeps>\r\n            <teststep action=\"Call an endpoint to get a list of Work Items belonging to a flow that is running \" expectedresult=\"A HTTP response is returned with a body containing a list of Work Items belonging to the specified flow\"/>\r\n        </teststeps>\r\n    </testcase>\r\n    </testcases>\r\n\t\t]]>\r\n      </gim:testCaseXml>\r\n    </gim:CreateInactiveTestCase>\r\n  </soapenv:Body>\r\n</soapenv:Envelope>\r\n"
		},


		{
			"id": "00000000-0000-0000-0000-000000000002",
			"headers": "Content-Type: text/xml\nSOAPAction: http://gimpy.i3domain.inin.com/TCDBWebService/CreateInactiveTestCase\n",
			"url": "http://gimpy.i3domain.inin.com/TCDBWebService/TCDBWebService.asmx",
			"pathVariables": {},
			"preRequestScript": "",
			"method": "POST",
			"collectionId": "00000000-0000-0000-0000-000000000007",
			"data": [],
			"dataMode": "raw",
			"name": "2",
			"description": "",
			"descriptionFormat": "html",
			"time": 1428691633073,
			"version": 2,
			"responses": [],
			"tests": "var jsonObject = xmlToJson(responseBody);\nvar importResult = JSON.stringify(jsonObject);\nvar match = importResult.match(/testcaseid.+\\:\\\\\\\"(\\d+).+imported/);\npostman.setGlobalVariable( \"testCaseId\", match[1]);\nconsole.log(\"Test Case Number Imported \" + match[1]);",
			"currentHelper": "normal",
			"helperAttributes": {},
			"collectionOwner": 0,
			"write": true,
			"synced": false,
			"owner": "39537",
			"collection": "00000000-0000-0000-0000-000000000007",
			"rawModeData": "<soapenv:Envelope xmlns:soapenv=\"http://schemas.xmlsoap.org/soap/envelope/\" xmlns:gim=\"http://gimpy.i3domain.inin.com\">\r\n  <soapenv:Header/>\r\n  <soapenv:Body>\r\n    <gim:CreateInactiveTestCase>\r\n      <!--Optional:-->\r\n      <gim:testCaseXml>       \r\n                <![CDATA[         \r\n    <testcases username=\"{{gimpyUsername}}\">\r\n    <testcase codebase=\"PureCloud\" id=\"{{testCaseId}}\" name=\"API - Get List of Work Items Belonging To Completed Flow\" priority=\"P1\" state=\"Inactive\">\r\n        <description>Verify the correct behavior upon retrieving a list of all Work Items belonging to a specified flow that has been completed</description>\r\n        <estimatedruntime>0.20</estimatedruntime>\r\n        <assumptions>A completed flow exists that has at least one Work Item associated with it.</assumptions>\r\n        <limitations> </limitations>\r\n        <notes> </notes>\r\n        <data> </data>\r\n        <type>Public API Endpoint Only</type>\r\n        <howfound>Tester Input</howfound>\r\n        <targetrelease>PureCloud 1.0GA</targetrelease>\r\n        <pscim>\r\n            <product>PureCloud</product>\r\n        </pscim>\r\n        <teststeps>\r\n            <teststep action=\"Call an endpoint to get a list of Work Items belonging to a flow that has been completed\" expectedresult=\"A HTTP response is returned with a body containing a list of Work Items belonging to the specified flow\"/>\r\n        </teststeps>\r\n    </testcase>\r\n    </testcases>\r\n\t\t]]>\r\n      </gim:testCaseXml>\r\n    </gim:CreateInactiveTestCase>\r\n  </soapenv:Body>\r\n</soapenv:Envelope>\r\n"
		},


		{
			"id": "00000000-0000-0000-0000-000000000003",
			"headers": "Content-Type: text/xml\nSOAPAction: http://gimpy.i3domain.inin.com/TCDBWebService/CreateInactiveTestCase\n",
			"url": "http://gimpy.i3domain.inin.com/TCDBWebService/TCDBWebService.asmx",
			"pathVariables": {},
			"preRequestScript": "",
			"method": "POST",
			"collectionId": "00000000-0000-0000-0000-000000000007",
			"data": [],
			"dataMode": "raw",
			"name": "3",
			"description": "",
			"descriptionFormat": "html",
			"time": 1428691633073,
			"version": 2,
			"responses": [],
			"tests": "var jsonObject = xmlToJson(responseBody);\nvar importResult = JSON.stringify(jsonObject);\nvar match = importResult.match(/testcaseid.+\\:\\\\\\\"(\\d+).+imported/);\npostman.setGlobalVariable( \"testCaseId\", match[1]);\nconsole.log(\"Test Case Number Imported \" + match[1]);",
			"currentHelper": "normal",
			"helperAttributes": {},
			"collectionOwner": 0,
			"write": true,
			"synced": false,
			"owner": "39537",
			"collection": "00000000-0000-0000-0000-000000000007",
			"rawModeData": "<soapenv:Envelope xmlns:soapenv=\"http://schemas.xmlsoap.org/soap/envelope/\" xmlns:gim=\"http://gimpy.i3domain.inin.com\">\r\n  <soapenv:Header/>\r\n  <soapenv:Body>\r\n    <gim:CreateInactiveTestCase>\r\n      <!--Optional:-->\r\n      <gim:testCaseXml>       \r\n                <![CDATA[         \r\n    <testcases username=\"{{gimpyUsername}}\">\r\n    <testcase codebase=\"PureCloud\" id=\"{{testCaseId}}\" name=\"API - Get List of Work Items Belonging To Flow In Error\" priority=\"P1\" state=\"Inactive\">\r\n        <description>Verify the correct behavior upon retrieving a list of all Work Items belonging to a specified flow that has gone to error</description>\r\n        <estimatedruntime>0.20</estimatedruntime>\r\n        <assumptions>A flow in error exists that has at least one Work Item associated with it.</assumptions>\r\n        <limitations> </limitations>\r\n        <notes> </notes>\r\n        <data> </data>\r\n        <type>Public API Endpoint Only</type>\r\n        <howfound>Tester Input</howfound>\r\n        <targetrelease>PureCloud 1.0GA</targetrelease>\r\n        <pscim>\r\n            <product>PureCloud</product>\r\n        </pscim>\r\n        <teststeps>\r\n            <teststep action=\"Call an endpoint to get a list of Work Items belonging to a flow that has gone to error \" expectedresult=\"A HTTP response is returned with a body containing a list of Work Items belonging to the specified flow\"/>\r\n        </teststeps>\r\n    </testcase>\r\n    </testcases>\r\n\t\t]]>\r\n      </gim:testCaseXml>\r\n    </gim:CreateInactiveTestCase>\r\n  </soapenv:Body>\r\n</soapenv:Envelope>\r\n"
		},


		{
			"id": "00000000-0000-0000-0000-000000000004",
			"headers": "Content-Type: text/xml\nSOAPAction: http://gimpy.i3domain.inin.com/TCDBWebService/CreateInactiveTestCase\n",
			"url": "http://gimpy.i3domain.inin.com/TCDBWebService/TCDBWebService.asmx",
			"pathVariables": {},
			"preRequestScript": "",
			"method": "POST",
			"collectionId": "00000000-0000-0000-0000-000000000007",
			"data": [],
			"dataMode": "raw",
			"name": "4",
			"description": "",
			"descriptionFormat": "html",
			"time": 1428691633073,
			"version": 2,
			"responses": [],
			"tests": "var jsonObject = xmlToJson(responseBody);\nvar importResult = JSON.stringify(jsonObject);\nvar match = importResult.match(/testcaseid.+\\:\\\\\\\"(\\d+).+imported/);\npostman.setGlobalVariable( \"testCaseId\", match[1]);\nconsole.log(\"Test Case Number Imported \" + match[1]);",
			"currentHelper": "normal",
			"helperAttributes": {},
			"collectionOwner": 0,
			"write": true,
			"synced": false,
			"owner": "39537",
			"collection": "00000000-0000-0000-0000-000000000007",
			"rawModeData": "<soapenv:Envelope xmlns:soapenv=\"http://schemas.xmlsoap.org/soap/envelope/\" xmlns:gim=\"http://gimpy.i3domain.inin.com\">\r\n  <soapenv:Header/>\r\n  <soapenv:Body>\r\n    <gim:CreateInactiveTestCase>\r\n      <!--Optional:-->\r\n      <gim:testCaseXml>       \r\n                <![CDATA[         \r\n    <testcases username=\"{{gimpyUsername}}\">\r\n    <testcase codebase=\"PureCloud\" id=\"{{testCaseId}}\" name=\"API - Get List of Work Items Belonging To Cancelled Flow\" priority=\"P1\" state=\"Inactive\">\r\n        <description>Verify the correct behavior upon retrieving a list of all Work Items belonging to a specified flow that has been canceled</description>\r\n        <estimatedruntime>0.20</estimatedruntime>\r\n        <assumptions>A cancelled flow exists that has at least one Work Item associated with it.</assumptions>\r\n        <limitations> </limitations>\r\n        <notes> </notes>\r\n        <data> </data>\r\n        <type>Public API Endpoint Only</type>\r\n        <howfound>Tester Input</howfound>\r\n        <targetrelease>PureCloud 1.0GA</targetrelease>\r\n        <pscim>\r\n            <product>PureCloud</product>\r\n        </pscim>\r\n        <teststeps>\r\n            <teststep action=\"Call an endpoint to get a list of Work Items belonging to a flow that has been canceled\" expectedresult=\"A HTTP response is returned with a body containing a list of Work Items belonging to the specified flow\"/>\r\n        </teststeps>\r\n    </testcase>\r\n    </testcases>\r\n\t\t]]>\r\n      </gim:testCaseXml>\r\n    </gim:CreateInactiveTestCase>\r\n  </soapenv:Body>\r\n</soapenv:Envelope>\r\n"
		},


		{
			"id": "00000000-0000-0000-0000-000000000005",
			"headers": "Content-Type: text/xml\nSOAPAction: http://gimpy.i3domain.inin.com/TCDBWebService/CreateInactiveTestCase\n",
			"url": "http://gimpy.i3domain.inin.com/TCDBWebService/TCDBWebService.asmx",
			"pathVariables": {},
			"preRequestScript": "",
			"method": "POST",
			"collectionId": "00000000-0000-0000-0000-000000000007",
			"data": [],
			"dataMode": "raw",
			"name": "5",
			"description": "",
			"descriptionFormat": "html",
			"time": 1428691633073,
			"version": 2,
			"responses": [],
			"tests": "var jsonObject = xmlToJson(responseBody);\nvar importResult = JSON.stringify(jsonObject);\nvar match = importResult.match(/testcaseid.+\\:\\\\\\\"(\\d+).+imported/);\npostman.setGlobalVariable( \"testCaseId\", match[1]);\nconsole.log(\"Test Case Number Imported \" + match[1]);",
			"currentHelper": "normal",
			"helperAttributes": {},
			"collectionOwner": 0,
			"write": true,
			"synced": false,
			"owner": "39537",
			"collection": "00000000-0000-0000-0000-000000000007",
			"rawModeData": "<soapenv:Envelope xmlns:soapenv=\"http://schemas.xmlsoap.org/soap/envelope/\" xmlns:gim=\"http://gimpy.i3domain.inin.com\">\r\n  <soapenv:Header/>\r\n  <soapenv:Body>\r\n    <gim:CreateInactiveTestCase>\r\n      <!--Optional:-->\r\n      <gim:testCaseXml>       \r\n                <![CDATA[         \r\n    <testcases username=\"{{gimpyUsername}}\">\r\n    <testcase codebase=\"PureCloud\" id=\"{{testCaseId}}\" name=\"API - Get List of Work Items Belonging To Nonexistent Flow\" priority=\"P1\" state=\"Inactive\">\r\n        <description>Verify the correct behavior upon retrieving a list of all Work Items belonging to a specified flow that does not exist</description>\r\n        <estimatedruntime>0.20</estimatedruntime>\r\n        <assumptions>A cancelled flow exists that has at least one Work Item associated with it.</assumptions>\r\n        <limitations> </limitations>\r\n        <notes> </notes>\r\n        <data> </data>\r\n        <type>Public API Endpoint Only</type>\r\n        <howfound>Tester Input</howfound>\r\n        <targetrelease>PureCloud 1.0GA</targetrelease>\r\n        <pscim>\r\n            <product>PureCloud</product>\r\n        </pscim>\r\n        <teststeps>\r\n            <teststep action=\"Call an endpoint to get a list of Work Items belonging to a flow that does't exist\" expectedresult=\"A HTTP response is returned indicating that the specified flow does not exist\"/>\r\n        </teststeps>\r\n    </testcase>\r\n    </testcases>\r\n\t\t]]>\r\n      </gim:testCaseXml>\r\n    </gim:CreateInactiveTestCase>\r\n  </soapenv:Body>\r\n</soapenv:Envelope>\r\n"
		},


		{
			"id": "00000000-0000-0000-0000-000000000006",
			"headers": "Content-Type: text/xml\nSOAPAction: http://gimpy.i3domain.inin.com/TCDBWebService/CreateInactiveTestCase\n",
			"url": "http://gimpy.i3domain.inin.com/TCDBWebService/TCDBWebService.asmx",
			"pathVariables": {},
			"preRequestScript": "",
			"method": "POST",
			"collectionId": "00000000-0000-0000-0000-000000000007",
			"data": [],
			"dataMode": "raw",
			"name": "6",
			"description": "",
			"descriptionFormat": "html",
			"time": 1428691633073,
			"version": 2,
			"responses": [],
			"tests": "var jsonObject = xmlToJson(responseBody);\nvar importResult = JSON.stringify(jsonObject);\nvar match = importResult.match(/testcaseid.+\\:\\\\\\\"(\\d+).+imported/);\npostman.setGlobalVariable( \"testCaseId\", match[1]);\nconsole.log(\"Test Case Number Imported \" + match[1]);",
			"currentHelper": "normal",
			"helperAttributes": {},
			"collectionOwner": 0,
			"write": true,
			"synced": false,
			"owner": "39537",
			"collection": "00000000-0000-0000-0000-000000000007",
			"rawModeData": "<soapenv:Envelope xmlns:soapenv=\"http://schemas.xmlsoap.org/soap/envelope/\" xmlns:gim=\"http://gimpy.i3domain.inin.com\">\r\n  <soapenv:Header/>\r\n  <soapenv:Body>\r\n    <gim:CreateInactiveTestCase>\r\n      <!--Optional:-->\r\n      <gim:testCaseXml>       \r\n                <![CDATA[         \r\n    <testcases username=\"{{gimpyUsername}}\">\r\n    <testcase codebase=\"PureCloud\" id=\"{{testCaseId}}\" name=\"API - Get List of Work Items Belonging To Version of Running Flow\" priority=\"P1\" state=\"Inactive\">\r\n        <description>Verify the correct behavior upon retrieving a list of all Work Items belonging to a specified version of a specified flow that is running</description>\r\n        <estimatedruntime>0.20</estimatedruntime>\r\n        <assumptions>A running flow exists with multiple versions that has at least one Work Item associated with it.</assumptions>\r\n        <limitations> </limitations>\r\n        <notes> </notes>\r\n        <data> </data>\r\n        <type>Public API Endpoint Only</type>\r\n        <howfound>Tester Input</howfound>\r\n        <targetrelease>PureCloud 1.0GA</targetrelease>\r\n        <pscim>\r\n            <product>PureCloud</product>\r\n        </pscim>\r\n        <teststeps>\r\n            <teststep action=\"Call an endpoint to get a list of Work Items belonging to a specific version of a flow that is running\" expectedresult=\"A HTTP response is returned with a body containing a list of Work Items belonging to the specified version of the specified flow\"/>\r\n        </teststeps>\r\n    </testcase>\r\n    </testcases>\r\n\t\t]]>\r\n      </gim:testCaseXml>\r\n    </gim:CreateInactiveTestCase>\r\n  </soapenv:Body>\r\n</soapenv:Envelope>\r\n"
		},


		{
			"id": "00000000-0000-0000-0000-000000000007",
			"headers": "Content-Type: text/xml\nSOAPAction: http://gimpy.i3domain.inin.com/TCDBWebService/CreateInactiveTestCase\n",
			"url": "http://gimpy.i3domain.inin.com/TCDBWebService/TCDBWebService.asmx",
			"pathVariables": {},
			"preRequestScript": "",
			"method": "POST",
			"collectionId": "00000000-0000-0000-0000-000000000007",
			"data": [],
			"dataMode": "raw",
			"name": "7",
			"description": "",
			"descriptionFormat": "html",
			"time": 1428691633073,
			"version": 2,
			"responses": [],
			"tests": "var jsonObject = xmlToJson(responseBody);\nvar importResult = JSON.stringify(jsonObject);\nvar match = importResult.match(/testcaseid.+\\:\\\\\\\"(\\d+).+imported/);\npostman.setGlobalVariable( \"testCaseId\", match[1]);\nconsole.log(\"Test Case Number Imported \" + match[1]);",
			"currentHelper": "normal",
			"helperAttributes": {},
			"collectionOwner": 0,
			"write": true,
			"synced": false,
			"owner": "39537",
			"collection": "00000000-0000-0000-0000-000000000007",
			"rawModeData": "<soapenv:Envelope xmlns:soapenv=\"http://schemas.xmlsoap.org/soap/envelope/\" xmlns:gim=\"http://gimpy.i3domain.inin.com\">\r\n  <soapenv:Header/>\r\n  <soapenv:Body>\r\n    <gim:CreateInactiveTestCase>\r\n      <!--Optional:-->\r\n      <gim:testCaseXml>       \r\n                <![CDATA[         \r\n    <testcases username=\"{{gimpyUsername}}\">\r\n    <testcase codebase=\"PureCloud\" id=\"{{testCaseId}}\" name=\"API - Get List of Work Items Belonging To Version of Flow In Error\" priority=\"P1\" state=\"Inactive\">\r\n        <description>Verify the correct behavior upon retrieving a list of all Work Items belonging to a specified version of a specified flow that has gone to error</description>\r\n        <estimatedruntime>0.20</estimatedruntime>\r\n        <assumptions>Multiple versions of the flow exist which are in error.\r\n A version of the flow has one or more Work Item(s) associated with it.</assumptions>\r\n        <limitations> </limitations>\r\n        <notes> </notes>\r\n        <data> </data>\r\n        <type>Public API Endpoint Only</type>\r\n        <howfound>Tester Input</howfound>\r\n        <targetrelease>PureCloud 1.0GA</targetrelease>\r\n        <pscim>\r\n            <product>PureCloud</product>\r\n        </pscim>\r\n        <teststeps>\r\n            <teststep action=\"Call an endpoint to get a list of Work Items belonging to a specific version of a flow that is in error \" expectedresult=\"A HTTP response is returned with a body containing a list of Work Items belonging to the specified version of the specified flow\"/>\r\n        </teststeps>\r\n    </testcase>\r\n    </testcases>\r\n\t\t]]>\r\n      </gim:testCaseXml>\r\n    </gim:CreateInactiveTestCase>\r\n  </soapenv:Body>\r\n</soapenv:Envelope>\r\n"
		},


		{
			"id": "00000000-0000-0000-0000-000000000008",
			"headers": "Content-Type: text/xml\nSOAPAction: http://gimpy.i3domain.inin.com/TCDBWebService/CreateInactiveTestCase\n",
			"url": "http://gimpy.i3domain.inin.com/TCDBWebService/TCDBWebService.asmx",
			"pathVariables": {},
			"preRequestScript": "",
			"method": "POST",
			"collectionId": "00000000-0000-0000-0000-000000000007",
			"data": [],
			"dataMode": "raw",
			"name": "8",
			"description": "",
			"descriptionFormat": "html",
			"time": 1428691633073,
			"version": 2,
			"responses": [],
			"tests": "var jsonObject = xmlToJson(responseBody);\nvar importResult = JSON.stringify(jsonObject);\nvar match = importResult.match(/testcaseid.+\\:\\\\\\\"(\\d+).+imported/);\npostman.setGlobalVariable( \"testCaseId\", match[1]);\nconsole.log(\"Test Case Number Imported \" + match[1]);",
			"currentHelper": "normal",
			"helperAttributes": {},
			"collectionOwner": 0,
			"write": true,
			"synced": false,
			"owner": "39537",
			"collection": "00000000-0000-0000-0000-000000000007",
			"rawModeData": "<soapenv:Envelope xmlns:soapenv=\"http://schemas.xmlsoap.org/soap/envelope/\" xmlns:gim=\"http://gimpy.i3domain.inin.com\">\r\n  <soapenv:Header/>\r\n  <soapenv:Body>\r\n    <gim:CreateInactiveTestCase>\r\n      <!--Optional:-->\r\n      <gim:testCaseXml>       \r\n                <![CDATA[         \r\n    <testcases username=\"{{gimpyUsername}}\">\r\n    <testcase codebase=\"PureCloud\" id=\"{{testCaseId}}\" name=\"API - Get List of Work Items Belonging To Nonexistent Version of Flow\" priority=\"P1\" state=\"Inactive\">\r\n        <description>Verify the correct behavior upon retrieving a list of all Work Items belonging to a specified version that does not exist of a specified flow</description>\r\n        <estimatedruntime>0.20</estimatedruntime>\r\n        <assumptions>A flow exists with multiple versions.\r\n A version of the flow has one or more Work Item(s) associated with it.</assumptions>\r\n        <limitations> </limitations>\r\n        <notes> </notes>\r\n        <data> </data>\r\n        <type>Public API Endpoint Only</type>\r\n        <howfound>Tester Input</howfound>\r\n        <targetrelease>PureCloud 1.0GA</targetrelease>\r\n        <pscim>\r\n            <product>PureCloud</product>\r\n        </pscim>\r\n        <teststeps>\r\n            <teststep action=\"Call an endpoint to get a list of Work Items belonging to a specific version of a flow that doesn't exist\" expectedresult=\"A HTTP response is returned indicating that the specified version of the specified flow does not exist\"/>\r\n        </teststeps>\r\n    </testcase>\r\n    </testcases>\r\n\t\t]]>\r\n      </gim:testCaseXml>\r\n    </gim:CreateInactiveTestCase>\r\n  </soapenv:Body>\r\n</soapenv:Envelope>\r\n"
		},


		{
			"id": "00000000-0000-0000-0000-000000000009",
			"headers": "Content-Type: text/xml\nSOAPAction: http://gimpy.i3domain.inin.com/TCDBWebService/CreateInactiveTestCase\n",
			"url": "http://gimpy.i3domain.inin.com/TCDBWebService/TCDBWebService.asmx",
			"pathVariables": {},
			"preRequestScript": "",
			"method": "POST",
			"collectionId": "00000000-0000-0000-0000-000000000007",
			"data": [],
			"dataMode": "raw",
			"name": "9",
			"description": "",
			"descriptionFormat": "html",
			"time": 1428691633073,
			"version": 2,
			"responses": [],
			"tests": "var jsonObject = xmlToJson(responseBody);\nvar importResult = JSON.stringify(jsonObject);\nvar match = importResult.match(/testcaseid.+\\:\\\\\\\"(\\d+).+imported/);\npostman.setGlobalVariable( \"testCaseId\", match[1]);\nconsole.log(\"Test Case Number Imported \" + match[1]);",
			"currentHelper": "normal",
			"helperAttributes": {},
			"collectionOwner": 0,
			"write": true,
			"synced": false,
			"owner": "39537",
			"collection": "00000000-0000-0000-0000-000000000007",
			"rawModeData": "<soapenv:Envelope xmlns:soapenv=\"http://schemas.xmlsoap.org/soap/envelope/\" xmlns:gim=\"http://gimpy.i3domain.inin.com\">\r\n  <soapenv:Header/>\r\n  <soapenv:Body>\r\n    <gim:CreateInactiveTestCase>\r\n      <!--Optional:-->\r\n      <gim:testCaseXml>       \r\n                <![CDATA[         \r\n    <testcases username=\"{{gimpyUsername}}\">\r\n    <testcase codebase=\"PureCloud\" id=\"{{testCaseId}}\" name=\"API - Get List of NOT Suspended Work Items Belonging To Nonexistent User\" priority=\"P1\" state=\"Inactive\">\r\n        <description>Verify the correct behavior upon retrieving a list of all NOT suspended Work Items belonging to an user that does not exist</description>\r\n        <estimatedruntime>0.20</estimatedruntime>\r\n        <assumptions>A Work Item exists that is NOT been suspended.</assumptions>\r\n        <limitations> </limitations>\r\n        <notes> </notes>\r\n        <data> </data>\r\n        <type>Public API Endpoint Only</type>\r\n        <howfound>Tester Input</howfound>\r\n        <targetrelease>PureCloud 1.0GA</targetrelease>\r\n        <pscim>\r\n            <product>PureCloud</product>\r\n        </pscim>\r\n        <teststeps>\r\n            <teststep action=\"Call an endpoint to get a list of NOT suspended Work Items owned by a specified user that doesn't exist\" expectedresult=\"A HTTP response is returned indicating that the specified user does not exist\"/>\r\n        </teststeps>\r\n    </testcase>\r\n    </testcases>\r\n\t\t]]>\r\n      </gim:testCaseXml>\r\n    </gim:CreateInactiveTestCase>\r\n  </soapenv:Body>\r\n</soapenv:Envelope>\r\n"
		},


		{
			"id": "00000000-0000-0000-0000-000000000010",
			"headers": "Content-Type: text/xml\nSOAPAction: http://gimpy.i3domain.inin.com/TCDBWebService/CreateInactiveTestCase\n",
			"url": "http://gimpy.i3domain.inin.com/TCDBWebService/TCDBWebService.asmx",
			"pathVariables": {},
			"preRequestScript": "",
			"method": "POST",
			"collectionId": "00000000-0000-0000-0000-000000000007",
			"data": [],
			"dataMode": "raw",
			"name": "10",
			"description": "",
			"descriptionFormat": "html",
			"time": 1428691633073,
			"version": 2,
			"responses": [],
			"tests": "var jsonObject = xmlToJson(responseBody);\nvar importResult = JSON.stringify(jsonObject);\nvar match = importResult.match(/testcaseid.+\\:\\\\\\\"(\\d+).+imported/);\npostman.setGlobalVariable( \"testCaseId\", match[1]);\nconsole.log(\"Test Case Number Imported \" + match[1]);",
			"currentHelper": "normal",
			"helperAttributes": {},
			"collectionOwner": 0,
			"write": true,
			"synced": false,
			"owner": "39537",
			"collection": "00000000-0000-0000-0000-000000000007",
			"rawModeData": "<soapenv:Envelope xmlns:soapenv=\"http://schemas.xmlsoap.org/soap/envelope/\" xmlns:gim=\"http://gimpy.i3domain.inin.com\">\r\n  <soapenv:Header/>\r\n  <soapenv:Body>\r\n    <gim:CreateInactiveTestCase>\r\n      <!--Optional:-->\r\n      <gim:testCaseXml>       \r\n                <![CDATA[         \r\n    <testcases username=\"{{gimpyUsername}}\">\r\n    <testcase codebase=\"PureCloud\" id=\"{{testCaseId}}\" name=\"API - Get List of Suspended Work Items Belonging To Nonexistent User\" priority=\"P1\" state=\"Inactive\">\r\n        <description>Verify the correct behavior upon retrieving a list of all suspended Work Items belonging to an user that does not exist</description>\r\n        <estimatedruntime>0.20</estimatedruntime>\r\n        <assumptions>A Work Item exists that has been suspended.</assumptions>\r\n        <limitations> </limitations>\r\n        <notes> </notes>\r\n        <data> </data>\r\n        <type>Public API Endpoint Only</type>\r\n        <howfound>Tester Input</howfound>\r\n        <targetrelease>PureCloud 1.0GA</targetrelease>\r\n        <pscim>\r\n            <product>PureCloud</product>\r\n        </pscim>\r\n        <teststeps>\r\n            <teststep action=\"Call an endpoint to get a list of suspended Work Items owned by a specified user that doesn't exist\" expectedresult=\"A HTTP response is returned indicating that the specified user does not exist\"/>\r\n        </teststeps>\r\n    </testcase>\r\n    </testcases>\r\n\t\t]]>\r\n      </gim:testCaseXml>\r\n    </gim:CreateInactiveTestCase>\r\n  </soapenv:Body>\r\n</soapenv:Envelope>\r\n"
		},


		{
			"id": "00000000-0000-0000-0000-000000000011",
			"headers": "Content-Type: text/xml\nSOAPAction: http://gimpy.i3domain.inin.com/TCDBWebService/CreateInactiveTestCase\n",
			"url": "http://gimpy.i3domain.inin.com/TCDBWebService/TCDBWebService.asmx",
			"pathVariables": {},
			"preRequestScript": "",
			"method": "POST",
			"collectionId": "00000000-0000-0000-0000-000000000007",
			"data": [],
			"dataMode": "raw",
			"name": "11",
			"description": "",
			"descriptionFormat": "html",
			"time": 1428691633073,
			"version": 2,
			"responses": [],
			"tests": "var jsonObject = xmlToJson(responseBody);\nvar importResult = JSON.stringify(jsonObject);\nvar match = importResult.match(/testcaseid.+\\:\\\\\\\"(\\d+).+imported/);\npostman.setGlobalVariable( \"testCaseId\", match[1]);\nconsole.log(\"Test Case Number Imported \" + match[1]);",
			"currentHelper": "normal",
			"helperAttributes": {},
			"collectionOwner": 0,
			"write": true,
			"synced": false,
			"owner": "39537",
			"collection": "00000000-0000-0000-0000-000000000007",
			"rawModeData": "<soapenv:Envelope xmlns:soapenv=\"http://schemas.xmlsoap.org/soap/envelope/\" xmlns:gim=\"http://gimpy.i3domain.inin.com\">\r\n  <soapenv:Header/>\r\n  <soapenv:Body>\r\n    <gim:CreateInactiveTestCase>\r\n      <!--Optional:-->\r\n      <gim:testCaseXml>       \r\n                <![CDATA[         \r\n    <testcases username=\"{{gimpyUsername}}\">\r\n    <testcase codebase=\"PureCloud\" id=\"{{testCaseId}}\" name=\"API - Save NOT Suspended Work Item With Permission Owned By Another User\" priority=\"P1\" state=\"Inactive\">\r\n        <description>Verify the correct behavior upon saving a NOT suspended Work Item with permission that is owned by another user</description>\r\n        <estimatedruntime>0.20</estimatedruntime>\r\n        <assumptions>Permission to save another user's Work Item has been granted.\r\n A Work Item exists that is NOT suspended.\r\n Another user exists that owns the Work Item.</assumptions>\r\n        <limitations> </limitations>\r\n        <notes> </notes>\r\n        <data> </data>\r\n        <type>Public API Endpoint Only</type>\r\n        <howfound>Tester Input</howfound>\r\n        <targetrelease>PureCloud 1.0GA</targetrelease>\r\n        <pscim>\r\n            <product>PureCloud</product>\r\n        </pscim>\r\n        <teststeps>\r\n            <teststep action=\"Call an endpoint to save a Work Item with permission that is owned by another user and NOT suspended \" expectedresult=\"A HTTP response is returned indicating the operation was a success\"/>\r\n        </teststeps>\r\n    </testcase>\r\n    </testcases>\r\n\t\t]]>\r\n      </gim:testCaseXml>\r\n    </gim:CreateInactiveTestCase>\r\n  </soapenv:Body>\r\n</soapenv:Envelope>\r\n"
		},


		{
			"id": "00000000-0000-0000-0000-000000000012",
			"headers": "Content-Type: text/xml\nSOAPAction: http://gimpy.i3domain.inin.com/TCDBWebService/CreateInactiveTestCase\n",
			"url": "http://gimpy.i3domain.inin.com/TCDBWebService/TCDBWebService.asmx",
			"pathVariables": {},
			"preRequestScript": "",
			"method": "POST",
			"collectionId": "00000000-0000-0000-0000-000000000007",
			"data": [],
			"dataMode": "raw",
			"name": "12",
			"description": "",
			"descriptionFormat": "html",
			"time": 1428691633073,
			"version": 2,
			"responses": [],
			"tests": "var jsonObject = xmlToJson(responseBody);\nvar importResult = JSON.stringify(jsonObject);\nvar match = importResult.match(/testcaseid.+\\:\\\\\\\"(\\d+).+imported/);\npostman.setGlobalVariable( \"testCaseId\", match[1]);\nconsole.log(\"Test Case Number Imported \" + match[1]);",
			"currentHelper": "normal",
			"helperAttributes": {},
			"collectionOwner": 0,
			"write": true,
			"synced": false,
			"owner": "39537",
			"collection": "00000000-0000-0000-0000-000000000007",
			"rawModeData": "<soapenv:Envelope xmlns:soapenv=\"http://schemas.xmlsoap.org/soap/envelope/\" xmlns:gim=\"http://gimpy.i3domain.inin.com\">\r\n  <soapenv:Header/>\r\n  <soapenv:Body>\r\n    <gim:CreateInactiveTestCase>\r\n      <!--Optional:-->\r\n      <gim:testCaseXml>       \r\n                <![CDATA[         \r\n    <testcases username=\"{{gimpyUsername}}\">\r\n    <testcase codebase=\"PureCloud\" id=\"{{testCaseId}}\" name=\"API - Save Suspended Work Item With Permission Owned By Another User\" priority=\"P1\" state=\"Inactive\">\r\n        <description>Verify the correct behavior upon saving a suspended Work Item with permission that is owned by another user</description>\r\n        <estimatedruntime>0.20</estimatedruntime>\r\n        <assumptions>Permission to save another user's Work Item has been granted.\r\n A Work Item exists that is suspended.\r\n Another user exists that owns the Work Item.</assumptions>\r\n        <limitations> </limitations>\r\n        <notes> </notes>\r\n        <data> </data>\r\n        <type>Public API Endpoint Only</type>\r\n        <howfound>Tester Input</howfound>\r\n        <targetrelease>PureCloud 1.0GA</targetrelease>\r\n        <pscim>\r\n            <product>PureCloud</product>\r\n        </pscim>\r\n        <teststeps>\r\n            <teststep action=\"Call an endpoint to save a Work Item with permission that is owned by another user and is suspended\" expectedresult=\"A HTTP response is returned indicating the operation was a success\"/>\r\n        </teststeps>\r\n    </testcase>\r\n    </testcases>\r\n\t\t]]>\r\n      </gim:testCaseXml>\r\n    </gim:CreateInactiveTestCase>\r\n  </soapenv:Body>\r\n</soapenv:Envelope>\r\n"
		},


		{
			"id": "00000000-0000-0000-0000-000000000013",
			"headers": "Content-Type: text/xml\nSOAPAction: http://gimpy.i3domain.inin.com/TCDBWebService/CreateInactiveTestCase\n",
			"url": "http://gimpy.i3domain.inin.com/TCDBWebService/TCDBWebService.asmx",
			"pathVariables": {},
			"preRequestScript": "",
			"method": "POST",
			"collectionId": "00000000-0000-0000-0000-000000000007",
			"data": [],
			"dataMode": "raw",
			"name": "13",
			"description": "",
			"descriptionFormat": "html",
			"time": 1428691633073,
			"version": 2,
			"responses": [],
			"tests": "var jsonObject = xmlToJson(responseBody);\nvar importResult = JSON.stringify(jsonObject);\nvar match = importResult.match(/testcaseid.+\\:\\\\\\\"(\\d+).+imported/);\npostman.setGlobalVariable( \"testCaseId\", match[1]);\nconsole.log(\"Test Case Number Imported \" + match[1]);",
			"currentHelper": "normal",
			"helperAttributes": {},
			"collectionOwner": 0,
			"write": true,
			"synced": false,
			"owner": "39537",
			"collection": "00000000-0000-0000-0000-000000000007",
			"rawModeData": "<soapenv:Envelope xmlns:soapenv=\"http://schemas.xmlsoap.org/soap/envelope/\" xmlns:gim=\"http://gimpy.i3domain.inin.com\">\r\n  <soapenv:Header/>\r\n  <soapenv:Body>\r\n    <gim:CreateInactiveTestCase>\r\n      <!--Optional:-->\r\n      <gim:testCaseXml>       \r\n                <![CDATA[         \r\n    <testcases username=\"{{gimpyUsername}}\">\r\n    <testcase codebase=\"PureCloud\" id=\"{{testCaseId}}\" name=\"API - Save Previously Saved Work Item Owned By This User\" priority=\"P1\" state=\"Inactive\">\r\n        <description>Verify the correct behavior upon saving a Work Item that has previously been saved and is owned by this user</description>\r\n        <estimatedruntime>0.20</estimatedruntime>\r\n        <assumptions>Permission to save a Work Item has been granted.</assumptions>\r\n        <limitations> </limitations>\r\n        <notes> </notes>\r\n        <data> </data>\r\n        <type>Public API Endpoint Only</type>\r\n        <howfound>Tester Input</howfound>\r\n        <targetrelease>PureCloud 1.0GA</targetrelease>\r\n        <pscim>\r\n            <product>PureCloud</product>\r\n        </pscim>\r\n        <teststeps>\r\n            <teststep action=\"Call an endpoint to save a Work Item that has been saved by this user\" expectedresult=\"A HTTP response is returned indicating the operation was a success\"/>\r\n        </teststeps>\r\n    </testcase>\r\n    </testcases>\r\n\t\t]]>\r\n      </gim:testCaseXml>\r\n    </gim:CreateInactiveTestCase>\r\n  </soapenv:Body>\r\n</soapenv:Envelope>\r\n"
		},


		{
			"id": "00000000-0000-0000-0000-000000000014",
			"headers": "Content-Type: text/xml\nSOAPAction: http://gimpy.i3domain.inin.com/TCDBWebService/CreateInactiveTestCase\n",
			"url": "http://gimpy.i3domain.inin.com/TCDBWebService/TCDBWebService.asmx",
			"pathVariables": {},
			"preRequestScript": "",
			"method": "POST",
			"collectionId": "00000000-0000-0000-0000-000000000007",
			"data": [],
			"dataMode": "raw",
			"name": "14",
			"description": "",
			"descriptionFormat": "html",
			"time": 1428691633073,
			"version": 2,
			"responses": [],
			"tests": "var jsonObject = xmlToJson(responseBody);\nvar importResult = JSON.stringify(jsonObject);\nvar match = importResult.match(/testcaseid.+\\:\\\\\\\"(\\d+).+imported/);\npostman.setGlobalVariable( \"testCaseId\", match[1]);\nconsole.log(\"Test Case Number Imported \" + match[1]);",
			"currentHelper": "normal",
			"helperAttributes": {},
			"collectionOwner": 0,
			"write": true,
			"synced": false,
			"owner": "39537",
			"collection": "00000000-0000-0000-0000-000000000007",
			"rawModeData": "<soapenv:Envelope xmlns:soapenv=\"http://schemas.xmlsoap.org/soap/envelope/\" xmlns:gim=\"http://gimpy.i3domain.inin.com\">\r\n  <soapenv:Header/>\r\n  <soapenv:Body>\r\n    <gim:CreateInactiveTestCase>\r\n      <!--Optional:-->\r\n      <gim:testCaseXml>       \r\n                <![CDATA[         \r\n    <testcases username=\"{{gimpyUsername}}\">\r\n    <testcase codebase=\"PureCloud\" id=\"{{testCaseId}}\" name=\"API - Save Previously Saved Work Item Owned By Another User\" priority=\"P1\" state=\"Inactive\">\r\n        <description>Verify the correct behavior upon saving a Work Item that has previously been saved and is owned by another user</description>\r\n        <estimatedruntime>0.20</estimatedruntime>\r\n        <assumptions>Permission to save another user's Work Item has been granted.\r\n Another user exists that owns the Work Item.</assumptions>\r\n        <limitations> </limitations>\r\n        <notes> </notes>\r\n        <data> </data>\r\n        <type>Public API Endpoint Only</type>\r\n        <howfound>Tester Input</howfound>\r\n        <targetrelease>PureCloud 1.0GA</targetrelease>\r\n        <pscim>\r\n            <product>PureCloud</product>\r\n        </pscim>\r\n        <teststeps>\r\n            <teststep action=\"Call an endpoint to save a Work Item that has been saved another user\" expectedresult=\"A HTTP response is returned indicating the operation was a success\"/>\r\n        </teststeps>\r\n    </testcase>\r\n    </testcases>\r\n\t\t]]>\r\n      </gim:testCaseXml>\r\n    </gim:CreateInactiveTestCase>\r\n  </soapenv:Body>\r\n</soapenv:Envelope>\r\n"
		},


		{
			"id": "00000000-0000-0000-0000-000000000015",
			"headers": "Content-Type: text/xml\nSOAPAction: http://gimpy.i3domain.inin.com/TCDBWebService/CreateInactiveTestCase\n",
			"url": "http://gimpy.i3domain.inin.com/TCDBWebService/TCDBWebService.asmx",
			"pathVariables": {},
			"preRequestScript": "",
			"method": "POST",
			"collectionId": "00000000-0000-0000-0000-000000000007",
			"data": [],
			"dataMode": "raw",
			"name": "15",
			"description": "",
			"descriptionFormat": "html",
			"time": 1428691633073,
			"version": 2,
			"responses": [],
			"tests": "var jsonObject = xmlToJson(responseBody);\nvar importResult = JSON.stringify(jsonObject);\nvar match = importResult.match(/testcaseid.+\\:\\\\\\\"(\\d+).+imported/);\npostman.setGlobalVariable( \"testCaseId\", match[1]);\nconsole.log(\"Test Case Number Imported \" + match[1]);",
			"currentHelper": "normal",
			"helperAttributes": {},
			"collectionOwner": 0,
			"write": true,
			"synced": false,
			"owner": "39537",
			"collection": "00000000-0000-0000-0000-000000000007",
			"rawModeData": "<soapenv:Envelope xmlns:soapenv=\"http://schemas.xmlsoap.org/soap/envelope/\" xmlns:gim=\"http://gimpy.i3domain.inin.com\">\r\n  <soapenv:Header/>\r\n  <soapenv:Body>\r\n    <gim:CreateInactiveTestCase>\r\n      <!--Optional:-->\r\n      <gim:testCaseXml>       \r\n                <![CDATA[         \r\n    <testcases username=\"{{gimpyUsername}}\">\r\n    <testcase codebase=\"PureCloud\" id=\"{{testCaseId}}\" name=\"API - Save Cancelled Work Item\" priority=\"P1\" state=\"Inactive\">\r\n        <description>Verify the correct behavior upon saving a Work Item that has been cancelled</description>\r\n        <estimatedruntime>0.20</estimatedruntime>\r\n        <assumptions>Permission to save a Work Item has been granted.\r\n A Work Item has been cancelled.</assumptions>\r\n        <limitations> </limitations>\r\n        <notes> </notes>\r\n        <data> </data>\r\n        <type>Public API Endpoint Only</type>\r\n        <howfound>Tester Input</howfound>\r\n        <targetrelease>PureCloud 1.0GA</targetrelease>\r\n        <pscim>\r\n            <product>PureCloud</product>\r\n        </pscim>\r\n        <teststeps>\r\n            <teststep action=\"Call an endpoint to save a Work Item that has been cancelled\" expectedresult=\"A HTTP response is returned indicating the operation failed\"/>\r\n        </teststeps>\r\n    </testcase>\r\n    </testcases>\r\n\t\t]]>\r\n      </gim:testCaseXml>\r\n    </gim:CreateInactiveTestCase>\r\n  </soapenv:Body>\r\n</soapenv:Envelope>\r\n"
		},


		{
			"id": "00000000-0000-0000-0000-000000000016",
			"headers": "Content-Type: text/xml\nSOAPAction: http://gimpy.i3domain.inin.com/TCDBWebService/CreateInactiveTestCase\n",
			"url": "http://gimpy.i3domain.inin.com/TCDBWebService/TCDBWebService.asmx",
			"pathVariables": {},
			"preRequestScript": "",
			"method": "POST",
			"collectionId": "00000000-0000-0000-0000-000000000007",
			"data": [],
			"dataMode": "raw",
			"name": "16",
			"description": "",
			"descriptionFormat": "html",
			"time": 1428691633073,
			"version": 2,
			"responses": [],
			"tests": "var jsonObject = xmlToJson(responseBody);\nvar importResult = JSON.stringify(jsonObject);\nvar match = importResult.match(/testcaseid.+\\:\\\\\\\"(\\d+).+imported/);\npostman.setGlobalVariable( \"testCaseId\", match[1]);\nconsole.log(\"Test Case Number Imported \" + match[1]);",
			"currentHelper": "normal",
			"helperAttributes": {},
			"collectionOwner": 0,
			"write": true,
			"synced": false,
			"owner": "39537",
			"collection": "00000000-0000-0000-0000-000000000007",
			"rawModeData": "<soapenv:Envelope xmlns:soapenv=\"http://schemas.xmlsoap.org/soap/envelope/\" xmlns:gim=\"http://gimpy.i3domain.inin.com\">\r\n  <soapenv:Header/>\r\n  <soapenv:Body>\r\n    <gim:CreateInactiveTestCase>\r\n      <!--Optional:-->\r\n      <gim:testCaseXml>       \r\n                <![CDATA[         \r\n    <testcases username=\"{{gimpyUsername}}\">\r\n    <testcase codebase=\"PureCloud\" id=\"{{testCaseId}}\" name=\"API - Suspend Unsuspended Work Item With Permission Owned By Another User\" priority=\"P1\" state=\"Inactive\">\r\n        <description>Verify the correct behavior upon suspending a NOT suspended Work Item with permission owned by another user</description>\r\n        <estimatedruntime>0.20</estimatedruntime>\r\n        <assumptions>Permission to suspend a Work Item has been granted.\r\n A NOT suspended Work Item exists.\r\n Another user exists that owns the Work Item.</assumptions>\r\n        <limitations> </limitations>\r\n        <notes> </notes>\r\n        <data> </data>\r\n        <type>Public API Endpoint Only</type>\r\n        <howfound>Tester Input</howfound>\r\n        <targetrelease>PureCloud 1.0GA</targetrelease>\r\n        <pscim>\r\n            <product>PureCloud</product>\r\n        </pscim>\r\n        <teststeps>\r\n            <teststep action=\"Call an endpoint to Suspend a Work Item with permission that is unsuspended and owned by another user   \" expectedresult=\"A HTTP response is returned indicating the operation was a success\"/>\r\n        </teststeps>\r\n    </testcase>\r\n    </testcases>\r\n\t\t]]>\r\n      </gim:testCaseXml>\r\n    </gim:CreateInactiveTestCase>\r\n  </soapenv:Body>\r\n</soapenv:Envelope>\r\n"
		},


		{
			"id": "00000000-0000-0000-0000-000000000017",
			"headers": "Content-Type: text/xml\nSOAPAction: http://gimpy.i3domain.inin.com/TCDBWebService/CreateInactiveTestCase\n",
			"url": "http://gimpy.i3domain.inin.com/TCDBWebService/TCDBWebService.asmx",
			"pathVariables": {},
			"preRequestScript": "",
			"method": "POST",
			"collectionId": "00000000-0000-0000-0000-000000000007",
			"data": [],
			"dataMode": "raw",
			"name": "17",
			"description": "",
			"descriptionFormat": "html",
			"time": 1428691633073,
			"version": 2,
			"responses": [],
			"tests": "var jsonObject = xmlToJson(responseBody);\nvar importResult = JSON.stringify(jsonObject);\nvar match = importResult.match(/testcaseid.+\\:\\\\\\\"(\\d+).+imported/);\npostman.setGlobalVariable( \"testCaseId\", match[1]);\nconsole.log(\"Test Case Number Imported \" + match[1]);",
			"currentHelper": "normal",
			"helperAttributes": {},
			"collectionOwner": 0,
			"write": true,
			"synced": false,
			"owner": "39537",
			"collection": "00000000-0000-0000-0000-000000000007",
			"rawModeData": "<soapenv:Envelope xmlns:soapenv=\"http://schemas.xmlsoap.org/soap/envelope/\" xmlns:gim=\"http://gimpy.i3domain.inin.com\">\r\n  <soapenv:Header/>\r\n  <soapenv:Body>\r\n    <gim:CreateInactiveTestCase>\r\n      <!--Optional:-->\r\n      <gim:testCaseXml>       \r\n                <![CDATA[         \r\n    <testcases username=\"{{gimpyUsername}}\">\r\n    <testcase codebase=\"PureCloud\" id=\"{{testCaseId}}\" name=\"API - Suspend Suspended Work Item With Permission Owned By Another User\" priority=\"P1\" state=\"Inactive\">\r\n        <description>Verify the correct behavior upon suspending a suspended Work Item with permission owned by another user</description>\r\n        <estimatedruntime>0.20</estimatedruntime>\r\n        <assumptions>Permission to suspend a Work Item has been granted.\r\n A suspended Work Item exists.\r\n Another user exists that owns the Work Item.</assumptions>\r\n        <limitations> </limitations>\r\n        <notes> </notes>\r\n        <data> </data>\r\n        <type>Public API Endpoint Only</type>\r\n        <howfound>Tester Input</howfound>\r\n        <targetrelease>PureCloud 1.0GA</targetrelease>\r\n        <pscim>\r\n            <product>PureCloud</product>\r\n        </pscim>\r\n        <teststeps>\r\n            <teststep action=\"Call an endpoint to Suspend a Work Item with permission that is already suspended and owned by another user \" expectedresult=\"A HTTP response is returned indicating the operation was a success\"/>\r\n        </teststeps>\r\n    </testcase>\r\n    </testcases>\r\n\t\t]]>\r\n      </gim:testCaseXml>\r\n    </gim:CreateInactiveTestCase>\r\n  </soapenv:Body>\r\n</soapenv:Envelope>\r\n"
		},


		{
			"id": "00000000-0000-0000-0000-000000000018",
			"headers": "Content-Type: text/xml\nSOAPAction: http://gimpy.i3domain.inin.com/TCDBWebService/CreateInactiveTestCase\n",
			"url": "http://gimpy.i3domain.inin.com/TCDBWebService/TCDBWebService.asmx",
			"pathVariables": {},
			"preRequestScript": "",
			"method": "POST",
			"collectionId": "00000000-0000-0000-0000-000000000007",
			"data": [],
			"dataMode": "raw",
			"name": "18",
			"description": "",
			"descriptionFormat": "html",
			"time": 1428691633073,
			"version": 2,
			"responses": [],
			"tests": "var jsonObject = xmlToJson(responseBody);\nvar importResult = JSON.stringify(jsonObject);\nvar match = importResult.match(/testcaseid.+\\:\\\\\\\"(\\d+).+imported/);\npostman.setGlobalVariable( \"testCaseId\", match[1]);\nconsole.log(\"Test Case Number Imported \" + match[1]);",
			"currentHelper": "normal",
			"helperAttributes": {},
			"collectionOwner": 0,
			"write": true,
			"synced": false,
			"owner": "39537",
			"collection": "00000000-0000-0000-0000-000000000007",
			"rawModeData": "<soapenv:Envelope xmlns:soapenv=\"http://schemas.xmlsoap.org/soap/envelope/\" xmlns:gim=\"http://gimpy.i3domain.inin.com\">\r\n  <soapenv:Header/>\r\n  <soapenv:Body>\r\n    <gim:CreateInactiveTestCase>\r\n      <!--Optional:-->\r\n      <gim:testCaseXml>       \r\n                <![CDATA[         \r\n    <testcases username=\"{{gimpyUsername}}\">\r\n    <testcase codebase=\"PureCloud\" id=\"{{testCaseId}}\" name=\"API - Unsuspend Unsuspended Work Item With Permission Owned By Another User\" priority=\"P1\" state=\"Inactive\">\r\n        <description>Verify the correct behavior upon unsuspending an unsuspended Work Item with permission owned by another user</description>\r\n        <estimatedruntime>0.20</estimatedruntime>\r\n        <assumptions>Permission to unsuspend a Work Item has been granted.\r\n An unsuspended Work Item exists.\r\n Another user exists that owns the Work Item.</assumptions>\r\n        <limitations> </limitations>\r\n        <notes> </notes>\r\n        <data> </data>\r\n        <type>Public API Endpoint Only</type>\r\n        <howfound>Tester Input</howfound>\r\n        <targetrelease>PureCloud 1.0GA</targetrelease>\r\n        <pscim>\r\n            <product>PureCloud</product>\r\n        </pscim>\r\n        <teststeps>\r\n            <teststep action=\"Call an endpoint to Unsuspend a Work Item with permission that is not suspended and owned by another user\" expectedresult=\"A HTTP response is returned indicating the operation was a success\"/>\r\n        </teststeps>\r\n    </testcase>\r\n    </testcases>\r\n\t\t]]>\r\n      </gim:testCaseXml>\r\n    </gim:CreateInactiveTestCase>\r\n  </soapenv:Body>\r\n</soapenv:Envelope>\r\n"
		},


		{
			"id": "00000000-0000-0000-0000-000000000019",
			"headers": "Content-Type: text/xml\nSOAPAction: http://gimpy.i3domain.inin.com/TCDBWebService/CreateInactiveTestCase\n",
			"url": "http://gimpy.i3domain.inin.com/TCDBWebService/TCDBWebService.asmx",
			"pathVariables": {},
			"preRequestScript": "",
			"method": "POST",
			"collectionId": "00000000-0000-0000-0000-000000000007",
			"data": [],
			"dataMode": "raw",
			"name": "19",
			"description": "",
			"descriptionFormat": "html",
			"time": 1428691633073,
			"version": 2,
			"responses": [],
			"tests": "var jsonObject = xmlToJson(responseBody);\nvar importResult = JSON.stringify(jsonObject);\nvar match = importResult.match(/testcaseid.+\\:\\\\\\\"(\\d+).+imported/);\npostman.setGlobalVariable( \"testCaseId\", match[1]);\nconsole.log(\"Test Case Number Imported \" + match[1]);",
			"currentHelper": "normal",
			"helperAttributes": {},
			"collectionOwner": 0,
			"write": true,
			"synced": false,
			"owner": "39537",
			"collection": "00000000-0000-0000-0000-000000000007",
			"rawModeData": "<soapenv:Envelope xmlns:soapenv=\"http://schemas.xmlsoap.org/soap/envelope/\" xmlns:gim=\"http://gimpy.i3domain.inin.com\">\r\n  <soapenv:Header/>\r\n  <soapenv:Body>\r\n    <gim:CreateInactiveTestCase>\r\n      <!--Optional:-->\r\n      <gim:testCaseXml>       \r\n                <![CDATA[         \r\n    <testcases username=\"{{gimpyUsername}}\">\r\n    <testcase codebase=\"PureCloud\" id=\"{{testCaseId}}\" name=\"API - Unsuspend Suspended Work Item With Permission Owned By Another User\" priority=\"P1\" state=\"Inactive\">\r\n        <description>Verify the correct behavior upon unsuspending a suspended Work Item with permission owned by another user</description>\r\n        <estimatedruntime>0.20</estimatedruntime>\r\n        <assumptions>Permission to unsuspend a Work Item has been granted.\r\n A suspended Work Item exists.\r\n Another user exists that owns the Work Item.</assumptions>\r\n        <limitations> </limitations>\r\n        <notes> </notes>\r\n        <data> </data>\r\n        <type>Public API Endpoint Only</type>\r\n        <howfound>Tester Input</howfound>\r\n        <targetrelease>PureCloud 1.0GA</targetrelease>\r\n        <pscim>\r\n            <product>PureCloud</product>\r\n        </pscim>\r\n        <teststeps>\r\n            <teststep action=\"Call an endpoint to Unsuspend a Work Item with permission that is suspended and owned by another user\" expectedresult=\"A HTTP response is returned indicating the operation was a success\"/>\r\n        </teststeps>\r\n    </testcase>\r\n    </testcases>\r\n\t\t]]>\r\n      </gim:testCaseXml>\r\n    </gim:CreateInactiveTestCase>\r\n  </soapenv:Body>\r\n</soapenv:Envelope>\r\n"
		},


		{
			"id": "00000000-0000-0000-0000-000000000020",
			"headers": "Content-Type: text/xml\nSOAPAction: http://gimpy.i3domain.inin.com/TCDBWebService/CreateInactiveTestCase\n",
			"url": "http://gimpy.i3domain.inin.com/TCDBWebService/TCDBWebService.asmx",
			"pathVariables": {},
			"preRequestScript": "",
			"method": "POST",
			"collectionId": "00000000-0000-0000-0000-000000000007",
			"data": [],
			"dataMode": "raw",
			"name": "20",
			"description": "",
			"descriptionFormat": "html",
			"time": 1428691633073,
			"version": 2,
			"responses": [],
			"tests": "var jsonObject = xmlToJson(responseBody);\nvar importResult = JSON.stringify(jsonObject);\nvar match = importResult.match(/testcaseid.+\\:\\\\\\\"(\\d+).+imported/);\npostman.setGlobalVariable( \"testCaseId\", match[1]);\nconsole.log(\"Test Case Number Imported \" + match[1]);",
			"currentHelper": "normal",
			"helperAttributes": {},
			"collectionOwner": 0,
			"write": true,
			"synced": false,
			"owner": "39537",
			"collection": "00000000-0000-0000-0000-000000000007",
			"rawModeData": "<soapenv:Envelope xmlns:soapenv=\"http://schemas.xmlsoap.org/soap/envelope/\" xmlns:gim=\"http://gimpy.i3domain.inin.com\">\r\n  <soapenv:Header/>\r\n  <soapenv:Body>\r\n    <gim:CreateInactiveTestCase>\r\n      <!--Optional:-->\r\n      <gim:testCaseXml>       \r\n                <![CDATA[         \r\n    <testcases username=\"{{gimpyUsername}}\">\r\n    <testcase codebase=\"PureCloud\" id=\"{{testCaseId}}\" name=\"API - Unsuspend Cancelled Work Item\" priority=\"P1\" state=\"Inactive\">\r\n        <description>Verify the correct behavior upon unsuspending a cancelled Work Item</description>\r\n        <estimatedruntime>0.20</estimatedruntime>\r\n        <assumptions>Permission to unsuspend a Work Item has been granted.\r\n A cancelled Work Item exists.</assumptions>\r\n        <limitations> </limitations>\r\n        <notes> </notes>\r\n        <data> </data>\r\n        <type>Public API Endpoint Only</type>\r\n        <howfound>Tester Input</howfound>\r\n        <targetrelease>PureCloud 1.0GA</targetrelease>\r\n        <pscim>\r\n            <product>PureCloud</product>\r\n        </pscim>\r\n        <teststeps>\r\n            <teststep action=\"Call an endpoint to Unsuspend a Work Item that has been cancelled\" expectedresult=\"A HTTP response is returned indicating the operation failed\"/>\r\n        </teststeps>\r\n    </testcase>\r\n    </testcases>\r\n\t\t]]>\r\n      </gim:testCaseXml>\r\n    </gim:CreateInactiveTestCase>\r\n  </soapenv:Body>\r\n</soapenv:Envelope>\r\n"
		},


		{
			"id": "00000000-0000-0000-0000-000000000021",
			"headers": "Content-Type: text/xml\nSOAPAction: http://gimpy.i3domain.inin.com/TCDBWebService/CreateInactiveTestCase\n",
			"url": "http://gimpy.i3domain.inin.com/TCDBWebService/TCDBWebService.asmx",
			"pathVariables": {},
			"preRequestScript": "",
			"method": "POST",
			"collectionId": "00000000-0000-0000-0000-000000000007",
			"data": [],
			"dataMode": "raw",
			"name": "21",
			"description": "",
			"descriptionFormat": "html",
			"time": 1428691633073,
			"version": 2,
			"responses": [],
			"tests": "var jsonObject = xmlToJson(responseBody);\nvar importResult = JSON.stringify(jsonObject);\nvar match = importResult.match(/testcaseid.+\\:\\\\\\\"(\\d+).+imported/);\npostman.setGlobalVariable( \"testCaseId\", match[1]);\nconsole.log(\"Test Case Number Imported \" + match[1]);",
			"currentHelper": "normal",
			"helperAttributes": {},
			"collectionOwner": 0,
			"write": true,
			"synced": false,
			"owner": "39537",
			"collection": "00000000-0000-0000-0000-000000000007",
			"rawModeData": "<soapenv:Envelope xmlns:soapenv=\"http://schemas.xmlsoap.org/soap/envelope/\" xmlns:gim=\"http://gimpy.i3domain.inin.com\">\r\n  <soapenv:Header/>\r\n  <soapenv:Body>\r\n    <gim:CreateInactiveTestCase>\r\n      <!--Optional:-->\r\n      <gim:testCaseXml>       \r\n                <![CDATA[         \r\n    <testcases username=\"{{gimpyUsername}}\">\r\n    <testcase codebase=\"PureCloud\" id=\"{{testCaseId}}\" name=\"API - Cancel Submitted Work Item\" priority=\"P1\" state=\"Inactive\">\r\n        <description>Verify the correct behavior upon cancelling a submitted Work Item</description>\r\n        <estimatedruntime>0.20</estimatedruntime>\r\n        <assumptions>Permission to cancel a Work Item has been granted.\r\n A submitted Work Item exists.</assumptions>\r\n        <limitations> </limitations>\r\n        <notes> </notes>\r\n        <data> </data>\r\n        <type>Public API Endpoint Only</type>\r\n        <howfound>Tester Input</howfound>\r\n        <targetrelease>PureCloud 1.0GA</targetrelease>\r\n        <pscim>\r\n            <product>PureCloud</product>\r\n        </pscim>\r\n        <teststeps>\r\n            <teststep action=\"Call an endpoint to cancel a Work Item that has been submitted \" expectedresult=\"A HTTP response is returned indicating the operation failed\"/>\r\n        </teststeps>\r\n    </testcase>\r\n    </testcases>\r\n\t\t]]>\r\n      </gim:testCaseXml>\r\n    </gim:CreateInactiveTestCase>\r\n  </soapenv:Body>\r\n</soapenv:Envelope>\r\n"
		},


		{
			"id": "00000000-0000-0000-0000-000000000022",
			"headers": "Content-Type: text/xml\nSOAPAction: http://gimpy.i3domain.inin.com/TCDBWebService/CreateInactiveTestCase\n",
			"url": "http://gimpy.i3domain.inin.com/TCDBWebService/TCDBWebService.asmx",
			"pathVariables": {},
			"preRequestScript": "",
			"method": "POST",
			"collectionId": "00000000-0000-0000-0000-000000000007",
			"data": [],
			"dataMode": "raw",
			"name": "22",
			"description": "",
			"descriptionFormat": "html",
			"time": 1428691633073,
			"version": 2,
			"responses": [],
			"tests": "var jsonObject = xmlToJson(responseBody);\nvar importResult = JSON.stringify(jsonObject);\nvar match = importResult.match(/testcaseid.+\\:\\\\\\\"(\\d+).+imported/);\npostman.setGlobalVariable( \"testCaseId\", match[1]);\nconsole.log(\"Test Case Number Imported \" + match[1]);",
			"currentHelper": "normal",
			"helperAttributes": {},
			"collectionOwner": 0,
			"write": true,
			"synced": false,
			"owner": "39537",
			"collection": "00000000-0000-0000-0000-000000000007",
			"rawModeData": "<soapenv:Envelope xmlns:soapenv=\"http://schemas.xmlsoap.org/soap/envelope/\" xmlns:gim=\"http://gimpy.i3domain.inin.com\">\r\n  <soapenv:Header/>\r\n  <soapenv:Body>\r\n    <gim:CreateInactiveTestCase>\r\n      <!--Optional:-->\r\n      <gim:testCaseXml>       \r\n                <![CDATA[         \r\n    <testcases username=\"{{gimpyUsername}}\">\r\n    <testcase codebase=\"PureCloud\" id=\"{{testCaseId}}\" name=\"API - Cancel Nonexistent Work Item\" priority=\"P1\" state=\"Inactive\">\r\n        <description>Verify the correct behavior upon cancelling a submitted Work Item</description>\r\n        <estimatedruntime>0.20</estimatedruntime>\r\n        <assumptions>Permission to cancel a Work Item has been granted.</assumptions>\r\n        <limitations> </limitations>\r\n        <notes> </notes>\r\n        <data> </data>\r\n        <type>Public API Endpoint Only</type>\r\n        <howfound>Tester Input</howfound>\r\n        <targetrelease>PureCloud 1.0GA</targetrelease>\r\n        <pscim>\r\n            <product>PureCloud</product>\r\n        </pscim>\r\n        <teststeps>\r\n            <teststep action=\"Call an endpoint to cancel a Work Item that doesn't exist \" expectedresult=\"A HTTP response is returned indicating the operation failed\"/>\r\n        </teststeps>\r\n    </testcase>\r\n    </testcases>\r\n\t\t]]>\r\n      </gim:testCaseXml>\r\n    </gim:CreateInactiveTestCase>\r\n  </soapenv:Body>\r\n</soapenv:Envelope>\r\n"
		},


		{
			"id": "00000000-0000-0000-0000-000000000023",
			"headers": "Content-Type: text/xml\nSOAPAction: http://gimpy.i3domain.inin.com/TCDBWebService/CreateInactiveTestCase\n",
			"url": "http://gimpy.i3domain.inin.com/TCDBWebService/TCDBWebService.asmx",
			"pathVariables": {},
			"preRequestScript": "",
			"method": "POST",
			"collectionId": "00000000-0000-0000-0000-000000000007",
			"data": [],
			"dataMode": "raw",
			"name": "23",
			"description": "",
			"descriptionFormat": "html",
			"time": 1428691633073,
			"version": 2,
			"responses": [],
			"tests": "var jsonObject = xmlToJson(responseBody);\nvar importResult = JSON.stringify(jsonObject);\nvar match = importResult.match(/testcaseid.+\\:\\\\\\\"(\\d+).+imported/);\npostman.setGlobalVariable( \"testCaseId\", match[1]);\nconsole.log(\"Test Case Number Imported \" + match[1]);",
			"currentHelper": "normal",
			"helperAttributes": {},
			"collectionOwner": 0,
			"write": true,
			"synced": false,
			"owner": "39537",
			"collection": "00000000-0000-0000-0000-000000000007",
			"rawModeData": "<soapenv:Envelope xmlns:soapenv=\"http://schemas.xmlsoap.org/soap/envelope/\" xmlns:gim=\"http://gimpy.i3domain.inin.com\">\r\n  <soapenv:Header/>\r\n  <soapenv:Body>\r\n    <gim:CreateInactiveTestCase>\r\n      <!--Optional:-->\r\n      <gim:testCaseXml>       \r\n                <![CDATA[         \r\n    <testcases username=\"{{gimpyUsername}}\">\r\n    <testcase codebase=\"PureCloud\" id=\"{{testCaseId}}\" name=\"API - Cancel NOT Suspended Work Item Without Permission Owned By Another User\" priority=\"P1\" state=\"Inactive\">\r\n        <description>Verify the correct behavior upon cancelling a NOT suspended Work Item without permission that is owned by another user</description>\r\n        <estimatedruntime>0.20</estimatedruntime>\r\n        <assumptions>Permission to cancel a Work Item has been revoked.\r\n A Work Item exists that is owned by another user.\r\n The Work Item is NOT suspended.</assumptions>\r\n        <limitations> </limitations>\r\n        <notes> </notes>\r\n        <data> </data>\r\n        <type>Public API Endpoint Only</type>\r\n        <howfound>Tester Input</howfound>\r\n        <targetrelease>PureCloud 1.0GA</targetrelease>\r\n        <pscim>\r\n            <product>PureCloud</product>\r\n        </pscim>\r\n        <teststeps>\r\n            <teststep action=\"Call an endpoint to cancel a Work Item without permission that is owned by another user and NOT suspended\" expectedresult=\"A HTTP response is returned indicating the operation failed  \"/>\r\n        </teststeps>\r\n    </testcase>\r\n    </testcases>\r\n\t\t]]>\r\n      </gim:testCaseXml>\r\n    </gim:CreateInactiveTestCase>\r\n  </soapenv:Body>\r\n</soapenv:Envelope>\r\n"
		},


		{
			"id": "00000000-0000-0000-0000-000000000024",
			"headers": "Content-Type: text/xml\nSOAPAction: http://gimpy.i3domain.inin.com/TCDBWebService/CreateInactiveTestCase\n",
			"url": "http://gimpy.i3domain.inin.com/TCDBWebService/TCDBWebService.asmx",
			"pathVariables": {},
			"preRequestScript": "",
			"method": "POST",
			"collectionId": "00000000-0000-0000-0000-000000000007",
			"data": [],
			"dataMode": "raw",
			"name": "24",
			"description": "",
			"descriptionFormat": "html",
			"time": 1428691633073,
			"version": 2,
			"responses": [],
			"tests": "var jsonObject = xmlToJson(responseBody);\nvar importResult = JSON.stringify(jsonObject);\nvar match = importResult.match(/testcaseid.+\\:\\\\\\\"(\\d+).+imported/);\npostman.setGlobalVariable( \"testCaseId\", match[1]);\nconsole.log(\"Test Case Number Imported \" + match[1]);",
			"currentHelper": "normal",
			"helperAttributes": {},
			"collectionOwner": 0,
			"write": true,
			"synced": false,
			"owner": "39537",
			"collection": "00000000-0000-0000-0000-000000000007",
			"rawModeData": "<soapenv:Envelope xmlns:soapenv=\"http://schemas.xmlsoap.org/soap/envelope/\" xmlns:gim=\"http://gimpy.i3domain.inin.com\">\r\n  <soapenv:Header/>\r\n  <soapenv:Body>\r\n    <gim:CreateInactiveTestCase>\r\n      <!--Optional:-->\r\n      <gim:testCaseXml>       \r\n                <![CDATA[         \r\n    <testcases username=\"{{gimpyUsername}}\">\r\n    <testcase codebase=\"PureCloud\" id=\"{{testCaseId}}\" name=\"API - Cancel Suspended Work Item Without Permission Owned By Another User\" priority=\"P1\" state=\"Inactive\">\r\n        <description>Verify the correct behavior upon cancelling a suspended Work Item without permission that is owned by another user</description>\r\n        <estimatedruntime>0.20</estimatedruntime>\r\n        <assumptions>Permission to cancel a Work Item has been revoked.\r\n A Work Item exists that is owned by another user.\r\n The Work Item is suspended.</assumptions>\r\n        <limitations> </limitations>\r\n        <notes> </notes>\r\n        <data> </data>\r\n        <type>Public API Endpoint Only</type>\r\n        <howfound>Tester Input</howfound>\r\n        <targetrelease>PureCloud 1.0GA</targetrelease>\r\n        <pscim>\r\n            <product>PureCloud</product>\r\n        </pscim>\r\n        <teststeps>\r\n            <teststep action=\"Call an endpoint to cancel a Work Item without permission that is owned by another user and is suspended\" expectedresult=\"A HTTP response is returned indicating the operation failed         \"/>\r\n        </teststeps>\r\n    </testcase>\r\n    </testcases>\r\n\t\t]]>\r\n      </gim:testCaseXml>\r\n    </gim:CreateInactiveTestCase>\r\n  </soapenv:Body>\r\n</soapenv:Envelope>\r\n"
		},


		{
			"id": "00000000-0000-0000-0000-000000000025",
			"headers": "Content-Type: text/xml\nSOAPAction: http://gimpy.i3domain.inin.com/TCDBWebService/CreateInactiveTestCase\n",
			"url": "http://gimpy.i3domain.inin.com/TCDBWebService/TCDBWebService.asmx",
			"pathVariables": {},
			"preRequestScript": "",
			"method": "POST",
			"collectionId": "00000000-0000-0000-0000-000000000007",
			"data": [],
			"dataMode": "raw",
			"name": "25",
			"description": "",
			"descriptionFormat": "html",
			"time": 1428691633073,
			"version": 2,
			"responses": [],
			"tests": "var jsonObject = xmlToJson(responseBody);\nvar importResult = JSON.stringify(jsonObject);\nvar match = importResult.match(/testcaseid.+\\:\\\\\\\"(\\d+).+imported/);\npostman.setGlobalVariable( \"testCaseId\", match[1]);\nconsole.log(\"Test Case Number Imported \" + match[1]);",
			"currentHelper": "normal",
			"helperAttributes": {},
			"collectionOwner": 0,
			"write": true,
			"synced": false,
			"owner": "39537",
			"collection": "00000000-0000-0000-0000-000000000007",
			"rawModeData": "<soapenv:Envelope xmlns:soapenv=\"http://schemas.xmlsoap.org/soap/envelope/\" xmlns:gim=\"http://gimpy.i3domain.inin.com\">\r\n  <soapenv:Header/>\r\n  <soapenv:Body>\r\n    <gim:CreateInactiveTestCase>\r\n      <!--Optional:-->\r\n      <gim:testCaseXml>       \r\n                <![CDATA[         \r\n    <testcases username=\"{{gimpyUsername}}\">\r\n    <testcase codebase=\"PureCloud\" id=\"{{testCaseId}}\" name=\"API - Cancel NOT Suspended Work Item Without Permission Owned By This User\" priority=\"P1\" state=\"Inactive\">\r\n        <description>Verify the correct behavior upon cancelling a NOT suspended Work Item without permission that is owned by this user</description>\r\n        <estimatedruntime>0.20</estimatedruntime>\r\n        <assumptions>Permission to cancel a Work Item has been revoked.\r\n A Work Item exists that is owned by this user.\r\n The Work Item is NOT suspended.</assumptions>\r\n        <limitations> </limitations>\r\n        <notes> </notes>\r\n        <data> </data>\r\n        <type>Public API Endpoint Only</type>\r\n        <howfound>Tester Input</howfound>\r\n        <targetrelease>PureCloud 1.0GA</targetrelease>\r\n        <pscim>\r\n            <product>PureCloud</product>\r\n        </pscim>\r\n        <teststeps>\r\n            <teststep action=\"Call an endpoint to cancel a Work Item without permission that is owned by this user and NOT suspended \" expectedresult=\"A HTTP response is returned indicating the operation failed     \"/>\r\n        </teststeps>\r\n    </testcase>\r\n    </testcases>\r\n\t\t]]>\r\n      </gim:testCaseXml>\r\n    </gim:CreateInactiveTestCase>\r\n  </soapenv:Body>\r\n</soapenv:Envelope>\r\n"
		},


		{
			"id": "00000000-0000-0000-0000-000000000026",
			"headers": "Content-Type: text/xml\nSOAPAction: http://gimpy.i3domain.inin.com/TCDBWebService/CreateInactiveTestCase\n",
			"url": "http://gimpy.i3domain.inin.com/TCDBWebService/TCDBWebService.asmx",
			"pathVariables": {},
			"preRequestScript": "",
			"method": "POST",
			"collectionId": "00000000-0000-0000-0000-000000000007",
			"data": [],
			"dataMode": "raw",
			"name": "26",
			"description": "",
			"descriptionFormat": "html",
			"time": 1428691633073,
			"version": 2,
			"responses": [],
			"tests": "var jsonObject = xmlToJson(responseBody);\nvar importResult = JSON.stringify(jsonObject);\nvar match = importResult.match(/testcaseid.+\\:\\\\\\\"(\\d+).+imported/);\npostman.setGlobalVariable( \"testCaseId\", match[1]);\nconsole.log(\"Test Case Number Imported \" + match[1]);",
			"currentHelper": "normal",
			"helperAttributes": {},
			"collectionOwner": 0,
			"write": true,
			"synced": false,
			"owner": "39537",
			"collection": "00000000-0000-0000-0000-000000000007",
			"rawModeData": "<soapenv:Envelope xmlns:soapenv=\"http://schemas.xmlsoap.org/soap/envelope/\" xmlns:gim=\"http://gimpy.i3domain.inin.com\">\r\n  <soapenv:Header/>\r\n  <soapenv:Body>\r\n    <gim:CreateInactiveTestCase>\r\n      <!--Optional:-->\r\n      <gim:testCaseXml>       \r\n                <![CDATA[         \r\n    <testcases username=\"{{gimpyUsername}}\">\r\n    <testcase codebase=\"PureCloud\" id=\"{{testCaseId}}\" name=\"API - Cancel Suspended Work Item Without Permission Owned By This User\" priority=\"P1\" state=\"Inactive\">\r\n        <description>Verify the correct behavior upon cancelling a suspended Work Item without permission that is owned by this user</description>\r\n        <estimatedruntime>0.20</estimatedruntime>\r\n        <assumptions>Permission to cancel a Work Item has been revoked.\r\n A Work Item exists that is owned by this user.\r\n The Work Item is suspended.</assumptions>\r\n        <limitations> </limitations>\r\n        <notes> </notes>\r\n        <data> </data>\r\n        <type>Public API Endpoint Only</type>\r\n        <howfound>Tester Input</howfound>\r\n        <targetrelease>PureCloud 1.0GA</targetrelease>\r\n        <pscim>\r\n            <product>PureCloud</product>\r\n        </pscim>\r\n        <teststeps>\r\n            <teststep action=\"Call an endpoint to cancel a Work Item without permission that is owned by this user and is suspended \" expectedresult=\"A HTTP response is returned indicating the operation failed \"/>\r\n        </teststeps>\r\n    </testcase>\r\n    </testcases>\r\n\t\t]]>\r\n      </gim:testCaseXml>\r\n    </gim:CreateInactiveTestCase>\r\n  </soapenv:Body>\r\n</soapenv:Envelope>\r\n"
		},


		{
			"id": "00000000-0000-0000-0000-000000000027",
			"headers": "Content-Type: text/xml\nSOAPAction: http://gimpy.i3domain.inin.com/TCDBWebService/CreateInactiveTestCase\n",
			"url": "http://gimpy.i3domain.inin.com/TCDBWebService/TCDBWebService.asmx",
			"pathVariables": {},
			"preRequestScript": "",
			"method": "POST",
			"collectionId": "00000000-0000-0000-0000-000000000007",
			"data": [],
			"dataMode": "raw",
			"name": "27",
			"description": "",
			"descriptionFormat": "html",
			"time": 1428691633073,
			"version": 2,
			"responses": [],
			"tests": "var jsonObject = xmlToJson(responseBody);\nvar importResult = JSON.stringify(jsonObject);\nvar match = importResult.match(/testcaseid.+\\:\\\\\\\"(\\d+).+imported/);\npostman.setGlobalVariable( \"testCaseId\", match[1]);\nconsole.log(\"Test Case Number Imported \" + match[1]);",
			"currentHelper": "normal",
			"helperAttributes": {},
			"collectionOwner": 0,
			"write": true,
			"synced": false,
			"owner": "39537",
			"collection": "00000000-0000-0000-0000-000000000007",
			"rawModeData": "<soapenv:Envelope xmlns:soapenv=\"http://schemas.xmlsoap.org/soap/envelope/\" xmlns:gim=\"http://gimpy.i3domain.inin.com\">\r\n  <soapenv:Header/>\r\n  <soapenv:Body>\r\n    <gim:CreateInactiveTestCase>\r\n      <!--Optional:-->\r\n      <gim:testCaseXml>       \r\n                <![CDATA[         \r\n    <testcases username=\"{{gimpyUsername}}\">\r\n    <testcase codebase=\"PureCloud\" id=\"{{testCaseId}}\" name=\"API - Cancel NOT Suspended Work Item with Permission Owned By Another User\" priority=\"P1\" state=\"Inactive\">\r\n        <description>Verify the correct behavior upon cancelling a NOT suspended Work Item with permission that is owned by another user</description>\r\n        <estimatedruntime>0.20</estimatedruntime>\r\n        <assumptions>Permission to cancel a Work Item has been revoked.\r\n A Work Item exists that is owned by another user.\r\n The Work Item is NOT suspended.</assumptions>\r\n        <limitations> </limitations>\r\n        <notes> </notes>\r\n        <data> </data>\r\n        <type>Public API Endpoint Only</type>\r\n        <howfound>Tester Input</howfound>\r\n        <targetrelease>PureCloud 1.0GA</targetrelease>\r\n        <pscim>\r\n            <product>PureCloud</product>\r\n        </pscim>\r\n        <teststeps>\r\n            <teststep action=\"Call an endpoint to cancel a Work Item with permission that is owned by another user and NOT suspended\" expectedresult=\"A HTTP response is returned indicating the operation failed      \"/>\r\n        </teststeps>\r\n    </testcase>\r\n    </testcases>\r\n\t\t]]>\r\n      </gim:testCaseXml>\r\n    </gim:CreateInactiveTestCase>\r\n  </soapenv:Body>\r\n</soapenv:Envelope>\r\n"
		},


		{
			"id": "00000000-0000-0000-0000-000000000028",
			"headers": "Content-Type: text/xml\nSOAPAction: http://gimpy.i3domain.inin.com/TCDBWebService/CreateInactiveTestCase\n",
			"url": "http://gimpy.i3domain.inin.com/TCDBWebService/TCDBWebService.asmx",
			"pathVariables": {},
			"preRequestScript": "",
			"method": "POST",
			"collectionId": "00000000-0000-0000-0000-000000000007",
			"data": [],
			"dataMode": "raw",
			"name": "28",
			"description": "",
			"descriptionFormat": "html",
			"time": 1428691633073,
			"version": 2,
			"responses": [],
			"tests": "var jsonObject = xmlToJson(responseBody);\nvar importResult = JSON.stringify(jsonObject);\nvar match = importResult.match(/testcaseid.+\\:\\\\\\\"(\\d+).+imported/);\npostman.setGlobalVariable( \"testCaseId\", match[1]);\nconsole.log(\"Test Case Number Imported \" + match[1]);",
			"currentHelper": "normal",
			"helperAttributes": {},
			"collectionOwner": 0,
			"write": true,
			"synced": false,
			"owner": "39537",
			"collection": "00000000-0000-0000-0000-000000000007",
			"rawModeData": "<soapenv:Envelope xmlns:soapenv=\"http://schemas.xmlsoap.org/soap/envelope/\" xmlns:gim=\"http://gimpy.i3domain.inin.com\">\r\n  <soapenv:Header/>\r\n  <soapenv:Body>\r\n    <gim:CreateInactiveTestCase>\r\n      <!--Optional:-->\r\n      <gim:testCaseXml>       \r\n                <![CDATA[         \r\n    <testcases username=\"{{gimpyUsername}}\">\r\n    <testcase codebase=\"PureCloud\" id=\"{{testCaseId}}\" name=\"API - Cancel Suspended Work Item with Permission Owned By Another User\" priority=\"P1\" state=\"Inactive\">\r\n        <description>Verify the correct behavior upon cancelling a suspended Work Item with permission that is owned by another user</description>\r\n        <estimatedruntime>0.20</estimatedruntime>\r\n        <assumptions>Permission to cancel a Work Item has been revoked.\r\n A Work Item exists that is owned by another user.\r\n The Work Item is suspended.</assumptions>\r\n        <limitations> </limitations>\r\n        <notes> </notes>\r\n        <data> </data>\r\n        <type>Public API Endpoint Only</type>\r\n        <howfound>Tester Input</howfound>\r\n        <targetrelease>PureCloud 1.0GA</targetrelease>\r\n        <pscim>\r\n            <product>PureCloud</product>\r\n        </pscim>\r\n        <teststeps>\r\n            <teststep action=\"Call an endpoint to cancel a Work Item with permission that is owned by another user and is suspended\" expectedresult=\"A HTTP response is returned indicating the operation failed      \"/>\r\n        </teststeps>\r\n    </testcase>\r\n    </testcases>\r\n\t\t]]>\r\n      </gim:testCaseXml>\r\n    </gim:CreateInactiveTestCase>\r\n  </soapenv:Body>\r\n</soapenv:Envelope>\r\n"
		},


		{
			"id": "00000000-0000-0000-0000-000000000029",
			"headers": "Content-Type: text/xml\nSOAPAction: http://gimpy.i3domain.inin.com/TCDBWebService/CreateInactiveTestCase\n",
			"url": "http://gimpy.i3domain.inin.com/TCDBWebService/TCDBWebService.asmx",
			"pathVariables": {},
			"preRequestScript": "",
			"method": "POST",
			"collectionId": "00000000-0000-0000-0000-000000000007",
			"data": [],
			"dataMode": "raw",
			"name": "29",
			"description": "",
			"descriptionFormat": "html",
			"time": 1428691633073,
			"version": 2,
			"responses": [],
			"tests": "var jsonObject = xmlToJson(responseBody);\nvar importResult = JSON.stringify(jsonObject);\nvar match = importResult.match(/testcaseid.+\\:\\\\\\\"(\\d+).+imported/);\npostman.setGlobalVariable( \"testCaseId\", match[1]);\nconsole.log(\"Test Case Number Imported \" + match[1]);",
			"currentHelper": "normal",
			"helperAttributes": {},
			"collectionOwner": 0,
			"write": true,
			"synced": false,
			"owner": "39537",
			"collection": "00000000-0000-0000-0000-000000000007",
			"rawModeData": "<soapenv:Envelope xmlns:soapenv=\"http://schemas.xmlsoap.org/soap/envelope/\" xmlns:gim=\"http://gimpy.i3domain.inin.com\">\r\n  <soapenv:Header/>\r\n  <soapenv:Body>\r\n    <gim:CreateInactiveTestCase>\r\n      <!--Optional:-->\r\n      <gim:testCaseXml>       \r\n                <![CDATA[         \r\n    <testcases username=\"{{gimpyUsername}}\">\r\n    <testcase codebase=\"PureCloud\" id=\"{{testCaseId}}\" name=\"API - Cancel NOT Suspended Work Item with Permission Owned By This User\" priority=\"P1\" state=\"Inactive\">\r\n        <description>Verify the correct behavior upon cancelling a NOT suspended Work Item with permission that is owned by this user</description>\r\n        <estimatedruntime>0.20</estimatedruntime>\r\n        <assumptions>Permission to cancel a Work Item has been revoked.\r\n A Work Item exists that is owned by this user.\r\n The Work Item is NOT suspended.</assumptions>\r\n        <limitations> </limitations>\r\n        <notes> </notes>\r\n        <data> </data>\r\n        <type>Public API Endpoint Only</type>\r\n        <howfound>Tester Input</howfound>\r\n        <targetrelease>PureCloud 1.0GA</targetrelease>\r\n        <pscim>\r\n            <product>PureCloud</product>\r\n        </pscim>\r\n        <teststeps>\r\n            <teststep action=\"Call an endpoint to cancel a Work Item with permission that is owned by this user and NOT suspended \" expectedresult=\"A HTTP response is returned indicating the operation failed \"/>\r\n        </teststeps>\r\n    </testcase>\r\n    </testcases>\r\n\t\t]]>\r\n      </gim:testCaseXml>\r\n    </gim:CreateInactiveTestCase>\r\n  </soapenv:Body>\r\n</soapenv:Envelope>\r\n"
		},


		{
			"id": "00000000-0000-0000-0000-000000000030",
			"headers": "Content-Type: text/xml\nSOAPAction: http://gimpy.i3domain.inin.com/TCDBWebService/CreateInactiveTestCase\n",
			"url": "http://gimpy.i3domain.inin.com/TCDBWebService/TCDBWebService.asmx",
			"pathVariables": {},
			"preRequestScript": "",
			"method": "POST",
			"collectionId": "00000000-0000-0000-0000-000000000007",
			"data": [],
			"dataMode": "raw",
			"name": "30",
			"description": "",
			"descriptionFormat": "html",
			"time": 1428691633073,
			"version": 2,
			"responses": [],
			"tests": "var jsonObject = xmlToJson(responseBody);\nvar importResult = JSON.stringify(jsonObject);\nvar match = importResult.match(/testcaseid.+\\:\\\\\\\"(\\d+).+imported/);\npostman.setGlobalVariable( \"testCaseId\", match[1]);\nconsole.log(\"Test Case Number Imported \" + match[1]);",
			"currentHelper": "normal",
			"helperAttributes": {},
			"collectionOwner": 0,
			"write": true,
			"synced": false,
			"owner": "39537",
			"collection": "00000000-0000-0000-0000-000000000007",
			"rawModeData": "<soapenv:Envelope xmlns:soapenv=\"http://schemas.xmlsoap.org/soap/envelope/\" xmlns:gim=\"http://gimpy.i3domain.inin.com\">\r\n  <soapenv:Header/>\r\n  <soapenv:Body>\r\n    <gim:CreateInactiveTestCase>\r\n      <!--Optional:-->\r\n      <gim:testCaseXml>       \r\n                <![CDATA[         \r\n    <testcases username=\"{{gimpyUsername}}\">\r\n    <testcase codebase=\"PureCloud\" id=\"{{testCaseId}}\" name=\"API - Cancel Suspended Work Item with Permission Owned By This User\" priority=\"P1\" state=\"Inactive\">\r\n        <description>Verify the correct behavior upon cancelling a suspended Work Item with permission that is owned by this user</description>\r\n        <estimatedruntime>0.20</estimatedruntime>\r\n        <assumptions>Permission to cancel a Work Item has been revoked.\r\n A Work Item exists that is owned by this user.\r\n The Work Item is suspended.</assumptions>\r\n        <limitations> </limitations>\r\n        <notes> </notes>\r\n        <data> </data>\r\n        <type>Public API Endpoint Only</type>\r\n        <howfound>Tester Input</howfound>\r\n        <targetrelease>PureCloud 1.0GA</targetrelease>\r\n        <pscim>\r\n            <product>PureCloud</product>\r\n        </pscim>\r\n        <teststeps>\r\n            <teststep action=\"Call an endpoint to cancel a Work Item with permission that is owned by this user and is suspended \" expectedresult=\"A HTTP response is returned indicating the operation failed \"/>\r\n        </teststeps>\r\n    </testcase>\r\n    </testcases>\r\n\t\t]]>\r\n      </gim:testCaseXml>\r\n    </gim:CreateInactiveTestCase>\r\n  </soapenv:Body>\r\n</soapenv:Envelope>\r\n"
		},


