		{
			"id": "itemIDnum",
			"headers": "Authorization: IPC {{auth-dca}}\nININ-Session: {{sess-id}}\n",
			"url": "{{server_url_dca}}/api/v1/processautomation/flows/definitions/{{flow-id}}/versions",
			"preRequestScript": "",
			"pathVariables": {},
			"method": "GET",
			"data": [],
			"dataMode": "params",
			"version": 2,
			"tests": "if (responseCode.code >= 200 && responseCode.code <= 299) {\r\n        var data = JSON.parse(responseBody);\r\n        if (data.total === 0) {\r\n            tests[\"36650 Get All Versions of New Flow\"] = responseCode.code === 200;\r\n        }\r\n        else {\r\n              tests[\"A flow version was returned!\"] = false;\r\n        }\r\n}\r\nelse {\r\n        if (responseCode.code >= 400 && responseCode.code <= 499) {\r\n                tests[\"Response Code is Incorrect Range (400 to 499)!\"] = false;\r\n        }\r\n        if (responseCode.code >= 500 && responseCode.code <= 599) {\r\n                tests[\"Response Code is Incorrect Range (500 to 599)!\"] = false;\r\n        }\r\n        if (responseCode.code >= 600 || responseCode.code < 200 )  {\r\n                tests[\"Response Code is Incorrect Range! (Not 200-299, 400-599)\"] = false;\r\n        }\r\n}\r\n",
			"currentHelper": "normal",
			"helperAttributes": {},
			"time": 1432659425804,
			"name": "GET_FLOW_DEFINITION_VERSIONS",
			"description": "",
			"collectionId": "00000000-aaaa-0000-0000-0000000000collectionNumber",
			"responses": [],
			"synced": false
		},