		{
			"id": "itemIDnum",
			"name": "TERMINATE_FLOW",
			"dataMode": "raw",
			"data": [],
			"headers": "Authorization: IPC {{auth-dca}}\nININ-Session: {{sess-id}}\nContent-Type: application/json\n",
			"method": "POST",
			"pathVariables": {},
			"url": "{{server_url_dca}}/api/v1/processautomation/flows/instances/{{instance_id}}/commands/terminate",
			"preRequestScript": "",
			"tests": "",
			"version": 2,
			"currentHelper": "normal",
			"helperAttributes": "{}",
			"collectionId": "00000000-aaaa-0000-0000-0000000000collectionNumber",
			"write": true,
			"synced": false,
			"rawModeData": "{\r\n  \"force\": \"true\",\r\n  \"reason\": \"testReason\"\r\n}"
		},