Test Case:
API.Flows.Instance.Commands.Terminate
-------------------------------------
Status Code: <Response [200]>
Test Case ID: 50559
('Feature Suite ', '3683.0', ': Updated successfully with TC', '50559', '\n\n\n')Test Case:
API.Flows.Instance.Commands.Retry
---------------------------------
Status Code: <Response [200]>
Test Case ID: 50560
('Feature Suite ', '3683.0', ': Updated successfully with TC', '50560', '\n\n\n')Test Case:
API.WorkItems.Instance.Commands.Submit
--------------------------------------
Status Code: <Response [200]>
Test Case ID: 50561
('Feature Suite ', '3687.0', ': Updated successfully with TC', '50561', '\n\n\n')Test Case:
API.WorkItems.Instance.Commands.TakeOwnership
---------------------------------------------
Status Code: <Response [200]>
Test Case ID: 50562
('Feature Suite ', '3687.0', ': Updated successfully with TC', '50562', '\n\n\n')Test Case:
API.WorkItems.Instance.Commands.Transfer.User
---------------------------------------------
Status Code: <Response [200]>
Test Case ID: 50563
('Feature Suite ', '3687.0', ': Updated successfully with TC', '50563', '\n\n\n')Test Case:
API.WorkItems.Instance.Commands.Transfer.Queue
----------------------------------------------
Status Code: <Response [200]>
Test Case ID: 50564
('Feature Suite ', '3687.0', ': Updated successfully with TC', '50564', '\n\n\n')Test Case:
API.Flows.Instances.Search.Data
-------------------------------
Status Code: <Response [200]>
Test Case ID: 50565
('Feature Suite ', '3681.0', ': Updated successfully with TC', '50565', '\n\n\n')